===========Generating Bitstream===========
# UDB_PA_0 (count=15)
00000000: 00 00 99 00 00 00 00 00 00 00 00 00 00 00 00
# IOPINS0_0 (count=28)
0000000f: 00 00 00 00 00 00 00 00 00 00 d8 00 00 00 00 00
0000001f: 00 00 00 00 00 00 00 00 00 00 00 00
# UDB_PA_1 (count=15)
0000002b: 04 00 99 00 00 00 00 02 00 00 00 08 00 00 00
# IOPINS0_1 (count=28)
0000003a: 20 00 00 00 00 00 00 00 00 10 03 00 00 00 00 00
0000004a: 00 00 00 00 00 00 00 00 00 00 00 00
# UDB_PA_2 (count=15)
00000056: 00 00 99 00 00 00 00 00 00 00 00 08 00 00 00
# IOPINS0_2 (count=28)
00000065: 20 00 00 00 00 00 00 00 b6 01 03 00 00 00 00 00
00000075: 00 00 00 00 00 00 00 00 00 00 00 00
# UDB_PA_3 (count=15)
00000081: 00 00 99 00 00 00 00 00 00 00 00 00 00 00 00
# IOPINS0_3 (count=28)
00000090: 00 00 00 00 00 00 00 00 b6 6d 1b 00 00 00 00 00
000000a0: 00 00 00 00 00 00 00 00 00 00 00 00
# IOPINS0_4 (count=28)
000000ac: 00 00 00 00 00 00 00 00 00 00 00 00 00 00 00 00
000000bc: 00 00 00 00 00 00 00 00 00 00 00 00
# IOPINS0_5 (count=28)
000000c8: 00 00 00 00 00 00 00 00 00 00 00 00 00 00 00 00
000000d8: 00 00 00 00 00 00 00 00 00 00 00 00
# IOPINS0_6 (count=28)
000000e4: 00 00 00 00 00 00 00 00 00 00 00 00 00 00 00 00
000000f4: 00 00 00 00 00 00 00 00 00 00 00 00
# INT_SELECT (count=4)
00000100: 02 00 00 00
# INT_CONFIG (count=4)
00000104: 02 00 00 00
# CYDEV_CLK_IMO_CONFIG (count=4)
00000108: 00 00 00 80
# CYDEV_CLK_ILO_CONFIG (count=4)
0000010c: 06 00 00 80
# CYDEV_CLK_SELECT (count=4)
00000110: 00 00 04 00
# CYDEV_WDT_CONFIG (count=4)
00000114: 00 00 00 40
# CYDEV_PERI_PCLK_CTL14 (count=4)
00000118: 41 00 00 00
# CYDEV_PERI_PCLK_CTL12 (count=4)
0000011c: 40 00 00 00
# TR_GROUP0 (count=32)
00000120: 00 00 00 00 00 00 00 00 00 00 00 00 00 00 00 00
00000130: 00 00 00 00 00 00 00 00 00 00 00 00 00 00 00 00

# UDB_0_1_0_CONFIG (count=128)
00000140: 00 41 20 00 01 00 0e e3 00 0f 00 f0 00 ff 00 00
00000150: 1c 00 03 00 00 c3 08 00 00 82 20 00 00 08 00 00
00000160: 00 0c 1c f3 01 0c 16 00 00 04 03 00 00 f3 00 0c
00000170: 0f c0 1a 2c 20 10 00 0f 00 20 0a 88 00 00 10 00
00000180: 02 00 00 00 00 00 40 00 00 ff 07 ff 40 20 f0 05
00000190: 08 00 00 00 18 00 04 00 04 04 04 04 11 11 00 01
000001a0: 40 a8 40 20 00 00 00 00 00 00 00 00 00 00 00 00
000001b0: 00 00 00 00 00 00 00 00 00 00 00 00 00 00 00 00

# UDB_0_1_1_CONFIG (count=128)
000001c0: 00 00 20 00 2c 00 11 00 40 00 00 00 1c 03 22 04
000001d0: 80 00 03 08 30 20 0c 45 00 d3 00 0c 14 00 00 00
000001e0: 09 8a 10 14 00 00 20 00 10 d3 00 04 00 00 00 00
000001f0: 1f 00 20 c0 40 0f 80 30 00 88 00 20 00 00 54 04
00000200: 32 06 00 00 00 00 0c be 34 ff ff ff 00 00 f0 44
00000210: 0c 00 00 00 01 00 00 00 04 04 04 04 11 11 00 01
00000220: 00 00 00 00 00 00 c0 00 00 00 40 02 00 00 00 00
00000230: 00 00 00 00 00 00 00 00 00 00 00 00 00 00 00 00

# UDB_0_0_1_CONFIG (count=128)
00000240: 00 00 00 01 00 00 00 02 00 00 00 00 00 00 00 01
00000250: 00 00 00 00 04 00 00 00 00 00 07 00 00 00 01 00
00000260: 00 00 00 00 00 00 00 00 00 00 00 00 00 00 08 02
00000270: 01 00 02 02 04 01 08 00 00 00 00 02 00 00 00 14
00000280: 10 05 00 00 00 d1 02 00 07 ff ff ff 00 a0 00 04
00000290: 18 00 80 00 05 00 00 00 04 04 04 04 13 33 00 01
000002a0: 40 00 c0 00 40 40 c0 00 c0 00 c0 00 c0 00 c0 00
000002b0: 00 00 00 00 00 00 00 00 00 00 00 00 00 00 00 00

# UDB_0_0_0_CONFIG (count=128)
000002c0: 67 09 18 46 00 9f 23 00 00 9f 04 00 04 80 80 00
000002d0: 7c 12 02 45 5c 04 21 38 00 00 00 00 00 00 00 00
000002e0: 10 00 00 00 08 00 00 00 18 00 00 00 7f 00 00 00
000002f0: 1f 03 80 1c 40 80 38 60 00 00 02 00 00 00 10 40
00000300: 32 04 05 00 01 0c 0e 00 05 ff ff ff 62 a0 f0 41
00000310: 0c 00 00 00 00 00 02 11 04 04 04 04 11 11 00 01
00000320: 00 00 00 00 00 00 40 02 00 10 30 10 00 10 10 12
00000330: 00 00 00 00 00 00 00 00 00 00 00 00 00 00 00 00

# UWRK_B0_WRK_DP_BITS (count=64)
00000340: 00 00 00 00 00 00 00 00 00 00 00 00 00 00 00 00
00000350: 00 00 00 00 00 00 00 00 00 00 00 00 00 00 00 00
00000360: 00 00 00 00 00 00 00 00 00 00 00 00 00 00 00 00
00000370: 00 00 00 00 00 00 00 00 00 00 00 00 00 00 00 00

# UWRK_B0_WRK_STATCTL_BITS + 0x00000070 (count=32)
00000380: 00 00 00 00 00 00 00 00 00 00 00 00 00 00 00 00
00000390: 38 0f 0d 72 00 00 00 00 00 00 00 00 00 00 00 00

# UDB_BCTL0_DRV (count=3)
000003a0: 00 0a 01
# UDB_BCTL0_BOTSEL_L (count=12)
000003a3: 00 00 00 00 00 00 00 00 0a 01 00 00
# DSISWITCH_0_0 (count=128)
000003af: 00 00 00 00 00 00 00 00 00 00 00 00 00 00 00 00
000003bf: 00 00 00 00 00 00 00 00 00 00 00 00 00 00 00 00
000003cf: 00 00 00 00 00 00 00 00 00 00 00 00 00 00 00 00
000003df: 00 00 00 00 00 00 00 00 00 00 00 00 00 00 00 00
000003ef: 00 00 00 00 00 00 00 00 00 00 00 00 00 00 00 00
000003ff: 00 00 00 00 00 00 00 00 00 00 00 00 00 00 00 00
0000040f: 00 00 00 00 00 00 00 00 00 00 00 00 00 00 00 00
0000041f: 00 00 00 00 00 00 00 00 00 00 00 00 00 00 00 00

# DSI0_0_HV_ROUTING + 0x00000080 (count=128)
0000042f: 00 00 00 00 00 00 00 00 00 00 00 00 20 00 00 00
0000043f: 00 00 00 00 00 00 00 00 00 00 00 00 20 00 00 00
0000044f: 00 00 00 00 00 00 00 00 00 00 00 00 00 00 00 00
0000045f: 00 00 00 00 00 00 00 00 00 00 00 00 00 00 00 00
0000046f: 00 00 00 00 00 00 00 00 00 00 00 00 00 00 00 00
0000047f: 00 00 00 00 00 00 00 00 00 00 00 00 00 00 00 00
0000048f: 02 00 00 00 00 00 00 00 00 00 00 00 00 00 00 00
0000049f: 00 00 00 00 00 00 00 00 00 00 00 00 00 00 00 00

# DSISWITCH_0_1 (count=128)
000004af: 00 00 00 00 00 00 00 00 00 00 00 00 00 00 00 00
000004bf: 00 00 00 00 00 00 00 00 00 00 00 00 00 00 00 00
000004cf: 00 00 00 00 00 00 00 00 00 00 00 00 00 00 00 00
000004df: 00 00 00 00 00 00 00 00 00 00 00 00 00 00 00 00
000004ef: 00 00 00 00 00 00 00 00 00 00 00 00 00 00 00 00
000004ff: 00 00 00 00 00 00 00 00 00 00 00 00 00 00 00 00
0000050f: 20 00 00 00 00 00 00 00 00 00 00 00 00 00 00 00
0000051f: 00 00 00 00 00 00 00 00 00 00 00 00 00 00 00 00

# DSI0_1_HV_ROUTING + 0x00000080 (count=128)
0000052f: 00 00 00 00 00 00 00 00 00 00 00 00 00 00 00 00
0000053f: 00 00 00 00 00 00 00 00 00 00 00 00 00 00 00 00
0000054f: 00 00 00 00 00 00 00 00 00 00 00 00 00 00 00 00
0000055f: 00 00 00 00 00 00 00 00 00 00 00 00 00 00 00 00
0000056f: 00 00 00 00 00 00 00 00 00 00 00 00 00 00 00 00
0000057f: 00 00 00 00 00 00 00 00 02 00 00 00 00 00 00 00
0000058f: 00 00 00 00 00 00 00 00 00 00 00 00 00 00 00 00
0000059f: 00 00 00 00 00 00 00 00 00 00 00 00 00 00 00 00

# UDBSWITCH_0_0 (count=128)
000005af: 06 00 01 08 0c 00 00 00 00 00 40 10 00 00 11 08
000005bf: a8 00 02 00 00 00 00 80 00 a1 40 08 08 80 11 01
000005cf: 05 00 05 00 40 00 0a 08 00 00 00 00 00 80 00 00
000005df: 00 00 05 00 00 00 00 00 00 54 01 00 00 00 01 84
000005ef: 65 00 00 00 00 80 00 00 00 80 00 04 00 01 00 88
000005ff: 00 00 80 00 00 00 00 40 00 20 00 00 80 01 00 08
0000060f: 00 00 00 00 00 00 00 00 00 54 00 00 00 00 00 00
0000061f: a8 14 00 00 00 00 00 80 00 00 00 00 00 00 00 00

# UDB_1_0_HV_ROUTING + 0x00000080 (count=128)
0000062f: 00 00 01 00 a5 00 00 00 10 00 49 00 00 00 00 01
0000063f: 00 00 00 10 48 00 08 00 00 00 00 00 10 15 41 00
0000064f: 01 00 00 00 80 00 80 00 00 00 88 22 00 00 00 40
0000065f: 00 00 00 00 00 00 00 00 00 00 00 00 00 00 00 00
0000066f: 0f 00 ec 00 8f 00 00 00 00 00 10 00 03 00 df 00
0000067f: 1f 00 18 00 00 00 d4 00 00 00 00 00 00 00 00 00
0000068f: 00 00 00 00 00 00 00 00 00 00 00 00 00 00 00 00
0000069f: 00 00 00 00 00 00 00 00 00 00 00 00 00 00 00 00

# UDBSWITCH_0_1 (count=128)
000006af: 00 08 80 00 80 08 88 00 00 00 80 24 00 00 60 02
000006bf: 40 00 08 08 40 28 00 01 84 0a 80 08 00 00 58 40
000006cf: 02 00 01 14 00 00 10 19 00 55 00 00 00 22 00 08
000006df: 90 00 04 00 00 00 18 01 48 00 01 10 00 00 80 00
000006ef: 00 00 00 10 00 00 04 08 01 40 00 00 00 20 00 00
000006ff: 00 14 0c 10 00 00 88 01 00 00 02 00 00 00 08 a2
0000070f: 04 00 40 40 00 00 00 00 00 00 00 00 00 00 00 00
0000071f: 00 00 00 00 00 00 00 00 00 00 00 00 00 00 00 00

# UDB_1_1_HV_ROUTING + 0x00000080 (count=128)
0000072f: 00 00 10 80 00 00 00 40 00 00 00 00 00 00 00 00
0000073f: 00 00 00 00 00 00 00 00 00 00 00 00 00 00 00 00
0000074f: 00 00 00 00 00 00 00 00 00 00 00 00 00 00 00 00
0000075f: 00 00 00 00 00 00 00 00 00 00 00 00 00 00 00 00
0000076f: fc 00 be 00 7e 00 00 00 00 00 af 00 ee 00 1f 00
0000077f: 64 00 20 00 00 00 f1 00 0d 00 00 00 00 00 00 00
0000078f: 00 00 00 00 00 00 00 00 00 00 00 00 00 00 00 00
0000079f: 00 00 00 00 00 00 00 00 00 00 00 00 00 00 00 00

# DSISWITCH_1_0 (count=128)
000007af: 00 00 00 00 00 00 00 00 00 00 40 00 00 00 00 00
000007bf: 00 00 00 00 00 00 00 00 00 00 00 00 00 00 00 00
000007cf: 00 00 00 00 00 00 00 00 00 00 00 00 00 00 00 00
000007df: 00 00 00 00 00 00 00 00 00 00 00 00 00 00 00 00
000007ef: 00 00 00 00 00 00 00 00 00 00 00 00 00 00 00 00
000007ff: 00 00 00 00 00 00 00 00 00 00 00 00 00 00 00 00
0000080f: 00 00 00 10 00 00 00 00 00 00 00 00 00 00 80 00
0000081f: 00 00 00 00 00 00 00 00 00 00 00 00 00 00 00 00

# DSI2_0_HV_ROUTING + 0x00000080 (count=128)
0000082f: 00 00 40 00 00 00 00 00 00 00 00 00 00 00 00 00
0000083f: 00 00 00 10 00 00 00 00 00 00 00 00 00 00 00 00
0000084f: 00 00 40 00 00 00 00 00 00 00 00 00 00 00 00 10
0000085f: 00 00 00 00 00 00 00 00 00 00 00 00 00 00 00 00
0000086f: 00 00 10 00 00 00 00 00 00 00 00 00 00 00 00 00
0000087f: 00 00 00 00 00 00 00 00 40 00 80 00 00 00 00 00
0000088f: 20 00 00 00 00 00 00 00 00 00 10 00 00 00 00 00
0000089f: 00 00 00 00 00 00 00 00 00 00 00 00 00 00 00 00

# DSISWITCH_1_1 (count=128)
000008af: 00 00 00 00 00 00 00 00 00 00 00 00 00 00 00 00
000008bf: 00 00 00 00 00 00 00 00 00 00 00 00 00 00 00 00
000008cf: 00 00 00 00 00 00 00 00 00 00 00 00 00 00 00 00
000008df: 00 00 00 00 00 00 00 00 00 00 00 00 00 00 00 00
000008ef: 00 00 00 00 00 00 00 00 00 00 00 00 00 00 00 00
000008ff: 00 00 00 00 00 00 00 00 00 00 00 00 00 00 00 00
0000090f: 00 00 00 00 00 00 00 00 00 00 00 00 00 00 00 00
0000091f: 00 00 00 00 00 00 00 00 00 00 00 00 00 00 00 00

# DSI2_1_HV_ROUTING + 0x00000080 (count=128)
0000092f: 00 00 00 00 00 00 40 00 00 00 00 00 00 00 00 00
0000093f: 00 00 00 00 00 00 00 00 00 00 00 00 00 00 00 00
0000094f: 00 00 00 00 00 00 00 00 00 00 00 00 00 00 00 00
0000095f: 00 00 00 00 00 00 00 00 00 00 00 00 00 00 00 00
0000096f: 00 00 00 00 00 00 00 00 00 00 00 00 00 00 00 00
0000097f: 00 00 00 00 00 00 00 00 00 00 00 00 00 00 00 00
0000098f: 00 00 00 00 00 00 40 00 00 00 00 00 00 00 00 00
0000099f: 00 00 00 00 00 00 00 00 00 00 00 00 00 00 00 00

# HSIOM (count=16384)
000009af: 00 00 00 ee 00 00 00 00 00 00 00 00 00 00 00 00
000009bf: 00 00 00 00 00 00 00 00 00 00 00 00 00 00 00 00
000009cf: 00 00 00 00 00 00 00 00 00 00 00 00 00 00 00 00
000009df: 00 00 00 00 00 00 00 00 00 00 00 00 00 00 00 00
000009ef: 00 00 00 00 00 00 00 00 00 00 00 00 00 00 00 00
000009ff: 00 00 00 00 00 00 00 00 00 00 00 00 00 00 00 00
00000a0f: 00 00 00 00 00 00 00 00 00 00 00 00 00 00 00 00
00000a1f: 00 00 00 00 00 00 00 00 00 00 00 00 00 00 00 00
00000a2f: 00 00 00 00 00 00 00 00 00 00 00 00 00 00 00 00
00000a3f: 00 00 00 00 00 00 00 00 00 00 00 00 00 00 00 00
00000a4f: 00 00 00 00 00 00 00 00 00 00 00 00 00 00 00 00
00000a5f: 00 00 00 00 00 00 00 00 00 00 00 00 00 00 00 00
00000a6f: 00 00 00 00 00 00 00 00 00 00 00 00 00 00 00 00
00000a7f: 00 00 00 00 00 00 00 00 00 00 00 00 00 00 00 00
00000a8f: 00 00 00 00 00 00 00 00 00 00 00 00 00 00 00 00
00000a9f: 00 00 00 00 00 00 00 00 00 00 00 00 00 00 00 00
00000aaf: 00 00 30 00 00 00 00 00 00 00 00 00 00 00 00 00
00000abf: 00 00 00 00 00 00 00 00 00 00 00 00 00 00 00 00
00000acf: 00 00 00 00 00 00 00 00 00 00 00 00 00 00 00 00
00000adf: 00 00 00 00 00 00 00 00 00 00 00 00 00 00 00 00
00000aef: 00 00 00 00 00 00 00 00 00 00 00 00 00 00 00 00
00000aff: 00 00 00 00 00 00 00 00 00 00 00 00 00 00 00 00
00000b0f: 00 00 00 00 00 00 00 00 00 00 00 00 00 00 00 00
00000b1f: 00 00 00 00 00 00 00 00 00 00 00 00 00 00 00 00
00000b2f: 00 00 00 00 00 00 00 00 00 00 00 00 00 00 00 00
00000b3f: 00 00 00 00 00 00 00 00 00 00 00 00 00 00 00 00
00000b4f: 00 00 00 00 00 00 00 00 00 00 00 00 00 00 00 00
00000b5f: 00 00 00 00 00 00 00 00 00 00 00 00 00 00 00 00
00000b6f: 00 00 00 00 00 00 00 00 00 00 00 00 00 00 00 00
00000b7f: 00 00 00 00 00 00 00 00 00 00 00 00 00 00 00 00
00000b8f: 00 00 00 00 00 00 00 00 00 00 00 00 00 00 00 00
00000b9f: 00 00 00 00 00 00 00 00 00 00 00 00 00 00 00 00
00000baf: 00 00 30 00 00 00 00 00 00 00 00 00 00 00 00 00
00000bbf: 00 00 00 00 00 00 00 00 00 00 00 00 00 00 00 00
00000bcf: 00 00 00 00 00 00 00 00 00 00 00 00 00 00 00 00
00000bdf: 00 00 00 00 00 00 00 00 00 00 00 00 00 00 00 00
00000bef: 00 00 00 00 00 00 00 00 00 00 00 00 00 00 00 00
00000bff: 00 00 00 00 00 00 00 00 00 00 00 00 00 00 00 00
00000c0f: 00 00 00 00 00 00 00 00 00 00 00 00 00 00 00 00
00000c1f: 00 00 00 00 00 00 00 00 00 00 00 00 00 00 00 00
00000c2f: 00 00 00 00 00 00 00 00 00 00 00 00 00 00 00 00
00000c3f: 00 00 00 00 00 00 00 00 00 00 00 00 00 00 00 00
00000c4f: 00 00 00 00 00 00 00 00 00 00 00 00 00 00 00 00
00000c5f: 00 00 00 00 00 00 00 00 00 00 00 00 00 00 00 00
00000c6f: 00 00 00 00 00 00 00 00 00 00 00 00 00 00 00 00
00000c7f: 00 00 00 00 00 00 00 00 00 00 00 00 00 00 00 00
00000c8f: 00 00 00 00 00 00 00 00 00 00 00 00 00 00 00 00
00000c9f: 00 00 00 00 00 00 00 00 00 00 00 00 00 00 00 00
00000caf: 00 00 00 00 00 00 00 00 00 00 00 00 00 00 00 00
00000cbf: 00 00 00 00 00 00 00 00 00 00 00 00 00 00 00 00
00000ccf: 00 00 00 00 00 00 00 00 00 00 00 00 00 00 00 00
00000cdf: 00 00 00 00 00 00 00 00 00 00 00 00 00 00 00 00
00000cef: 00 00 00 00 00 00 00 00 00 00 00 00 00 00 00 00
00000cff: 00 00 00 00 00 00 00 00 00 00 00 00 00 00 00 00
00000d0f: 00 00 00 00 00 00 00 00 00 00 00 00 00 00 00 00
00000d1f: 00 00 00 00 00 00 00 00 00 00 00 00 00 00 00 00
00000d2f: 00 00 00 00 00 00 00 00 00 00 00 00 00 00 00 00
00000d3f: 00 00 00 00 00 00 00 00 00 00 00 00 00 00 00 00
00000d4f: 00 00 00 00 00 00 00 00 00 00 00 00 00 00 00 00
00000d5f: 00 00 00 00 00 00 00 00 00 00 00 00 00 00 00 00
00000d6f: 00 00 00 00 00 00 00 00 00 00 00 00 00 00 00 00
00000d7f: 00 00 00 00 00 00 00 00 00 00 00 00 00 00 00 00
00000d8f: 00 00 00 00 00 00 00 00 00 00 00 00 00 00 00 00
00000d9f: 00 00 00 00 00 00 00 00 00 00 00 00 00 00 00 00
00000daf: 00 00 00 00 00 00 00 00 00 00 00 00 00 00 00 00
00000dbf: 00 00 00 00 00 00 00 00 00 00 00 00 00 00 00 00
00000dcf: 00 00 00 00 00 00 00 00 00 00 00 00 00 00 00 00
00000ddf: 00 00 00 00 00 00 00 00 00 00 00 00 00 00 00 00
00000def: 00 00 00 00 00 00 00 00 00 00 00 00 00 00 00 00
00000dff: 00 00 00 00 00 00 00 00 00 00 00 00 00 00 00 00
00000e0f: 00 00 00 00 00 00 00 00 00 00 00 00 00 00 00 00
00000e1f: 00 00 00 00 00 00 00 00 00 00 00 00 00 00 00 00
00000e2f: 00 00 00 00 00 00 00 00 00 00 00 00 00 00 00 00
00000e3f: 00 00 00 00 00 00 00 00 00 00 00 00 00 00 00 00
00000e4f: 00 00 00 00 00 00 00 00 00 00 00 00 00 00 00 00
00000e5f: 00 00 00 00 00 00 00 00 00 00 00 00 00 00 00 00
00000e6f: 00 00 00 00 00 00 00 00 00 00 00 00 00 00 00 00
00000e7f: 00 00 00 00 00 00 00 00 00 00 00 00 00 00 00 00
00000e8f: 00 00 00 00 00 00 00 00 00 00 00 00 00 00 00 00
00000e9f: 00 00 00 00 00 00 00 00 00 00 00 00 00 00 00 00
00000eaf: 00 00 00 00 00 00 00 00 00 00 00 00 00 00 00 00
00000ebf: 00 00 00 00 00 00 00 00 00 00 00 00 00 00 00 00
00000ecf: 00 00 00 00 00 00 00 00 00 00 00 00 00 00 00 00
00000edf: 00 00 00 00 00 00 00 00 00 00 00 00 00 00 00 00
00000eef: 00 00 00 00 00 00 00 00 00 00 00 00 00 00 00 00
00000eff: 00 00 00 00 00 00 00 00 00 00 00 00 00 00 00 00
00000f0f: 00 00 00 00 00 00 00 00 00 00 00 00 00 00 00 00
00000f1f: 00 00 00 00 00 00 00 00 00 00 00 00 00 00 00 00
00000f2f: 00 00 00 00 00 00 00 00 00 00 00 00 00 00 00 00
00000f3f: 00 00 00 00 00 00 00 00 00 00 00 00 00 00 00 00
00000f4f: 00 00 00 00 00 00 00 00 00 00 00 00 00 00 00 00
00000f5f: 00 00 00 00 00 00 00 00 00 00 00 00 00 00 00 00
00000f6f: 00 00 00 00 00 00 00 00 00 00 00 00 00 00 00 00
00000f7f: 00 00 00 00 00 00 00 00 00 00 00 00 00 00 00 00
00000f8f: 00 00 00 00 00 00 00 00 00 00 00 00 00 00 00 00
00000f9f: 00 00 00 00 00 00 00 00 00 00 00 00 00 00 00 00
00000faf: 00 00 00 00 00 00 00 00 00 00 00 00 00 00 00 00
00000fbf: 00 00 00 00 00 00 00 00 00 00 00 00 00 00 00 00
00000fcf: 00 00 00 00 00 00 00 00 00 00 00 00 00 00 00 00
00000fdf: 00 00 00 00 00 00 00 00 00 00 00 00 00 00 00 00
00000fef: 00 00 00 00 00 00 00 00 00 00 00 00 00 00 00 00
00000fff: 00 00 00 00 00 00 00 00 00 00 00 00 00 00 00 00
0000100f: 00 00 00 00 00 00 00 00 00 00 00 00 00 00 00 00
0000101f: 00 00 00 00 00 00 00 00 00 00 00 00 00 00 00 00
0000102f: 00 00 00 00 00 00 00 00 00 00 00 00 00 00 00 00
0000103f: 00 00 00 00 00 00 00 00 00 00 00 00 00 00 00 00
0000104f: 00 00 00 00 00 00 00 00 00 00 00 00 00 00 00 00
0000105f: 00 00 00 00 00 00 00 00 00 00 00 00 00 00 00 00
0000106f: 00 00 00 00 00 00 00 00 00 00 00 00 00 00 00 00
0000107f: 00 00 00 00 00 00 00 00 00 00 00 00 00 00 00 00
0000108f: 00 00 00 00 00 00 00 00 00 00 00 00 00 00 00 00
0000109f: 00 00 00 00 00 00 00 00 00 00 00 00 00 00 00 00
000010af: 00 00 00 00 00 00 00 00 00 00 00 00 00 00 00 00
000010bf: 00 00 00 00 00 00 00 00 00 00 00 00 00 00 00 00
000010cf: 00 00 00 00 00 00 00 00 00 00 00 00 00 00 00 00
000010df: 00 00 00 00 00 00 00 00 00 00 00 00 00 00 00 00
000010ef: 00 00 00 00 00 00 00 00 00 00 00 00 00 00 00 00
000010ff: 00 00 00 00 00 00 00 00 00 00 00 00 00 00 00 00
0000110f: 00 00 00 00 00 00 00 00 00 00 00 00 00 00 00 00
0000111f: 00 00 00 00 00 00 00 00 00 00 00 00 00 00 00 00
0000112f: 00 00 00 00 00 00 00 00 00 00 00 00 00 00 00 00
0000113f: 00 00 00 00 00 00 00 00 00 00 00 00 00 00 00 00
0000114f: 00 00 00 00 00 00 00 00 00 00 00 00 00 00 00 00
0000115f: 00 00 00 00 00 00 00 00 00 00 00 00 00 00 00 00
0000116f: 00 00 00 00 00 00 00 00 00 00 00 00 00 00 00 00
0000117f: 00 00 00 00 00 00 00 00 00 00 00 00 00 00 00 00
0000118f: 00 00 00 00 00 00 00 00 00 00 00 00 00 00 00 00
0000119f: 00 00 00 00 00 00 00 00 00 00 00 00 00 00 00 00
000011af: 00 00 00 00 00 00 00 00 00 00 00 00 00 00 00 00
000011bf: 00 00 00 00 00 00 00 00 00 00 00 00 00 00 00 00
000011cf: 00 00 00 00 00 00 00 00 00 00 00 00 00 00 00 00
000011df: 00 00 00 00 00 00 00 00 00 00 00 00 00 00 00 00
000011ef: 00 00 00 00 00 00 00 00 00 00 00 00 00 00 00 00
000011ff: 00 00 00 00 00 00 00 00 00 00 00 00 00 00 00 00
0000120f: 00 00 00 00 00 00 00 00 00 00 00 00 00 00 00 00
0000121f: 00 00 00 00 00 00 00 00 00 00 00 00 00 00 00 00
0000122f: 00 00 00 00 00 00 00 00 00 00 00 00 00 00 00 00
0000123f: 00 00 00 00 00 00 00 00 00 00 00 00 00 00 00 00
0000124f: 00 00 00 00 00 00 00 00 00 00 00 00 00 00 00 00
0000125f: 00 00 00 00 00 00 00 00 00 00 00 00 00 00 00 00
0000126f: 00 00 00 00 00 00 00 00 00 00 00 00 00 00 00 00
0000127f: 00 00 00 00 00 00 00 00 00 00 00 00 00 00 00 00
0000128f: 00 00 00 00 00 00 00 00 00 00 00 00 00 00 00 00
0000129f: 00 00 00 00 00 00 00 00 00 00 00 00 00 00 00 00
000012af: 00 00 00 00 00 00 00 00 00 00 00 00 00 00 00 00
000012bf: 00 00 00 00 00 00 00 00 00 00 00 00 00 00 00 00
000012cf: 00 00 00 00 00 00 00 00 00 00 00 00 00 00 00 00
000012df: 00 00 00 00 00 00 00 00 00 00 00 00 00 00 00 00
000012ef: 00 00 00 00 00 00 00 00 00 00 00 00 00 00 00 00
000012ff: 00 00 00 00 00 00 00 00 00 00 00 00 00 00 00 00
0000130f: 00 00 00 00 00 00 00 00 00 00 00 00 00 00 00 00
0000131f: 00 00 00 00 00 00 00 00 00 00 00 00 00 00 00 00
0000132f: 00 00 00 00 00 00 00 00 00 00 00 00 00 00 00 00
0000133f: 00 00 00 00 00 00 00 00 00 00 00 00 00 00 00 00
0000134f: 00 00 00 00 00 00 00 00 00 00 00 00 00 00 00 00
0000135f: 00 00 00 00 00 00 00 00 00 00 00 00 00 00 00 00
0000136f: 00 00 00 00 00 00 00 00 00 00 00 00 00 00 00 00
0000137f: 00 00 00 00 00 00 00 00 00 00 00 00 00 00 00 00
0000138f: 00 00 00 00 00 00 00 00 00 00 00 00 00 00 00 00
0000139f: 00 00 00 00 00 00 00 00 00 00 00 00 00 00 00 00
000013af: 00 00 00 00 00 00 00 00 00 00 00 00 00 00 00 00
000013bf: 00 00 00 00 00 00 00 00 00 00 00 00 00 00 00 00
000013cf: 00 00 00 00 00 00 00 00 00 00 00 00 00 00 00 00
000013df: 00 00 00 00 00 00 00 00 00 00 00 00 00 00 00 00
000013ef: 00 00 00 00 00 00 00 00 00 00 00 00 00 00 00 00
000013ff: 00 00 00 00 00 00 00 00 00 00 00 00 00 00 00 00
0000140f: 00 00 00 00 00 00 00 00 00 00 00 00 00 00 00 00
0000141f: 00 00 00 00 00 00 00 00 00 00 00 00 00 00 00 00
0000142f: 00 00 00 00 00 00 00 00 00 00 00 00 00 00 00 00
0000143f: 00 00 00 00 00 00 00 00 00 00 00 00 00 00 00 00
0000144f: 00 00 00 00 00 00 00 00 00 00 00 00 00 00 00 00
0000145f: 00 00 00 00 00 00 00 00 00 00 00 00 00 00 00 00
0000146f: 00 00 00 00 00 00 00 00 00 00 00 00 00 00 00 00
0000147f: 00 00 00 00 00 00 00 00 00 00 00 00 00 00 00 00
0000148f: 00 00 00 00 00 00 00 00 00 00 00 00 00 00 00 00
0000149f: 00 00 00 00 00 00 00 00 00 00 00 00 00 00 00 00
000014af: 00 00 00 00 00 00 00 00 00 00 00 00 00 00 00 00
000014bf: 00 00 00 00 00 00 00 00 00 00 00 00 00 00 00 00
000014cf: 00 00 00 00 00 00 00 00 00 00 00 00 00 00 00 00
000014df: 00 00 00 00 00 00 00 00 00 00 00 00 00 00 00 00
000014ef: 00 00 00 00 00 00 00 00 00 00 00 00 00 00 00 00
000014ff: 00 00 00 00 00 00 00 00 00 00 00 00 00 00 00 00
0000150f: 00 00 00 00 00 00 00 00 00 00 00 00 00 00 00 00
0000151f: 00 00 00 00 00 00 00 00 00 00 00 00 00 00 00 00
0000152f: 00 00 00 00 00 00 00 00 00 00 00 00 00 00 00 00
0000153f: 00 00 00 00 00 00 00 00 00 00 00 00 00 00 00 00
0000154f: 00 00 00 00 00 00 00 00 00 00 00 00 00 00 00 00
0000155f: 00 00 00 00 00 00 00 00 00 00 00 00 00 00 00 00
0000156f: 00 00 00 00 00 00 00 00 00 00 00 00 00 00 00 00
0000157f: 00 00 00 00 00 00 00 00 00 00 00 00 00 00 00 00
0000158f: 00 00 00 00 00 00 00 00 00 00 00 00 00 00 00 00
0000159f: 00 00 00 00 00 00 00 00 00 00 00 00 00 00 00 00
000015af: 00 00 00 00 00 00 00 00 00 00 00 00 00 00 00 00
000015bf: 00 00 00 00 00 00 00 00 00 00 00 00 00 00 00 00
000015cf: 00 00 00 00 00 00 00 00 00 00 00 00 00 00 00 00
000015df: 00 00 00 00 00 00 00 00 00 00 00 00 00 00 00 00
000015ef: 00 00 00 00 00 00 00 00 00 00 00 00 00 00 00 00
000015ff: 00 00 00 00 00 00 00 00 00 00 00 00 00 00 00 00
0000160f: 00 00 00 00 00 00 00 00 00 00 00 00 00 00 00 00
0000161f: 00 00 00 00 00 00 00 00 00 00 00 00 00 00 00 00
0000162f: 00 00 00 00 00 00 00 00 00 00 00 00 00 00 00 00
0000163f: 00 00 00 00 00 00 00 00 00 00 00 00 00 00 00 00
0000164f: 00 00 00 00 00 00 00 00 00 00 00 00 00 00 00 00
0000165f: 00 00 00 00 00 00 00 00 00 00 00 00 00 00 00 00
0000166f: 00 00 00 00 00 00 00 00 00 00 00 00 00 00 00 00
0000167f: 00 00 00 00 00 00 00 00 00 00 00 00 00 00 00 00
0000168f: 00 00 00 00 00 00 00 00 00 00 00 00 00 00 00 00
0000169f: 00 00 00 00 00 00 00 00 00 00 00 00 00 00 00 00
000016af: 00 00 00 00 00 00 00 00 00 00 00 00 00 00 00 00
000016bf: 00 00 00 00 00 00 00 00 00 00 00 00 00 00 00 00
000016cf: 00 00 00 00 00 00 00 00 00 00 00 00 00 00 00 00
000016df: 00 00 00 00 00 00 00 00 00 00 00 00 00 00 00 00
000016ef: 00 00 00 00 00 00 00 00 00 00 00 00 00 00 00 00
000016ff: 00 00 00 00 00 00 00 00 00 00 00 00 00 00 00 00
0000170f: 00 00 00 00 00 00 00 00 00 00 00 00 00 00 00 00
0000171f: 00 00 00 00 00 00 00 00 00 00 00 00 00 00 00 00
0000172f: 00 00 00 00 00 00 00 00 00 00 00 00 00 00 00 00
0000173f: 00 00 00 00 00 00 00 00 00 00 00 00 00 00 00 00
0000174f: 00 00 00 00 00 00 00 00 00 00 00 00 00 00 00 00
0000175f: 00 00 00 00 00 00 00 00 00 00 00 00 00 00 00 00
0000176f: 00 00 00 00 00 00 00 00 00 00 00 00 00 00 00 00
0000177f: 00 00 00 00 00 00 00 00 00 00 00 00 00 00 00 00
0000178f: 00 00 00 00 00 00 00 00 00 00 00 00 00 00 00 00
0000179f: 00 00 00 00 00 00 00 00 00 00 00 00 00 00 00 00
000017af: 00 00 00 00 00 00 00 00 00 00 00 00 00 00 00 00
000017bf: 00 00 00 00 00 00 00 00 00 00 00 00 00 00 00 00
000017cf: 00 00 00 00 00 00 00 00 00 00 00 00 00 00 00 00
000017df: 00 00 00 00 00 00 00 00 00 00 00 00 00 00 00 00
000017ef: 00 00 00 00 00 00 00 00 00 00 00 00 00 00 00 00
000017ff: 00 00 00 00 00 00 00 00 00 00 00 00 00 00 00 00
0000180f: 00 00 00 00 00 00 00 00 00 00 00 00 00 00 00 00
0000181f: 00 00 00 00 00 00 00 00 00 00 00 00 00 00 00 00
0000182f: 00 00 00 00 00 00 00 00 00 00 00 00 00 00 00 00
0000183f: 00 00 00 00 00 00 00 00 00 00 00 00 00 00 00 00
0000184f: 00 00 00 00 00 00 00 00 00 00 00 00 00 00 00 00
0000185f: 00 00 00 00 00 00 00 00 00 00 00 00 00 00 00 00
0000186f: 00 00 00 00 00 00 00 00 00 00 00 00 00 00 00 00
0000187f: 00 00 00 00 00 00 00 00 00 00 00 00 00 00 00 00
0000188f: 00 00 00 00 00 00 00 00 00 00 00 00 00 00 00 00
0000189f: 00 00 00 00 00 00 00 00 00 00 00 00 00 00 00 00
000018af: 00 00 00 00 00 00 00 00 00 00 00 00 00 00 00 00
000018bf: 00 00 00 00 00 00 00 00 00 00 00 00 00 00 00 00
000018cf: 00 00 00 00 00 00 00 00 00 00 00 00 00 00 00 00
000018df: 00 00 00 00 00 00 00 00 00 00 00 00 00 00 00 00
000018ef: 00 00 00 00 00 00 00 00 00 00 00 00 00 00 00 00
000018ff: 00 00 00 00 00 00 00 00 00 00 00 00 00 00 00 00
0000190f: 00 00 00 00 00 00 00 00 00 00 00 00 00 00 00 00
0000191f: 00 00 00 00 00 00 00 00 00 00 00 00 00 00 00 00
0000192f: 00 00 00 00 00 00 00 00 00 00 00 00 00 00 00 00
0000193f: 00 00 00 00 00 00 00 00 00 00 00 00 00 00 00 00
0000194f: 00 00 00 00 00 00 00 00 00 00 00 00 00 00 00 00
0000195f: 00 00 00 00 00 00 00 00 00 00 00 00 00 00 00 00
0000196f: 00 00 00 00 00 00 00 00 00 00 00 00 00 00 00 00
0000197f: 00 00 00 00 00 00 00 00 00 00 00 00 00 00 00 00
0000198f: 00 00 00 00 00 00 00 00 00 00 00 00 00 00 00 00
0000199f: 00 00 00 00 00 00 00 00 00 00 00 00 00 00 00 00
000019af: 00 00 00 00 00 00 00 00 00 00 00 00 00 00 00 00
000019bf: 00 00 00 00 00 00 00 00 00 00 00 00 00 00 00 00
000019cf: 00 00 00 00 00 00 00 00 00 00 00 00 00 00 00 00
000019df: 00 00 00 00 00 00 00 00 00 00 00 00 00 00 00 00
000019ef: 00 00 00 00 00 00 00 00 00 00 00 00 00 00 00 00
000019ff: 00 00 00 00 00 00 00 00 00 00 00 00 00 00 00 00
00001a0f: 00 00 00 00 00 00 00 00 00 00 00 00 00 00 00 00
00001a1f: 00 00 00 00 00 00 00 00 00 00 00 00 00 00 00 00
00001a2f: 00 00 00 00 00 00 00 00 00 00 00 00 00 00 00 00
00001a3f: 00 00 00 00 00 00 00 00 00 00 00 00 00 00 00 00
00001a4f: 00 00 00 00 00 00 00 00 00 00 00 00 00 00 00 00
00001a5f: 00 00 00 00 00 00 00 00 00 00 00 00 00 00 00 00
00001a6f: 00 00 00 00 00 00 00 00 00 00 00 00 00 00 00 00
00001a7f: 00 00 00 00 00 00 00 00 00 00 00 00 00 00 00 00
00001a8f: 00 00 00 00 00 00 00 00 00 00 00 00 00 00 00 00
00001a9f: 00 00 00 00 00 00 00 00 00 00 00 00 00 00 00 00
00001aaf: 00 00 00 00 00 00 00 00 00 00 00 00 00 00 00 00
00001abf: 00 00 00 00 00 00 00 00 00 00 00 00 00 00 00 00
00001acf: 00 00 00 00 00 00 00 00 00 00 00 00 00 00 00 00
00001adf: 00 00 00 00 00 00 00 00 00 00 00 00 00 00 00 00
00001aef: 00 00 00 00 00 00 00 00 00 00 00 00 00 00 00 00
00001aff: 00 00 00 00 00 00 00 00 00 00 00 00 00 00 00 00
00001b0f: 00 00 00 00 00 00 00 00 00 00 00 00 00 00 00 00
00001b1f: 00 00 00 00 00 00 00 00 00 00 00 00 00 00 00 00
00001b2f: 00 00 00 00 00 00 00 00 00 00 00 00 00 00 00 00
00001b3f: 00 00 00 00 00 00 00 00 00 00 00 00 00 00 00 00
00001b4f: 00 00 00 00 00 00 00 00 00 00 00 00 00 00 00 00
00001b5f: 00 00 00 00 00 00 00 00 00 00 00 00 00 00 00 00
00001b6f: 00 00 00 00 00 00 00 00 00 00 00 00 00 00 00 00
00001b7f: 00 00 00 00 00 00 00 00 00 00 00 00 00 00 00 00
00001b8f: 00 00 00 00 00 00 00 00 00 00 00 00 00 00 00 00
00001b9f: 00 00 00 00 00 00 00 00 00 00 00 00 00 00 00 00
00001baf: 00 00 00 00 00 00 00 00 00 00 00 00 00 00 00 00
00001bbf: 00 00 00 00 00 00 00 00 00 00 00 00 00 00 00 00
00001bcf: 00 00 00 00 00 00 00 00 00 00 00 00 00 00 00 00
00001bdf: 00 00 00 00 00 00 00 00 00 00 00 00 00 00 00 00
00001bef: 00 00 00 00 00 00 00 00 00 00 00 00 00 00 00 00
00001bff: 00 00 00 00 00 00 00 00 00 00 00 00 00 00 00 00
00001c0f: 00 00 00 00 00 00 00 00 00 00 00 00 00 00 00 00
00001c1f: 00 00 00 00 00 00 00 00 00 00 00 00 00 00 00 00
00001c2f: 00 00 00 00 00 00 00 00 00 00 00 00 00 00 00 00
00001c3f: 00 00 00 00 00 00 00 00 00 00 00 00 00 00 00 00
00001c4f: 00 00 00 00 00 00 00 00 00 00 00 00 00 00 00 00
00001c5f: 00 00 00 00 00 00 00 00 00 00 00 00 00 00 00 00
00001c6f: 00 00 00 00 00 00 00 00 00 00 00 00 00 00 00 00
00001c7f: 00 00 00 00 00 00 00 00 00 00 00 00 00 00 00 00
00001c8f: 00 00 00 00 00 00 00 00 00 00 00 00 00 00 00 00
00001c9f: 00 00 00 00 00 00 00 00 00 00 00 00 00 00 00 00
00001caf: 00 00 00 00 00 00 00 00 00 00 00 00 00 00 00 00
00001cbf: 00 00 00 00 00 00 00 00 00 00 00 00 00 00 00 00
00001ccf: 00 00 00 00 00 00 00 00 00 00 00 00 00 00 00 00
00001cdf: 00 00 00 00 00 00 00 00 00 00 00 00 00 00 00 00
00001cef: 00 00 00 00 00 00 00 00 00 00 00 00 00 00 00 00
00001cff: 00 00 00 00 00 00 00 00 00 00 00 00 00 00 00 00
00001d0f: 00 00 00 00 00 00 00 00 00 00 00 00 00 00 00 00
00001d1f: 00 00 00 00 00 00 00 00 00 00 00 00 00 00 00 00
00001d2f: 00 00 00 00 00 00 00 00 00 00 00 00 00 00 00 00
00001d3f: 00 00 00 00 00 00 00 00 00 00 00 00 00 00 00 00
00001d4f: 00 00 00 00 00 00 00 00 00 00 00 00 00 00 00 00
00001d5f: 00 00 00 00 00 00 00 00 00 00 00 00 00 00 00 00
00001d6f: 00 00 00 00 00 00 00 00 00 00 00 00 00 00 00 00
00001d7f: 00 00 00 00 00 00 00 00 00 00 00 00 00 00 00 00
00001d8f: 00 00 00 00 00 00 00 00 00 00 00 00 00 00 00 00
00001d9f: 00 00 00 00 00 00 00 00 00 00 00 00 00 00 00 00
00001daf: 00 00 00 00 00 00 00 00 00 00 00 00 00 00 00 00
00001dbf: 00 00 00 00 00 00 00 00 00 00 00 00 00 00 00 00
00001dcf: 00 00 00 00 00 00 00 00 00 00 00 00 00 00 00 00
00001ddf: 00 00 00 00 00 00 00 00 00 00 00 00 00 00 00 00
00001def: 00 00 00 00 00 00 00 00 00 00 00 00 00 00 00 00
00001dff: 00 00 00 00 00 00 00 00 00 00 00 00 00 00 00 00
00001e0f: 00 00 00 00 00 00 00 00 00 00 00 00 00 00 00 00
00001e1f: 00 00 00 00 00 00 00 00 00 00 00 00 00 00 00 00
00001e2f: 00 00 00 00 00 00 00 00 00 00 00 00 00 00 00 00
00001e3f: 00 00 00 00 00 00 00 00 00 00 00 00 00 00 00 00
00001e4f: 00 00 00 00 00 00 00 00 00 00 00 00 00 00 00 00
00001e5f: 00 00 00 00 00 00 00 00 00 00 00 00 00 00 00 00
00001e6f: 00 00 00 00 00 00 00 00 00 00 00 00 00 00 00 00
00001e7f: 00 00 00 00 00 00 00 00 00 00 00 00 00 00 00 00
00001e8f: 00 00 00 00 00 00 00 00 00 00 00 00 00 00 00 00
00001e9f: 00 00 00 00 00 00 00 00 00 00 00 00 00 00 00 00
00001eaf: 00 00 00 00 00 00 00 00 00 00 00 00 00 00 00 00
00001ebf: 00 00 00 00 00 00 00 00 00 00 00 00 00 00 00 00
00001ecf: 00 00 00 00 00 00 00 00 00 00 00 00 00 00 00 00
00001edf: 00 00 00 00 00 00 00 00 00 00 00 00 00 00 00 00
00001eef: 00 00 00 00 00 00 00 00 00 00 00 00 00 00 00 00
00001eff: 00 00 00 00 00 00 00 00 00 00 00 00 00 00 00 00
00001f0f: 00 00 00 00 00 00 00 00 00 00 00 00 00 00 00 00
00001f1f: 00 00 00 00 00 00 00 00 00 00 00 00 00 00 00 00
00001f2f: 00 00 00 00 00 00 00 00 00 00 00 00 00 00 00 00
00001f3f: 00 00 00 00 00 00 00 00 00 00 00 00 00 00 00 00
00001f4f: 00 00 00 00 00 00 00 00 00 00 00 00 00 00 00 00
00001f5f: 00 00 00 00 00 00 00 00 00 00 00 00 00 00 00 00
00001f6f: 00 00 00 00 00 00 00 00 00 00 00 00 00 00 00 00
00001f7f: 00 00 00 00 00 00 00 00 00 00 00 00 00 00 00 00
00001f8f: 00 00 00 00 00 00 00 00 00 00 00 00 00 00 00 00
00001f9f: 00 00 00 00 00 00 00 00 00 00 00 00 00 00 00 00
00001faf: 00 00 00 00 00 00 00 00 00 00 00 00 00 00 00 00
00001fbf: 00 00 00 00 00 00 00 00 00 00 00 00 00 00 00 00
00001fcf: 00 00 00 00 00 00 00 00 00 00 00 00 00 00 00 00
00001fdf: 00 00 00 00 00 00 00 00 00 00 00 00 00 00 00 00
00001fef: 00 00 00 00 00 00 00 00 00 00 00 00 00 00 00 00
00001fff: 00 00 00 00 00 00 00 00 00 00 00 00 00 00 00 00
0000200f: 00 00 00 00 00 00 00 00 00 00 00 00 00 00 00 00
0000201f: 00 00 00 00 00 00 00 00 00 00 00 00 00 00 00 00
0000202f: 00 00 00 00 00 00 00 00 00 00 00 00 00 00 00 00
0000203f: 00 00 00 00 00 00 00 00 00 00 00 00 00 00 00 00
0000204f: 00 00 00 00 00 00 00 00 00 00 00 00 00 00 00 00
0000205f: 00 00 00 00 00 00 00 00 00 00 00 00 00 00 00 00
0000206f: 00 00 00 00 00 00 00 00 00 00 00 00 00 00 00 00
0000207f: 00 00 00 00 00 00 00 00 00 00 00 00 00 00 00 00
0000208f: 00 00 00 00 00 00 00 00 00 00 00 00 00 00 00 00
0000209f: 00 00 00 00 00 00 00 00 00 00 00 00 00 00 00 00
000020af: 00 00 00 00 00 00 00 00 00 00 00 00 00 00 00 00
000020bf: 00 00 00 00 00 00 00 00 00 00 00 00 00 00 00 00
000020cf: 00 00 00 00 00 00 00 00 00 00 00 00 00 00 00 00
000020df: 00 00 00 00 00 00 00 00 00 00 00 00 00 00 00 00
000020ef: 00 00 00 00 00 00 00 00 00 00 00 00 00 00 00 00
000020ff: 00 00 00 00 00 00 00 00 00 00 00 00 00 00 00 00
0000210f: 00 00 00 00 00 00 00 00 00 00 00 00 00 00 00 00
0000211f: 00 00 00 00 00 00 00 00 00 00 00 00 00 00 00 00
0000212f: 00 00 00 00 00 00 00 00 00 00 00 00 00 00 00 00
0000213f: 00 00 00 00 00 00 00 00 00 00 00 00 00 00 00 00
0000214f: 00 00 00 00 00 00 00 00 00 00 00 00 00 00 00 00
0000215f: 00 00 00 00 00 00 00 00 00 00 00 00 00 00 00 00
0000216f: 00 00 00 00 00 00 00 00 00 00 00 00 00 00 00 00
0000217f: 00 00 00 00 00 00 00 00 00 00 00 00 00 00 00 00
0000218f: 00 00 00 00 00 00 00 00 00 00 00 00 00 00 00 00
0000219f: 00 00 00 00 00 00 00 00 00 00 00 00 00 00 00 00
000021af: 00 00 00 00 00 00 00 00 00 00 00 00 00 00 00 00
000021bf: 00 00 00 00 00 00 00 00 00 00 00 00 00 00 00 00
000021cf: 00 00 00 00 00 00 00 00 00 00 00 00 00 00 00 00
000021df: 00 00 00 00 00 00 00 00 00 00 00 00 00 00 00 00
000021ef: 00 00 00 00 00 00 00 00 00 00 00 00 00 00 00 00
000021ff: 00 00 00 00 00 00 00 00 00 00 00 00 00 00 00 00
0000220f: 00 00 00 00 00 00 00 00 00 00 00 00 00 00 00 00
0000221f: 00 00 00 00 00 00 00 00 00 00 00 00 00 00 00 00
0000222f: 00 00 00 00 00 00 00 00 00 00 00 00 00 00 00 00
0000223f: 00 00 00 00 00 00 00 00 00 00 00 00 00 00 00 00
0000224f: 00 00 00 00 00 00 00 00 00 00 00 00 00 00 00 00
0000225f: 00 00 00 00 00 00 00 00 00 00 00 00 00 00 00 00
0000226f: 00 00 00 00 00 00 00 00 00 00 00 00 00 00 00 00
0000227f: 00 00 00 00 00 00 00 00 00 00 00 00 00 00 00 00
0000228f: 00 00 00 00 00 00 00 00 00 00 00 00 00 00 00 00
0000229f: 00 00 00 00 00 00 00 00 00 00 00 00 00 00 00 00
000022af: 00 00 00 00 00 00 00 00 00 00 00 00 00 00 00 00
000022bf: 00 00 00 00 00 00 00 00 00 00 00 00 00 00 00 00
000022cf: 00 00 00 00 00 00 00 00 00 00 00 00 00 00 00 00
000022df: 00 00 00 00 00 00 00 00 00 00 00 00 00 00 00 00
000022ef: 00 00 00 00 00 00 00 00 00 00 00 00 00 00 00 00
000022ff: 00 00 00 00 00 00 00 00 00 00 00 00 00 00 00 00
0000230f: 00 00 00 00 00 00 00 00 00 00 00 00 00 00 00 00
0000231f: 00 00 00 00 00 00 00 00 00 00 00 00 00 00 00 00
0000232f: 00 00 00 00 00 00 00 00 00 00 00 00 00 00 00 00
0000233f: 00 00 00 00 00 00 00 00 00 00 00 00 00 00 00 00
0000234f: 00 00 00 00 00 00 00 00 00 00 00 00 00 00 00 00
0000235f: 00 00 00 00 00 00 00 00 00 00 00 00 00 00 00 00
0000236f: 00 00 00 00 00 00 00 00 00 00 00 00 00 00 00 00
0000237f: 00 00 00 00 00 00 00 00 00 00 00 00 00 00 00 00
0000238f: 00 00 00 00 00 00 00 00 00 00 00 00 00 00 00 00
0000239f: 00 00 00 00 00 00 00 00 00 00 00 00 00 00 00 00
000023af: 00 00 00 00 00 00 00 00 00 00 00 00 00 00 00 00
000023bf: 00 00 00 00 00 00 00 00 00 00 00 00 00 00 00 00
000023cf: 00 00 00 00 00 00 00 00 00 00 00 00 00 00 00 00
000023df: 00 00 00 00 00 00 00 00 00 00 00 00 00 00 00 00
000023ef: 00 00 00 00 00 00 00 00 00 00 00 00 00 00 00 00
000023ff: 00 00 00 00 00 00 00 00 00 00 00 00 00 00 00 00
0000240f: 00 00 00 00 00 00 00 00 00 00 00 00 00 00 00 00
0000241f: 00 00 00 00 00 00 00 00 00 00 00 00 00 00 00 00
0000242f: 00 00 00 00 00 00 00 00 00 00 00 00 00 00 00 00
0000243f: 00 00 00 00 00 00 00 00 00 00 00 00 00 00 00 00
0000244f: 00 00 00 00 00 00 00 00 00 00 00 00 00 00 00 00
0000245f: 00 00 00 00 00 00 00 00 00 00 00 00 00 00 00 00
0000246f: 00 00 00 00 00 00 00 00 00 00 00 00 00 00 00 00
0000247f: 00 00 00 00 00 00 00 00 00 00 00 00 00 00 00 00
0000248f: 00 00 00 00 00 00 00 00 00 00 00 00 00 00 00 00
0000249f: 00 00 00 00 00 00 00 00 00 00 00 00 00 00 00 00
000024af: 00 00 00 00 00 00 00 00 00 00 00 00 00 00 00 00
000024bf: 00 00 00 00 00 00 00 00 00 00 00 00 00 00 00 00
000024cf: 00 00 00 00 00 00 00 00 00 00 00 00 00 00 00 00
000024df: 00 00 00 00 00 00 00 00 00 00 00 00 00 00 00 00
000024ef: 00 00 00 00 00 00 00 00 00 00 00 00 00 00 00 00
000024ff: 00 00 00 00 00 00 00 00 00 00 00 00 00 00 00 00
0000250f: 00 00 00 00 00 00 00 00 00 00 00 00 00 00 00 00
0000251f: 00 00 00 00 00 00 00 00 00 00 00 00 00 00 00 00
0000252f: 00 00 00 00 00 00 00 00 00 00 00 00 00 00 00 00
0000253f: 00 00 00 00 00 00 00 00 00 00 00 00 00 00 00 00
0000254f: 00 00 00 00 00 00 00 00 00 00 00 00 00 00 00 00
0000255f: 00 00 00 00 00 00 00 00 00 00 00 00 00 00 00 00
0000256f: 00 00 00 00 00 00 00 00 00 00 00 00 00 00 00 00
0000257f: 00 00 00 00 00 00 00 00 00 00 00 00 00 00 00 00
0000258f: 00 00 00 00 00 00 00 00 00 00 00 00 00 00 00 00
0000259f: 00 00 00 00 00 00 00 00 00 00 00 00 00 00 00 00
000025af: 00 00 00 00 00 00 00 00 00 00 00 00 00 00 00 00
000025bf: 00 00 00 00 00 00 00 00 00 00 00 00 00 00 00 00
000025cf: 00 00 00 00 00 00 00 00 00 00 00 00 00 00 00 00
000025df: 00 00 00 00 00 00 00 00 00 00 00 00 00 00 00 00
000025ef: 00 00 00 00 00 00 00 00 00 00 00 00 00 00 00 00
000025ff: 00 00 00 00 00 00 00 00 00 00 00 00 00 00 00 00
0000260f: 00 00 00 00 00 00 00 00 00 00 00 00 00 00 00 00
0000261f: 00 00 00 00 00 00 00 00 00 00 00 00 00 00 00 00
0000262f: 00 00 00 00 00 00 00 00 00 00 00 00 00 00 00 00
0000263f: 00 00 00 00 00 00 00 00 00 00 00 00 00 00 00 00
0000264f: 00 00 00 00 00 00 00 00 00 00 00 00 00 00 00 00
0000265f: 00 00 00 00 00 00 00 00 00 00 00 00 00 00 00 00
0000266f: 00 00 00 00 00 00 00 00 00 00 00 00 00 00 00 00
0000267f: 00 00 00 00 00 00 00 00 00 00 00 00 00 00 00 00
0000268f: 00 00 00 00 00 00 00 00 00 00 00 00 00 00 00 00
0000269f: 00 00 00 00 00 00 00 00 00 00 00 00 00 00 00 00
000026af: 00 00 00 00 00 00 00 00 00 00 00 00 00 00 00 00
000026bf: 00 00 00 00 00 00 00 00 00 00 00 00 00 00 00 00
000026cf: 00 00 00 00 00 00 00 00 00 00 00 00 00 00 00 00
000026df: 00 00 00 00 00 00 00 00 00 00 00 00 00 00 00 00
000026ef: 00 00 00 00 00 00 00 00 00 00 00 00 00 00 00 00
000026ff: 00 00 00 00 00 00 00 00 00 00 00 00 00 00 00 00
0000270f: 00 00 00 00 00 00 00 00 00 00 00 00 00 00 00 00
0000271f: 00 00 00 00 00 00 00 00 00 00 00 00 00 00 00 00
0000272f: 00 00 00 00 00 00 00 00 00 00 00 00 00 00 00 00
0000273f: 00 00 00 00 00 00 00 00 00 00 00 00 00 00 00 00
0000274f: 00 00 00 00 00 00 00 00 00 00 00 00 00 00 00 00
0000275f: 00 00 00 00 00 00 00 00 00 00 00 00 00 00 00 00
0000276f: 00 00 00 00 00 00 00 00 00 00 00 00 00 00 00 00
0000277f: 00 00 00 00 00 00 00 00 00 00 00 00 00 00 00 00
0000278f: 00 00 00 00 00 00 00 00 00 00 00 00 00 00 00 00
0000279f: 00 00 00 00 00 00 00 00 00 00 00 00 00 00 00 00
000027af: 00 00 00 00 00 00 00 00 00 00 00 00 00 00 00 00
000027bf: 00 00 00 00 00 00 00 00 00 00 00 00 00 00 00 00
000027cf: 00 00 00 00 00 00 00 00 00 00 00 00 00 00 00 00
000027df: 00 00 00 00 00 00 00 00 00 00 00 00 00 00 00 00
000027ef: 00 00 00 00 00 00 00 00 00 00 00 00 00 00 00 00
000027ff: 00 00 00 00 00 00 00 00 00 00 00 00 00 00 00 00
0000280f: 00 00 00 00 00 00 00 00 00 00 00 00 00 00 00 00
0000281f: 00 00 00 00 00 00 00 00 00 00 00 00 00 00 00 00
0000282f: 00 00 00 00 00 00 00 00 00 00 00 00 00 00 00 00
0000283f: 00 00 00 00 00 00 00 00 00 00 00 00 00 00 00 00
0000284f: 00 00 00 00 00 00 00 00 00 00 00 00 00 00 00 00
0000285f: 00 00 00 00 00 00 00 00 00 00 00 00 00 00 00 00
0000286f: 00 00 00 00 00 00 00 00 00 00 00 00 00 00 00 00
0000287f: 00 00 00 00 00 00 00 00 00 00 00 00 00 00 00 00
0000288f: 00 00 00 00 00 00 00 00 00 00 00 00 00 00 00 00
0000289f: 00 00 00 00 00 00 00 00 00 00 00 00 00 00 00 00
000028af: 00 00 00 00 00 00 00 00 00 00 00 00 00 00 00 00
000028bf: 00 00 00 00 00 00 00 00 00 00 00 00 00 00 00 00
000028cf: 00 00 00 00 00 00 00 00 00 00 00 00 00 00 00 00
000028df: 00 00 00 00 00 00 00 00 00 00 00 00 00 00 00 00
000028ef: 00 00 00 00 00 00 00 00 00 00 00 00 00 00 00 00
000028ff: 00 00 00 00 00 00 00 00 00 00 00 00 00 00 00 00
0000290f: 00 00 00 00 00 00 00 00 00 00 00 00 00 00 00 00
0000291f: 00 00 00 00 00 00 00 00 00 00 00 00 00 00 00 00
0000292f: 00 00 00 00 00 00 00 00 00 00 00 00 00 00 00 00
0000293f: 00 00 00 00 00 00 00 00 00 00 00 00 00 00 00 00
0000294f: 00 00 00 00 00 00 00 00 00 00 00 00 00 00 00 00
0000295f: 00 00 00 00 00 00 00 00 00 00 00 00 00 00 00 00
0000296f: 00 00 00 00 00 00 00 00 00 00 00 00 00 00 00 00
0000297f: 00 00 00 00 00 00 00 00 00 00 00 00 00 00 00 00
0000298f: 00 00 00 00 00 00 00 00 00 00 00 00 00 00 00 00
0000299f: 00 00 00 00 00 00 00 00 00 00 00 00 00 00 00 00
000029af: 00 00 00 00 00 00 00 00 00 00 00 00 00 00 00 00
000029bf: 00 00 00 00 00 00 00 00 00 00 00 00 00 00 00 00
000029cf: 00 00 00 00 00 00 00 00 00 00 00 00 00 00 00 00
000029df: 00 00 00 00 00 00 00 00 00 00 00 00 00 00 00 00
000029ef: 00 00 00 00 00 00 00 00 00 00 00 00 00 00 00 00
000029ff: 00 00 00 00 00 00 00 00 00 00 00 00 00 00 00 00
00002a0f: 00 00 00 00 00 00 00 00 00 00 00 00 00 00 00 00
00002a1f: 00 00 00 00 00 00 00 00 00 00 00 00 00 00 00 00
00002a2f: 00 00 00 00 00 00 00 00 00 00 00 00 00 00 00 00
00002a3f: 00 00 00 00 00 00 00 00 00 00 00 00 00 00 00 00
00002a4f: 00 00 00 00 00 00 00 00 00 00 00 00 00 00 00 00
00002a5f: 00 00 00 00 00 00 00 00 00 00 00 00 00 00 00 00
00002a6f: 00 00 00 00 00 00 00 00 00 00 00 00 00 00 00 00
00002a7f: 00 00 00 00 00 00 00 00 00 00 00 00 00 00 00 00
00002a8f: 00 00 00 00 00 00 00 00 00 00 00 00 00 00 00 00
00002a9f: 00 00 00 00 00 00 00 00 00 00 00 00 00 00 00 00
00002aaf: 00 00 00 00 00 00 00 00 00 00 00 00 00 00 00 00
00002abf: 00 00 00 00 00 00 00 00 00 00 00 00 00 00 00 00
00002acf: 00 00 00 00 00 00 00 00 00 00 00 00 00 00 00 00
00002adf: 00 00 00 00 00 00 00 00 00 00 00 00 00 00 00 00
00002aef: 00 00 00 00 00 00 00 00 00 00 00 00 00 00 00 00
00002aff: 00 00 00 00 00 00 00 00 00 00 00 00 00 00 00 00
00002b0f: 00 00 00 00 00 00 00 00 00 00 00 00 00 00 00 00
00002b1f: 00 00 00 00 00 00 00 00 00 00 00 00 00 00 00 00
00002b2f: 00 00 00 00 00 00 00 00 00 00 00 00 00 00 00 00
00002b3f: 00 00 00 00 00 00 00 00 00 00 00 00 00 00 00 00
00002b4f: 00 00 00 00 00 00 00 00 00 00 00 00 00 00 00 00
00002b5f: 00 00 00 00 00 00 00 00 00 00 00 00 00 00 00 00
00002b6f: 00 00 00 00 00 00 00 00 00 00 00 00 00 00 00 00
00002b7f: 00 00 00 00 00 00 00 00 00 00 00 00 00 00 00 00
00002b8f: 00 00 00 00 00 00 00 00 00 00 00 00 00 00 00 00
00002b9f: 00 00 00 00 00 00 00 00 00 00 00 00 00 00 00 00
00002baf: 00 00 00 00 00 00 00 00 00 00 00 00 00 00 00 00
00002bbf: 00 00 00 00 00 00 00 00 00 00 00 00 00 00 00 00
00002bcf: 00 00 00 00 00 00 00 00 00 00 00 00 00 00 00 00
00002bdf: 00 00 00 00 00 00 00 00 00 00 00 00 00 00 00 00
00002bef: 00 00 00 00 00 00 00 00 00 00 00 00 00 00 00 00
00002bff: 00 00 00 00 00 00 00 00 00 00 00 00 00 00 00 00
00002c0f: 00 00 00 00 00 00 00 00 00 00 00 00 00 00 00 00
00002c1f: 00 00 00 00 00 00 00 00 00 00 00 00 00 00 00 00
00002c2f: 00 00 00 00 00 00 00 00 00 00 00 00 00 00 00 00
00002c3f: 00 00 00 00 00 00 00 00 00 00 00 00 00 00 00 00
00002c4f: 00 00 00 00 00 00 00 00 00 00 00 00 00 00 00 00
00002c5f: 00 00 00 00 00 00 00 00 00 00 00 00 00 00 00 00
00002c6f: 00 00 00 00 00 00 00 00 00 00 00 00 00 00 00 00
00002c7f: 00 00 00 00 00 00 00 00 00 00 00 00 00 00 00 00
00002c8f: 00 00 00 00 00 00 00 00 00 00 00 00 00 00 00 00
00002c9f: 00 00 00 00 00 00 00 00 00 00 00 00 00 00 00 00
00002caf: 00 00 00 00 00 00 00 00 00 00 00 00 00 00 00 00
00002cbf: 00 00 00 00 00 00 00 00 00 00 00 00 00 00 00 00
00002ccf: 00 00 00 00 00 00 00 00 00 00 00 00 00 00 00 00
00002cdf: 00 00 00 00 00 00 00 00 00 00 00 00 00 00 00 00
00002cef: 00 00 00 00 00 00 00 00 00 00 00 00 00 00 00 00
00002cff: 00 00 00 00 00 00 00 00 00 00 00 00 00 00 00 00
00002d0f: 00 00 00 00 00 00 00 00 00 00 00 00 00 00 00 00
00002d1f: 00 00 00 00 00 00 00 00 00 00 00 00 00 00 00 00
00002d2f: 00 00 00 00 00 00 00 00 00 00 00 00 00 00 00 00
00002d3f: 00 00 00 00 00 00 00 00 00 00 00 00 00 00 00 00
00002d4f: 00 00 00 00 00 00 00 00 00 00 00 00 00 00 00 00
00002d5f: 00 00 00 00 00 00 00 00 00 00 00 00 00 00 00 00
00002d6f: 00 00 00 00 00 00 00 00 00 00 00 00 00 00 00 00
00002d7f: 00 00 00 00 00 00 00 00 00 00 00 00 00 00 00 00
00002d8f: 00 00 00 00 00 00 00 00 00 00 00 00 00 00 00 00
00002d9f: 00 00 00 00 00 00 00 00 00 00 00 00 00 00 00 00
00002daf: 00 00 00 00 00 00 00 00 00 00 00 00 00 00 00 00
00002dbf: 00 00 00 00 00 00 00 00 00 00 00 00 00 00 00 00
00002dcf: 00 00 00 00 00 00 00 00 00 00 00 00 00 00 00 00
00002ddf: 00 00 00 00 00 00 00 00 00 00 00 00 00 00 00 00
00002def: 00 00 00 00 00 00 00 00 00 00 00 00 00 00 00 00
00002dff: 00 00 00 00 00 00 00 00 00 00 00 00 00 00 00 00
00002e0f: 00 00 00 00 00 00 00 00 00 00 00 00 00 00 00 00
00002e1f: 00 00 00 00 00 00 00 00 00 00 00 00 00 00 00 00
00002e2f: 00 00 00 00 00 00 00 00 00 00 00 00 00 00 00 00
00002e3f: 00 00 00 00 00 00 00 00 00 00 00 00 00 00 00 00
00002e4f: 00 00 00 00 00 00 00 00 00 00 00 00 00 00 00 00
00002e5f: 00 00 00 00 00 00 00 00 00 00 00 00 00 00 00 00
00002e6f: 00 00 00 00 00 00 00 00 00 00 00 00 00 00 00 00
00002e7f: 00 00 00 00 00 00 00 00 00 00 00 00 00 00 00 00
00002e8f: 00 00 00 00 00 00 00 00 00 00 00 00 00 00 00 00
00002e9f: 00 00 00 00 00 00 00 00 00 00 00 00 00 00 00 00
00002eaf: 00 00 00 00 00 00 00 00 00 00 00 00 00 00 00 00
00002ebf: 00 00 00 00 00 00 00 00 00 00 00 00 00 00 00 00
00002ecf: 00 00 00 00 00 00 00 00 00 00 00 00 00 00 00 00
00002edf: 00 00 00 00 00 00 00 00 00 00 00 00 00 00 00 00
00002eef: 00 00 00 00 00 00 00 00 00 00 00 00 00 00 00 00
00002eff: 00 00 00 00 00 00 00 00 00 00 00 00 00 00 00 00
00002f0f: 00 00 00 00 00 00 00 00 00 00 00 00 00 00 00 00
00002f1f: 00 00 00 00 00 00 00 00 00 00 00 00 00 00 00 00
00002f2f: 00 00 00 00 00 00 00 00 00 00 00 00 00 00 00 00
00002f3f: 00 00 00 00 00 00 00 00 00 00 00 00 00 00 00 00
00002f4f: 00 00 00 00 00 00 00 00 00 00 00 00 00 00 00 00
00002f5f: 00 00 00 00 00 00 00 00 00 00 00 00 00 00 00 00
00002f6f: 00 00 00 00 00 00 00 00 00 00 00 00 00 00 00 00
00002f7f: 00 00 00 00 00 00 00 00 00 00 00 00 00 00 00 00
00002f8f: 00 00 00 00 00 00 00 00 00 00 00 00 00 00 00 00
00002f9f: 00 00 00 00 00 00 00 00 00 00 00 00 00 00 00 00
00002faf: 00 00 00 00 00 00 00 00 00 00 00 00 00 00 00 00
00002fbf: 00 00 00 00 00 00 00 00 00 00 00 00 00 00 00 00
00002fcf: 00 00 00 00 00 00 00 00 00 00 00 00 00 00 00 00
00002fdf: 00 00 00 00 00 00 00 00 00 00 00 00 00 00 00 00
00002fef: 00 00 00 00 00 00 00 00 00 00 00 00 00 00 00 00
00002fff: 00 00 00 00 00 00 00 00 00 00 00 00 00 00 00 00
0000300f: 00 00 00 00 00 00 00 00 00 00 00 00 00 00 00 00
0000301f: 00 00 00 00 00 00 00 00 00 00 00 00 00 00 00 00
0000302f: 00 00 00 00 00 00 00 00 00 00 00 00 00 00 00 00
0000303f: 00 00 00 00 00 00 00 00 00 00 00 00 00 00 00 00
0000304f: 00 00 00 00 00 00 00 00 00 00 00 00 00 00 00 00
0000305f: 00 00 00 00 00 00 00 00 00 00 00 00 00 00 00 00
0000306f: 00 00 00 00 00 00 00 00 00 00 00 00 00 00 00 00
0000307f: 00 00 00 00 00 00 00 00 00 00 00 00 00 00 00 00
0000308f: 00 00 00 00 00 00 00 00 00 00 00 00 00 00 00 00
0000309f: 00 00 00 00 00 00 00 00 00 00 00 00 00 00 00 00
000030af: 00 00 00 00 00 00 00 00 00 00 00 00 00 00 00 00
000030bf: 00 00 00 00 00 00 00 00 00 00 00 00 00 00 00 00
000030cf: 00 00 00 00 00 00 00 00 00 00 00 00 00 00 00 00
000030df: 00 00 00 00 00 00 00 00 00 00 00 00 00 00 00 00
000030ef: 00 00 00 00 00 00 00 00 00 00 00 00 00 00 00 00
000030ff: 00 00 00 00 00 00 00 00 00 00 00 00 00 00 00 00
0000310f: 00 00 00 00 00 00 00 00 00 00 00 00 00 00 00 00
0000311f: 00 00 00 00 00 00 00 00 00 00 00 00 00 00 00 00
0000312f: 00 00 00 00 00 00 00 00 00 00 00 00 00 00 00 00
0000313f: 00 00 00 00 00 00 00 00 00 00 00 00 00 00 00 00
0000314f: 00 00 00 00 00 00 00 00 00 00 00 00 00 00 00 00
0000315f: 00 00 00 00 00 00 00 00 00 00 00 00 00 00 00 00
0000316f: 00 00 00 00 00 00 00 00 00 00 00 00 00 00 00 00
0000317f: 00 00 00 00 00 00 00 00 00 00 00 00 00 00 00 00
0000318f: 00 00 00 00 00 00 00 00 00 00 00 00 00 00 00 00
0000319f: 00 00 00 00 00 00 00 00 00 00 00 00 00 00 00 00
000031af: 00 00 00 00 00 00 00 00 00 00 00 00 00 00 00 00
000031bf: 00 00 00 00 00 00 00 00 00 00 00 00 00 00 00 00
000031cf: 00 00 00 00 00 00 00 00 00 00 00 00 00 00 00 00
000031df: 00 00 00 00 00 00 00 00 00 00 00 00 00 00 00 00
000031ef: 00 00 00 00 00 00 00 00 00 00 00 00 00 00 00 00
000031ff: 00 00 00 00 00 00 00 00 00 00 00 00 00 00 00 00
0000320f: 00 00 00 00 00 00 00 00 00 00 00 00 00 00 00 00
0000321f: 00 00 00 00 00 00 00 00 00 00 00 00 00 00 00 00
0000322f: 00 00 00 00 00 00 00 00 00 00 00 00 00 00 00 00
0000323f: 00 00 00 00 00 00 00 00 00 00 00 00 00 00 00 00
0000324f: 00 00 00 00 00 00 00 00 00 00 00 00 00 00 00 00
0000325f: 00 00 00 00 00 00 00 00 00 00 00 00 00 00 00 00
0000326f: 00 00 00 00 00 00 00 00 00 00 00 00 00 00 00 00
0000327f: 00 00 00 00 00 00 00 00 00 00 00 00 00 00 00 00
0000328f: 00 00 00 00 00 00 00 00 00 00 00 00 00 00 00 00
0000329f: 00 00 00 00 00 00 00 00 00 00 00 00 00 00 00 00
000032af: 00 00 00 00 00 00 00 00 00 00 00 00 00 00 00 00
000032bf: 00 00 00 00 00 00 00 00 00 00 00 00 00 00 00 00
000032cf: 00 00 00 00 00 00 00 00 00 00 00 00 00 00 00 00
000032df: 00 00 00 00 00 00 00 00 00 00 00 00 00 00 00 00
000032ef: 00 00 00 00 00 00 00 00 00 00 00 00 00 00 00 00
000032ff: 00 00 00 00 00 00 00 00 00 00 00 00 00 00 00 00
0000330f: 00 00 00 00 00 00 00 00 00 00 00 00 00 00 00 00
0000331f: 00 00 00 00 00 00 00 00 00 00 00 00 00 00 00 00
0000332f: 00 00 00 00 00 00 00 00 00 00 00 00 00 00 00 00
0000333f: 00 00 00 00 00 00 00 00 00 00 00 00 00 00 00 00
0000334f: 00 00 00 00 00 00 00 00 00 00 00 00 00 00 00 00
0000335f: 00 00 00 00 00 00 00 00 00 00 00 00 00 00 00 00
0000336f: 00 00 00 00 00 00 00 00 00 00 00 00 00 00 00 00
0000337f: 00 00 00 00 00 00 00 00 00 00 00 00 00 00 00 00
0000338f: 00 00 00 00 00 00 00 00 00 00 00 00 00 00 00 00
0000339f: 00 00 00 00 00 00 00 00 00 00 00 00 00 00 00 00
000033af: 00 00 00 00 00 00 00 00 00 00 00 00 00 00 00 00
000033bf: 00 00 00 00 00 00 00 00 00 00 00 00 00 00 00 00
000033cf: 00 00 00 00 00 00 00 00 00 00 00 00 00 00 00 00
000033df: 00 00 00 00 00 00 00 00 00 00 00 00 00 00 00 00
000033ef: 00 00 00 00 00 00 00 00 00 00 00 00 00 00 00 00
000033ff: 00 00 00 00 00 00 00 00 00 00 00 00 00 00 00 00
0000340f: 00 00 00 00 00 00 00 00 00 00 00 00 00 00 00 00
0000341f: 00 00 00 00 00 00 00 00 00 00 00 00 00 00 00 00
0000342f: 00 00 00 00 00 00 00 00 00 00 00 00 00 00 00 00
0000343f: 00 00 00 00 00 00 00 00 00 00 00 00 00 00 00 00
0000344f: 00 00 00 00 00 00 00 00 00 00 00 00 00 00 00 00
0000345f: 00 00 00 00 00 00 00 00 00 00 00 00 00 00 00 00
0000346f: 00 00 00 00 00 00 00 00 00 00 00 00 00 00 00 00
0000347f: 00 00 00 00 00 00 00 00 00 00 00 00 00 00 00 00
0000348f: 00 00 00 00 00 00 00 00 00 00 00 00 00 00 00 00
0000349f: 00 00 00 00 00 00 00 00 00 00 00 00 00 00 00 00
000034af: 00 00 00 00 00 00 00 00 00 00 00 00 00 00 00 00
000034bf: 00 00 00 00 00 00 00 00 00 00 00 00 00 00 00 00
000034cf: 00 00 00 00 00 00 00 00 00 00 00 00 00 00 00 00
000034df: 00 00 00 00 00 00 00 00 00 00 00 00 00 00 00 00
000034ef: 00 00 00 00 00 00 00 00 00 00 00 00 00 00 00 00
000034ff: 00 00 00 00 00 00 00 00 00 00 00 00 00 00 00 00
0000350f: 00 00 00 00 00 00 00 00 00 00 00 00 00 00 00 00
0000351f: 00 00 00 00 00 00 00 00 00 00 00 00 00 00 00 00
0000352f: 00 00 00 00 00 00 00 00 00 00 00 00 00 00 00 00
0000353f: 00 00 00 00 00 00 00 00 00 00 00 00 00 00 00 00
0000354f: 00 00 00 00 00 00 00 00 00 00 00 00 00 00 00 00
0000355f: 00 00 00 00 00 00 00 00 00 00 00 00 00 00 00 00
0000356f: 00 00 00 00 00 00 00 00 00 00 00 00 00 00 00 00
0000357f: 00 00 00 00 00 00 00 00 00 00 00 00 00 00 00 00
0000358f: 00 00 00 00 00 00 00 00 00 00 00 00 00 00 00 00
0000359f: 00 00 00 00 00 00 00 00 00 00 00 00 00 00 00 00
000035af: 00 00 00 00 00 00 00 00 00 00 00 00 00 00 00 00
000035bf: 00 00 00 00 00 00 00 00 00 00 00 00 00 00 00 00
000035cf: 00 00 00 00 00 00 00 00 00 00 00 00 00 00 00 00
000035df: 00 00 00 00 00 00 00 00 00 00 00 00 00 00 00 00
000035ef: 00 00 00 00 00 00 00 00 00 00 00 00 00 00 00 00
000035ff: 00 00 00 00 00 00 00 00 00 00 00 00 00 00 00 00
0000360f: 00 00 00 00 00 00 00 00 00 00 00 00 00 00 00 00
0000361f: 00 00 00 00 00 00 00 00 00 00 00 00 00 00 00 00
0000362f: 00 00 00 00 00 00 00 00 00 00 00 00 00 00 00 00
0000363f: 00 00 00 00 00 00 00 00 00 00 00 00 00 00 00 00
0000364f: 00 00 00 00 00 00 00 00 00 00 00 00 00 00 00 00
0000365f: 00 00 00 00 00 00 00 00 00 00 00 00 00 00 00 00
0000366f: 00 00 00 00 00 00 00 00 00 00 00 00 00 00 00 00
0000367f: 00 00 00 00 00 00 00 00 00 00 00 00 00 00 00 00
0000368f: 00 00 00 00 00 00 00 00 00 00 00 00 00 00 00 00
0000369f: 00 00 00 00 00 00 00 00 00 00 00 00 00 00 00 00
000036af: 00 00 00 00 00 00 00 00 00 00 00 00 00 00 00 00
000036bf: 00 00 00 00 00 00 00 00 00 00 00 00 00 00 00 00
000036cf: 00 00 00 00 00 00 00 00 00 00 00 00 00 00 00 00
000036df: 00 00 00 00 00 00 00 00 00 00 00 00 00 00 00 00
000036ef: 00 00 00 00 00 00 00 00 00 00 00 00 00 00 00 00
000036ff: 00 00 00 00 00 00 00 00 00 00 00 00 00 00 00 00
0000370f: 00 00 00 00 00 00 00 00 00 00 00 00 00 00 00 00
0000371f: 00 00 00 00 00 00 00 00 00 00 00 00 00 00 00 00
0000372f: 00 00 00 00 00 00 00 00 00 00 00 00 00 00 00 00
0000373f: 00 00 00 00 00 00 00 00 00 00 00 00 00 00 00 00
0000374f: 00 00 00 00 00 00 00 00 00 00 00 00 00 00 00 00
0000375f: 00 00 00 00 00 00 00 00 00 00 00 00 00 00 00 00
0000376f: 00 00 00 00 00 00 00 00 00 00 00 00 00 00 00 00
0000377f: 00 00 00 00 00 00 00 00 00 00 00 00 00 00 00 00
0000378f: 00 00 00 00 00 00 00 00 00 00 00 00 00 00 00 00
0000379f: 00 00 00 00 00 00 00 00 00 00 00 00 00 00 00 00
000037af: 00 00 00 00 00 00 00 00 00 00 00 00 00 00 00 00
000037bf: 00 00 00 00 00 00 00 00 00 00 00 00 00 00 00 00
000037cf: 00 00 00 00 00 00 00 00 00 00 00 00 00 00 00 00
000037df: 00 00 00 00 00 00 00 00 00 00 00 00 00 00 00 00
000037ef: 00 00 00 00 00 00 00 00 00 00 00 00 00 00 00 00
000037ff: 00 00 00 00 00 00 00 00 00 00 00 00 00 00 00 00
0000380f: 00 00 00 00 00 00 00 00 00 00 00 00 00 00 00 00
0000381f: 00 00 00 00 00 00 00 00 00 00 00 00 00 00 00 00
0000382f: 00 00 00 00 00 00 00 00 00 00 00 00 00 00 00 00
0000383f: 00 00 00 00 00 00 00 00 00 00 00 00 00 00 00 00
0000384f: 00 00 00 00 00 00 00 00 00 00 00 00 00 00 00 00
0000385f: 00 00 00 00 00 00 00 00 00 00 00 00 00 00 00 00
0000386f: 00 00 00 00 00 00 00 00 00 00 00 00 00 00 00 00
0000387f: 00 00 00 00 00 00 00 00 00 00 00 00 00 00 00 00
0000388f: 00 00 00 00 00 00 00 00 00 00 00 00 00 00 00 00
0000389f: 00 00 00 00 00 00 00 00 00 00 00 00 00 00 00 00
000038af: 00 00 00 00 00 00 00 00 00 00 00 00 00 00 00 00
000038bf: 00 00 00 00 00 00 00 00 00 00 00 00 00 00 00 00
000038cf: 00 00 00 00 00 00 00 00 00 00 00 00 00 00 00 00
000038df: 00 00 00 00 00 00 00 00 00 00 00 00 00 00 00 00
000038ef: 00 00 00 00 00 00 00 00 00 00 00 00 00 00 00 00
000038ff: 00 00 00 00 00 00 00 00 00 00 00 00 00 00 00 00
0000390f: 00 00 00 00 00 00 00 00 00 00 00 00 00 00 00 00
0000391f: 00 00 00 00 00 00 00 00 00 00 00 00 00 00 00 00
0000392f: 00 00 00 00 00 00 00 00 00 00 00 00 00 00 00 00
0000393f: 00 00 00 00 00 00 00 00 00 00 00 00 00 00 00 00
0000394f: 00 00 00 00 00 00 00 00 00 00 00 00 00 00 00 00
0000395f: 00 00 00 00 00 00 00 00 00 00 00 00 00 00 00 00
0000396f: 00 00 00 00 00 00 00 00 00 00 00 00 00 00 00 00
0000397f: 00 00 00 00 00 00 00 00 00 00 00 00 00 00 00 00
0000398f: 00 00 00 00 00 00 00 00 00 00 00 00 00 00 00 00
0000399f: 00 00 00 00 00 00 00 00 00 00 00 00 00 00 00 00
000039af: 00 00 00 00 00 00 00 00 00 00 00 00 00 00 00 00
000039bf: 00 00 00 00 00 00 00 00 00 00 00 00 00 00 00 00
000039cf: 00 00 00 00 00 00 00 00 00 00 00 00 00 00 00 00
000039df: 00 00 00 00 00 00 00 00 00 00 00 00 00 00 00 00
000039ef: 00 00 00 00 00 00 00 00 00 00 00 00 00 00 00 00
000039ff: 00 00 00 00 00 00 00 00 00 00 00 00 00 00 00 00
00003a0f: 00 00 00 00 00 00 00 00 00 00 00 00 00 00 00 00
00003a1f: 00 00 00 00 00 00 00 00 00 00 00 00 00 00 00 00
00003a2f: 00 00 00 00 00 00 00 00 00 00 00 00 00 00 00 00
00003a3f: 00 00 00 00 00 00 00 00 00 00 00 00 00 00 00 00
00003a4f: 00 00 00 00 00 00 00 00 00 00 00 00 00 00 00 00
00003a5f: 00 00 00 00 00 00 00 00 00 00 00 00 00 00 00 00
00003a6f: 00 00 00 00 00 00 00 00 00 00 00 00 00 00 00 00
00003a7f: 00 00 00 00 00 00 00 00 00 00 00 00 00 00 00 00
00003a8f: 00 00 00 00 00 00 00 00 00 00 00 00 00 00 00 00
00003a9f: 00 00 00 00 00 00 00 00 00 00 00 00 00 00 00 00
00003aaf: 00 00 00 00 00 00 00 00 00 00 00 00 00 00 00 00
00003abf: 00 00 00 00 00 00 00 00 00 00 00 00 00 00 00 00
00003acf: 00 00 00 00 00 00 00 00 00 00 00 00 00 00 00 00
00003adf: 00 00 00 00 00 00 00 00 00 00 00 00 00 00 00 00
00003aef: 00 00 00 00 00 00 00 00 00 00 00 00 00 00 00 00
00003aff: 00 00 00 00 00 00 00 00 00 00 00 00 00 00 00 00
00003b0f: 00 00 00 00 00 00 00 00 00 00 00 00 00 00 00 00
00003b1f: 00 00 00 00 00 00 00 00 00 00 00 00 00 00 00 00
00003b2f: 00 00 00 00 00 00 00 00 00 00 00 00 00 00 00 00
00003b3f: 00 00 00 00 00 00 00 00 00 00 00 00 00 00 00 00
00003b4f: 00 00 00 00 00 00 00 00 00 00 00 00 00 00 00 00
00003b5f: 00 00 00 00 00 00 00 00 00 00 00 00 00 00 00 00
00003b6f: 00 00 00 00 00 00 00 00 00 00 00 00 00 00 00 00
00003b7f: 00 00 00 00 00 00 00 00 00 00 00 00 00 00 00 00
00003b8f: 00 00 00 00 00 00 00 00 00 00 00 00 00 00 00 00
00003b9f: 00 00 00 00 00 00 00 00 00 00 00 00 00 00 00 00
00003baf: 00 00 00 00 00 00 00 00 00 00 00 00 00 00 00 00
00003bbf: 00 00 00 00 00 00 00 00 00 00 00 00 00 00 00 00
00003bcf: 00 00 00 00 00 00 00 00 00 00 00 00 00 00 00 00
00003bdf: 00 00 00 00 00 00 00 00 00 00 00 00 00 00 00 00
00003bef: 00 00 00 00 00 00 00 00 00 00 00 00 00 00 00 00
00003bff: 00 00 00 00 00 00 00 00 00 00 00 00 00 00 00 00
00003c0f: 00 00 00 00 00 00 00 00 00 00 00 00 00 00 00 00
00003c1f: 00 00 00 00 00 00 00 00 00 00 00 00 00 00 00 00
00003c2f: 00 00 00 00 00 00 00 00 00 00 00 00 00 00 00 00
00003c3f: 00 00 00 00 00 00 00 00 00 00 00 00 00 00 00 00
00003c4f: 00 00 00 00 00 00 00 00 00 00 00 00 00 00 00 00
00003c5f: 00 00 00 00 00 00 00 00 00 00 00 00 00 00 00 00
00003c6f: 00 00 00 00 00 00 00 00 00 00 00 00 00 00 00 00
00003c7f: 00 00 00 00 00 00 00 00 00 00 00 00 00 00 00 00
00003c8f: 00 00 00 00 00 00 00 00 00 00 00 00 00 00 00 00
00003c9f: 00 00 00 00 00 00 00 00 00 00 00 00 00 00 00 00
00003caf: 00 00 00 00 00 00 00 00 00 00 00 00 00 00 00 00
00003cbf: 00 00 00 00 00 00 00 00 00 00 00 00 00 00 00 00
00003ccf: 00 00 00 00 00 00 00 00 00 00 00 00 00 00 00 00
00003cdf: 00 00 00 00 00 00 00 00 00 00 00 00 00 00 00 00
00003cef: 00 00 00 00 00 00 00 00 00 00 00 00 00 00 00 00
00003cff: 00 00 00 00 00 00 00 00 00 00 00 00 00 00 00 00
00003d0f: 00 00 00 00 00 00 00 00 00 00 00 00 00 00 00 00
00003d1f: 00 00 00 00 00 00 00 00 00 00 00 00 00 00 00 00
00003d2f: 00 00 00 00 00 00 00 00 00 00 00 00 00 00 00 00
00003d3f: 00 00 00 00 00 00 00 00 00 00 00 00 00 00 00 00
00003d4f: 00 00 00 00 00 00 00 00 00 00 00 00 00 00 00 00
00003d5f: 00 00 00 00 00 00 00 00 00 00 00 00 00 00 00 00
00003d6f: 00 00 00 00 00 00 00 00 00 00 00 00 00 00 00 00
00003d7f: 00 00 00 00 00 00 00 00 00 00 00 00 00 00 00 00
00003d8f: 00 00 00 00 00 00 00 00 00 00 00 00 00 00 00 00
00003d9f: 00 00 00 00 00 00 00 00 00 00 00 00 00 00 00 00
00003daf: 00 00 00 00 00 00 00 00 00 00 00 00 00 00 00 00
00003dbf: 00 00 00 00 00 00 00 00 00 00 00 00 00 00 00 00
00003dcf: 00 00 00 00 00 00 00 00 00 00 00 00 00 00 00 00
00003ddf: 00 00 00 00 00 00 00 00 00 00 00 00 00 00 00 00
00003def: 00 00 00 00 00 00 00 00 00 00 00 00 00 00 00 00
00003dff: 00 00 00 00 00 00 00 00 00 00 00 00 00 00 00 00
00003e0f: 00 00 00 00 00 00 00 00 00 00 00 00 00 00 00 00
00003e1f: 00 00 00 00 00 00 00 00 00 00 00 00 00 00 00 00
00003e2f: 00 00 00 00 00 00 00 00 00 00 00 00 00 00 00 00
00003e3f: 00 00 00 00 00 00 00 00 00 00 00 00 00 00 00 00
00003e4f: 00 00 00 00 00 00 00 00 00 00 00 00 00 00 00 00
00003e5f: 00 00 00 00 00 00 00 00 00 00 00 00 00 00 00 00
00003e6f: 00 00 00 00 00 00 00 00 00 00 00 00 00 00 00 00
00003e7f: 00 00 00 00 00 00 00 00 00 00 00 00 00 00 00 00
00003e8f: 00 00 00 00 00 00 00 00 00 00 00 00 00 00 00 00
00003e9f: 00 00 00 00 00 00 00 00 00 00 00 00 00 00 00 00
00003eaf: 00 00 00 00 00 00 00 00 00 00 00 00 00 00 00 00
00003ebf: 00 00 00 00 00 00 00 00 00 00 00 00 00 00 00 00
00003ecf: 00 00 00 00 00 00 00 00 00 00 00 00 00 00 00 00
00003edf: 00 00 00 00 00 00 00 00 00 00 00 00 00 00 00 00
00003eef: 00 00 00 00 00 00 00 00 00 00 00 00 00 00 00 00
00003eff: 00 00 00 00 00 00 00 00 00 00 00 00 00 00 00 00
00003f0f: 00 00 00 00 00 00 00 00 00 00 00 00 00 00 00 00
00003f1f: 00 00 00 00 00 00 00 00 00 00 00 00 00 00 00 00
00003f2f: 00 00 00 00 00 00 00 00 00 00 00 00 00 00 00 00
00003f3f: 00 00 00 00 00 00 00 00 00 00 00 00 00 00 00 00
00003f4f: 00 00 00 00 00 00 00 00 00 00 00 00 00 00 00 00
00003f5f: 00 00 00 00 00 00 00 00 00 00 00 00 00 00 00 00
00003f6f: 00 00 00 00 00 00 00 00 00 00 00 00 00 00 00 00
00003f7f: 00 00 00 00 00 00 00 00 00 00 00 00 00 00 00 00
00003f8f: 00 00 00 00 00 00 00 00 00 00 00 00 00 00 00 00
00003f9f: 00 00 00 00 00 00 00 00 00 00 00 00 00 00 00 00
00003faf: 00 00 00 00 00 00 00 00 00 00 00 00 00 00 00 00
00003fbf: 00 00 00 00 00 00 00 00 00 00 00 00 00 00 00 00
00003fcf: 00 00 00 00 00 00 00 00 00 00 00 00 00 00 00 00
00003fdf: 00 00 00 00 00 00 00 00 00 00 00 00 00 00 00 00
00003fef: 00 00 00 00 00 00 00 00 00 00 00 00 00 00 00 00
00003fff: 00 00 00 00 00 00 00 00 00 00 00 00 00 00 00 00
0000400f: 00 00 00 00 00 00 00 00 00 00 00 00 00 00 00 00
0000401f: 00 00 00 00 00 00 00 00 00 00 00 00 00 00 00 00
0000402f: 00 00 00 00 00 00 00 00 00 00 00 00 00 00 00 00
0000403f: 00 00 00 00 00 00 00 00 00 00 00 00 00 00 00 00
0000404f: 00 00 00 00 00 00 00 00 00 00 00 00 00 00 00 00
0000405f: 00 00 00 00 00 00 00 00 00 00 00 00 00 00 00 00
0000406f: 00 00 00 00 00 00 00 00 00 00 00 00 00 00 00 00
0000407f: 00 00 00 00 00 00 00 00 00 00 00 00 00 00 00 00
0000408f: 00 00 00 00 00 00 00 00 00 00 00 00 00 00 00 00
0000409f: 00 00 00 00 00 00 00 00 00 00 00 00 00 00 00 00
000040af: 00 00 00 00 00 00 00 00 00 00 00 00 00 00 00 00
000040bf: 00 00 00 00 00 00 00 00 00 00 00 00 00 00 00 00
000040cf: 00 00 00 00 00 00 00 00 00 00 00 00 00 00 00 00
000040df: 00 00 00 00 00 00 00 00 00 00 00 00 00 00 00 00
000040ef: 00 00 00 00 00 00 00 00 00 00 00 00 00 00 00 00
000040ff: 00 00 00 00 00 00 00 00 00 00 00 00 00 00 00 00
0000410f: 00 00 00 00 00 00 00 00 00 00 00 00 00 00 00 00
0000411f: 00 00 00 00 00 00 00 00 00 00 00 00 00 00 00 00
0000412f: 00 00 00 00 00 00 00 00 00 00 00 00 00 00 00 00
0000413f: 00 00 00 00 00 00 00 00 00 00 00 00 00 00 00 00
0000414f: 00 00 00 00 00 00 00 00 00 00 00 00 00 00 00 00
0000415f: 00 00 00 00 00 00 00 00 00 00 00 00 00 00 00 00
0000416f: 00 00 00 00 00 00 00 00 00 00 00 00 00 00 00 00
0000417f: 00 00 00 00 00 00 00 00 00 00 00 00 00 00 00 00
0000418f: 00 00 00 00 00 00 00 00 00 00 00 00 00 00 00 00
0000419f: 00 00 00 00 00 00 00 00 00 00 00 00 00 00 00 00
000041af: 00 00 00 00 00 00 00 00 00 00 00 00 00 00 00 00
000041bf: 00 00 00 00 00 00 00 00 00 00 00 00 00 00 00 00
000041cf: 00 00 00 00 00 00 00 00 00 00 00 00 00 00 00 00
000041df: 00 00 00 00 00 00 00 00 00 00 00 00 00 00 00 00
000041ef: 00 00 00 00 00 00 00 00 00 00 00 00 00 00 00 00
000041ff: 00 00 00 00 00 00 00 00 00 00 00 00 00 00 00 00
0000420f: 00 00 00 00 00 00 00 00 00 00 00 00 00 00 00 00
0000421f: 00 00 00 00 00 00 00 00 00 00 00 00 00 00 00 00
0000422f: 00 00 00 00 00 00 00 00 00 00 00 00 00 00 00 00
0000423f: 00 00 00 00 00 00 00 00 00 00 00 00 00 00 00 00
0000424f: 00 00 00 00 00 00 00 00 00 00 00 00 00 00 00 00
0000425f: 00 00 00 00 00 00 00 00 00 00 00 00 00 00 00 00
0000426f: 00 00 00 00 00 00 00 00 00 00 00 00 00 00 00 00
0000427f: 00 00 00 00 00 00 00 00 00 00 00 00 00 00 00 00
0000428f: 00 00 00 00 00 00 00 00 00 00 00 00 00 00 00 00
0000429f: 00 00 00 00 00 00 00 00 00 00 00 00 00 00 00 00
000042af: 00 00 00 00 00 00 00 00 00 00 00 00 00 00 00 00
000042bf: 00 00 00 00 00 00 00 00 00 00 00 00 00 00 00 00
000042cf: 00 00 00 00 00 00 00 00 00 00 00 00 00 00 00 00
000042df: 00 00 00 00 00 00 00 00 00 00 00 00 00 00 00 00
000042ef: 00 00 00 00 00 00 00 00 00 00 00 00 00 00 00 00
000042ff: 00 00 00 00 00 00 00 00 00 00 00 00 00 00 00 00
0000430f: 00 00 00 00 00 00 00 00 00 00 00 00 00 00 00 00
0000431f: 00 00 00 00 00 00 00 00 00 00 00 00 00 00 00 00
0000432f: 00 00 00 00 00 00 00 00 00 00 00 00 00 00 00 00
0000433f: 00 00 00 00 00 00 00 00 00 00 00 00 00 00 00 00
0000434f: 00 00 00 00 00 00 00 00 00 00 00 00 00 00 00 00
0000435f: 00 00 00 00 00 00 00 00 00 00 00 00 00 00 00 00
0000436f: 00 00 00 00 00 00 00 00 00 00 00 00 00 00 00 00
0000437f: 00 00 00 00 00 00 00 00 00 00 00 00 00 00 00 00
0000438f: 00 00 00 00 00 00 00 00 00 00 00 00 00 00 00 00
0000439f: 00 00 00 00 00 00 00 00 00 00 00 00 00 00 00 00
000043af: 00 00 00 00 00 00 00 00 00 00 00 00 00 00 00 00
000043bf: 00 00 00 00 00 00 00 00 00 00 00 00 00 00 00 00
000043cf: 00 00 00 00 00 00 00 00 00 00 00 00 00 00 00 00
000043df: 00 00 00 00 00 00 00 00 00 00 00 00 00 00 00 00
000043ef: 00 00 00 00 00 00 00 00 00 00 00 00 00 00 00 00
000043ff: 00 00 00 00 00 00 00 00 00 00 00 00 00 00 00 00
0000440f: 00 00 00 00 00 00 00 00 00 00 00 00 00 00 00 00
0000441f: 00 00 00 00 00 00 00 00 00 00 00 00 00 00 00 00
0000442f: 00 00 00 00 00 00 00 00 00 00 00 00 00 00 00 00
0000443f: 00 00 00 00 00 00 00 00 00 00 00 00 00 00 00 00
0000444f: 00 00 00 00 00 00 00 00 00 00 00 00 00 00 00 00
0000445f: 00 00 00 00 00 00 00 00 00 00 00 00 00 00 00 00
0000446f: 00 00 00 00 00 00 00 00 00 00 00 00 00 00 00 00
0000447f: 00 00 00 00 00 00 00 00 00 00 00 00 00 00 00 00
0000448f: 00 00 00 00 00 00 00 00 00 00 00 00 00 00 00 00
0000449f: 00 00 00 00 00 00 00 00 00 00 00 00 00 00 00 00
000044af: 00 00 00 00 00 00 00 00 00 00 00 00 00 00 00 00
000044bf: 00 00 00 00 00 00 00 00 00 00 00 00 00 00 00 00
000044cf: 00 00 00 00 00 00 00 00 00 00 00 00 00 00 00 00
000044df: 00 00 00 00 00 00 00 00 00 00 00 00 00 00 00 00
000044ef: 00 00 00 00 00 00 00 00 00 00 00 00 00 00 00 00
000044ff: 00 00 00 00 00 00 00 00 00 00 00 00 00 00 00 00
0000450f: 00 00 00 00 00 00 00 00 00 00 00 00 00 00 00 00
0000451f: 00 00 00 00 00 00 00 00 00 00 00 00 00 00 00 00
0000452f: 00 00 00 00 00 00 00 00 00 00 00 00 00 00 00 00
0000453f: 00 00 00 00 00 00 00 00 00 00 00 00 00 00 00 00
0000454f: 00 00 00 00 00 00 00 00 00 00 00 00 00 00 00 00
0000455f: 00 00 00 00 00 00 00 00 00 00 00 00 00 00 00 00
0000456f: 00 00 00 00 00 00 00 00 00 00 00 00 00 00 00 00
0000457f: 00 00 00 00 00 00 00 00 00 00 00 00 00 00 00 00
0000458f: 00 00 00 00 00 00 00 00 00 00 00 00 00 00 00 00
0000459f: 00 00 00 00 00 00 00 00 00 00 00 00 00 00 00 00
000045af: 00 00 00 00 00 00 00 00 00 00 00 00 00 00 00 00
000045bf: 00 00 00 00 00 00 00 00 00 00 00 00 00 00 00 00
000045cf: 00 00 00 00 00 00 00 00 00 00 00 00 00 00 00 00
000045df: 00 00 00 00 00 00 00 00 00 00 00 00 00 00 00 00
000045ef: 00 00 00 00 00 00 00 00 00 00 00 00 00 00 00 00
000045ff: 00 00 00 00 00 00 00 00 00 00 00 00 00 00 00 00
0000460f: 00 00 00 00 00 00 00 00 00 00 00 00 00 00 00 00
0000461f: 00 00 00 00 00 00 00 00 00 00 00 00 00 00 00 00
0000462f: 00 00 00 00 00 00 00 00 00 00 00 00 00 00 00 00
0000463f: 00 00 00 00 00 00 00 00 00 00 00 00 00 00 00 00
0000464f: 00 00 00 00 00 00 00 00 00 00 00 00 00 00 00 00
0000465f: 00 00 00 00 00 00 00 00 00 00 00 00 00 00 00 00
0000466f: 00 00 00 00 00 00 00 00 00 00 00 00 00 00 00 00
0000467f: 00 00 00 00 00 00 00 00 00 00 00 00 00 00 00 00
0000468f: 00 00 00 00 00 00 00 00 00 00 00 00 00 00 00 00
0000469f: 00 00 00 00 00 00 00 00 00 00 00 00 00 00 00 00
000046af: 00 00 00 00 00 00 00 00 00 00 00 00 00 00 00 00
000046bf: 00 00 00 00 00 00 00 00 00 00 00 00 00 00 00 00
000046cf: 00 00 00 00 00 00 00 00 00 00 00 00 00 00 00 00
000046df: 00 00 00 00 00 00 00 00 00 00 00 00 00 00 00 00
000046ef: 00 00 00 00 00 00 00 00 00 00 00 00 00 00 00 00
000046ff: 00 00 00 00 00 00 00 00 00 00 00 00 00 00 00 00
0000470f: 00 00 00 00 00 00 00 00 00 00 00 00 00 00 00 00
0000471f: 00 00 00 00 00 00 00 00 00 00 00 00 00 00 00 00
0000472f: 00 00 00 00 00 00 00 00 00 00 00 00 00 00 00 00
0000473f: 00 00 00 00 00 00 00 00 00 00 00 00 00 00 00 00
0000474f: 00 00 00 00 00 00 00 00 00 00 00 00 00 00 00 00
0000475f: 00 00 00 00 00 00 00 00 00 00 00 00 00 00 00 00
0000476f: 00 00 00 00 00 00 00 00 00 00 00 00 00 00 00 00
0000477f: 00 00 00 00 00 00 00 00 00 00 00 00 00 00 00 00
0000478f: 00 00 00 00 00 00 00 00 00 00 00 00 00 00 00 00
0000479f: 00 00 00 00 00 00 00 00 00 00 00 00 00 00 00 00
000047af: 00 00 00 00 00 00 00 00 00 00 00 00 00 00 00 00
000047bf: 00 00 00 00 00 00 00 00 00 00 00 00 00 00 00 00
000047cf: 00 00 00 00 00 00 00 00 00 00 00 00 00 00 00 00
000047df: 00 00 00 00 00 00 00 00 00 00 00 00 00 00 00 00
000047ef: 00 00 00 00 00 00 00 00 00 00 00 00 00 00 00 00
000047ff: 00 00 00 00 00 00 00 00 00 00 00 00 00 00 00 00
0000480f: 00 00 00 00 00 00 00 00 00 00 00 00 00 00 00 00
0000481f: 00 00 00 00 00 00 00 00 00 00 00 00 00 00 00 00
0000482f: 00 00 00 00 00 00 00 00 00 00 00 00 00 00 00 00
0000483f: 00 00 00 00 00 00 00 00 00 00 00 00 00 00 00 00
0000484f: 00 00 00 00 00 00 00 00 00 00 00 00 00 00 00 00
0000485f: 00 00 00 00 00 00 00 00 00 00 00 00 00 00 00 00
0000486f: 00 00 00 00 00 00 00 00 00 00 00 00 00 00 00 00
0000487f: 00 00 00 00 00 00 00 00 00 00 00 00 00 00 00 00
0000488f: 00 00 00 00 00 00 00 00 00 00 00 00 00 00 00 00
0000489f: 00 00 00 00 00 00 00 00 00 00 00 00 00 00 00 00
000048af: 00 00 00 00 00 00 00 00 00 00 00 00 00 00 00 00
000048bf: 00 00 00 00 00 00 00 00 00 00 00 00 00 00 00 00
000048cf: 00 00 00 00 00 00 00 00 00 00 00 00 00 00 00 00
000048df: 00 00 00 00 00 00 00 00 00 00 00 00 00 00 00 00
000048ef: 00 00 00 00 00 00 00 00 00 00 00 00 00 00 00 00
000048ff: 00 00 00 00 00 00 00 00 00 00 00 00 00 00 00 00
0000490f: 00 00 00 00 00 00 00 00 00 00 00 00 00 00 00 00
0000491f: 00 00 00 00 00 00 00 00 00 00 00 00 00 00 00 00
0000492f: 00 00 00 00 00 00 00 00 00 00 00 00 00 00 00 00
0000493f: 00 00 00 00 00 00 00 00 00 00 00 00 00 00 00 00
0000494f: 00 00 00 00 00 00 00 00 00 00 00 00 00 00 00 00
0000495f: 00 00 00 00 00 00 00 00 00 00 00 00 00 00 00 00
0000496f: 00 00 00 00 00 00 00 00 00 00 00 00 00 00 00 00
0000497f: 00 00 00 00 00 00 00 00 00 00 00 00 00 00 00 00
0000498f: 00 00 00 00 00 00 00 00 00 00 00 00 00 00 00 00
0000499f: 00 00 00 00 00 00 00 00 00 00 00 00 00 00 00 00

