ARM GAS  C:\Users\juano\AppData\Local\Temp\cckNbHpd.s 			page 1


   1              		.syntax unified
   2              		.cpu cortex-m3
   3              		.fpu softvfp
   4              		.eabi_attribute 20, 1
   5              		.eabi_attribute 21, 1
   6              		.eabi_attribute 23, 3
   7              		.eabi_attribute 24, 1
   8              		.eabi_attribute 25, 1
   9              		.eabi_attribute 26, 1
  10              		.eabi_attribute 30, 1
  11              		.eabi_attribute 34, 1
  12              		.eabi_attribute 18, 4
  13              		.thumb
  14              		.syntax unified
  15              		.file	"VDAC.c"
  16              		.text
  17              	.Ltext0:
  18              		.cfi_sections	.debug_frame
  19              		.section	.text.VDAC_Enable,"ax",%progbits
  20              		.align	2
  21              		.global	VDAC_Enable
  22              		.thumb
  23              		.thumb_func
  24              		.type	VDAC_Enable, %function
  25              	VDAC_Enable:
  26              	.LFB1:
  27              		.file 1 "Generated_Source\\PSoC5\\VDAC.c"
   1:Generated_Source\PSoC5/VDAC.c **** /*******************************************************************************
   2:Generated_Source\PSoC5/VDAC.c **** * File Name: VDAC.c  
   3:Generated_Source\PSoC5/VDAC.c **** * Version 1.90
   4:Generated_Source\PSoC5/VDAC.c **** *
   5:Generated_Source\PSoC5/VDAC.c **** * Description:
   6:Generated_Source\PSoC5/VDAC.c **** *  This file provides the source code to the API for the 8-bit Voltage DAC 
   7:Generated_Source\PSoC5/VDAC.c **** *  (VDAC8) User Module.
   8:Generated_Source\PSoC5/VDAC.c **** *
   9:Generated_Source\PSoC5/VDAC.c **** * Note:
  10:Generated_Source\PSoC5/VDAC.c **** *  Any unusual or non-standard behavior should be noted here. Other-
  11:Generated_Source\PSoC5/VDAC.c **** *  wise, this section should remain blank.
  12:Generated_Source\PSoC5/VDAC.c **** *
  13:Generated_Source\PSoC5/VDAC.c **** ********************************************************************************
  14:Generated_Source\PSoC5/VDAC.c **** * Copyright 2008-2012, Cypress Semiconductor Corporation.  All rights reserved.
  15:Generated_Source\PSoC5/VDAC.c **** * You may use this file only in accordance with the license, terms, conditions, 
  16:Generated_Source\PSoC5/VDAC.c **** * disclaimers, and limitations in the end user license agreement accompanying 
  17:Generated_Source\PSoC5/VDAC.c **** * the software package with which this file was provided.
  18:Generated_Source\PSoC5/VDAC.c **** *******************************************************************************/
  19:Generated_Source\PSoC5/VDAC.c **** 
  20:Generated_Source\PSoC5/VDAC.c **** #include "cytypes.h"
  21:Generated_Source\PSoC5/VDAC.c **** #include "VDAC.h"
  22:Generated_Source\PSoC5/VDAC.c **** 
  23:Generated_Source\PSoC5/VDAC.c **** #if (CY_PSOC5A)
  24:Generated_Source\PSoC5/VDAC.c **** #include <CyLib.h>
  25:Generated_Source\PSoC5/VDAC.c **** #endif /* CY_PSOC5A */
  26:Generated_Source\PSoC5/VDAC.c **** 
  27:Generated_Source\PSoC5/VDAC.c **** uint8 VDAC_initVar = 0u;
  28:Generated_Source\PSoC5/VDAC.c **** 
  29:Generated_Source\PSoC5/VDAC.c **** #if (CY_PSOC5A)
  30:Generated_Source\PSoC5/VDAC.c ****     static uint8 VDAC_restoreVal = 0u;
ARM GAS  C:\Users\juano\AppData\Local\Temp\cckNbHpd.s 			page 2


  31:Generated_Source\PSoC5/VDAC.c **** #endif /* CY_PSOC5A */
  32:Generated_Source\PSoC5/VDAC.c **** 
  33:Generated_Source\PSoC5/VDAC.c **** #if (CY_PSOC5A)
  34:Generated_Source\PSoC5/VDAC.c ****     static VDAC_backupStruct VDAC_backup;
  35:Generated_Source\PSoC5/VDAC.c **** #endif /* CY_PSOC5A */
  36:Generated_Source\PSoC5/VDAC.c **** 
  37:Generated_Source\PSoC5/VDAC.c **** 
  38:Generated_Source\PSoC5/VDAC.c **** /*******************************************************************************
  39:Generated_Source\PSoC5/VDAC.c **** * Function Name: VDAC_Init
  40:Generated_Source\PSoC5/VDAC.c **** ********************************************************************************
  41:Generated_Source\PSoC5/VDAC.c **** * Summary:
  42:Generated_Source\PSoC5/VDAC.c **** *  Initialize to the schematic state.
  43:Generated_Source\PSoC5/VDAC.c **** * 
  44:Generated_Source\PSoC5/VDAC.c **** * Parameters:
  45:Generated_Source\PSoC5/VDAC.c **** *  void:
  46:Generated_Source\PSoC5/VDAC.c **** *
  47:Generated_Source\PSoC5/VDAC.c **** * Return:
  48:Generated_Source\PSoC5/VDAC.c **** *  void
  49:Generated_Source\PSoC5/VDAC.c **** *
  50:Generated_Source\PSoC5/VDAC.c **** * Theory:
  51:Generated_Source\PSoC5/VDAC.c **** *
  52:Generated_Source\PSoC5/VDAC.c **** * Side Effects:
  53:Generated_Source\PSoC5/VDAC.c **** *
  54:Generated_Source\PSoC5/VDAC.c **** *******************************************************************************/
  55:Generated_Source\PSoC5/VDAC.c **** void VDAC_Init(void) 
  56:Generated_Source\PSoC5/VDAC.c **** {
  57:Generated_Source\PSoC5/VDAC.c ****     VDAC_CR0 = (VDAC_MODE_V );
  58:Generated_Source\PSoC5/VDAC.c **** 
  59:Generated_Source\PSoC5/VDAC.c ****     /* Set default data source */
  60:Generated_Source\PSoC5/VDAC.c ****     #if(VDAC_DEFAULT_DATA_SRC != 0 )
  61:Generated_Source\PSoC5/VDAC.c ****         VDAC_CR1 = (VDAC_DEFAULT_CNTL | VDAC_DACBUS_ENABLE) ;
  62:Generated_Source\PSoC5/VDAC.c ****     #else
  63:Generated_Source\PSoC5/VDAC.c ****         VDAC_CR1 = (VDAC_DEFAULT_CNTL | VDAC_DACBUS_DISABLE) ;
  64:Generated_Source\PSoC5/VDAC.c ****     #endif /* (VDAC_DEFAULT_DATA_SRC != 0 ) */
  65:Generated_Source\PSoC5/VDAC.c **** 
  66:Generated_Source\PSoC5/VDAC.c ****     /* Set default strobe mode */
  67:Generated_Source\PSoC5/VDAC.c ****     #if(VDAC_DEFAULT_STRB != 0)
  68:Generated_Source\PSoC5/VDAC.c ****         VDAC_Strobe |= VDAC_STRB_EN ;
  69:Generated_Source\PSoC5/VDAC.c ****     #endif/* (VDAC_DEFAULT_STRB != 0) */
  70:Generated_Source\PSoC5/VDAC.c **** 
  71:Generated_Source\PSoC5/VDAC.c ****     /* Set default range */
  72:Generated_Source\PSoC5/VDAC.c ****     VDAC_SetRange(VDAC_DEFAULT_RANGE); 
  73:Generated_Source\PSoC5/VDAC.c **** 
  74:Generated_Source\PSoC5/VDAC.c ****     /* Set default speed */
  75:Generated_Source\PSoC5/VDAC.c ****     VDAC_SetSpeed(VDAC_DEFAULT_SPEED);
  76:Generated_Source\PSoC5/VDAC.c **** }
  77:Generated_Source\PSoC5/VDAC.c **** 
  78:Generated_Source\PSoC5/VDAC.c **** 
  79:Generated_Source\PSoC5/VDAC.c **** /*******************************************************************************
  80:Generated_Source\PSoC5/VDAC.c **** * Function Name: VDAC_Enable
  81:Generated_Source\PSoC5/VDAC.c **** ********************************************************************************
  82:Generated_Source\PSoC5/VDAC.c **** * Summary:
  83:Generated_Source\PSoC5/VDAC.c **** *  Enable the VDAC8
  84:Generated_Source\PSoC5/VDAC.c **** * 
  85:Generated_Source\PSoC5/VDAC.c **** * Parameters:
  86:Generated_Source\PSoC5/VDAC.c **** *  void
  87:Generated_Source\PSoC5/VDAC.c **** *
ARM GAS  C:\Users\juano\AppData\Local\Temp\cckNbHpd.s 			page 3


  88:Generated_Source\PSoC5/VDAC.c **** * Return:
  89:Generated_Source\PSoC5/VDAC.c **** *  void
  90:Generated_Source\PSoC5/VDAC.c **** *
  91:Generated_Source\PSoC5/VDAC.c **** * Theory:
  92:Generated_Source\PSoC5/VDAC.c **** *
  93:Generated_Source\PSoC5/VDAC.c **** * Side Effects:
  94:Generated_Source\PSoC5/VDAC.c **** *
  95:Generated_Source\PSoC5/VDAC.c **** *******************************************************************************/
  96:Generated_Source\PSoC5/VDAC.c **** void VDAC_Enable(void) 
  97:Generated_Source\PSoC5/VDAC.c **** {
  28              		.loc 1 97 0
  29              		.cfi_startproc
  30              		@ args = 0, pretend = 0, frame = 0
  31              		@ frame_needed = 0, uses_anonymous_args = 0
  32              		@ link register save eliminated.
  98:Generated_Source\PSoC5/VDAC.c ****     VDAC_PWRMGR |= VDAC_ACT_PWR_EN;
  33              		.loc 1 98 0
  34 0000 054A     		ldr	r2, .L2
  35 0002 1378     		ldrb	r3, [r2]	@ zero_extendqisi2
  36 0004 43F00103 		orr	r3, r3, #1
  37 0008 1370     		strb	r3, [r2]
  99:Generated_Source\PSoC5/VDAC.c ****     VDAC_STBY_PWRMGR |= VDAC_STBY_PWR_EN;
  38              		.loc 1 99 0
  39 000a 1032     		adds	r2, r2, #16
  40 000c 1378     		ldrb	r3, [r2]	@ zero_extendqisi2
  41 000e 43F00103 		orr	r3, r3, #1
  42 0012 1370     		strb	r3, [r2]
  43 0014 7047     		bx	lr
  44              	.L3:
  45 0016 00BF     		.align	2
  46              	.L2:
  47 0018 A8430040 		.word	1073759144
  48              		.cfi_endproc
  49              	.LFE1:
  50              		.size	VDAC_Enable, .-VDAC_Enable
  51              		.section	.text.VDAC_Stop,"ax",%progbits
  52              		.align	2
  53              		.global	VDAC_Stop
  54              		.thumb
  55              		.thumb_func
  56              		.type	VDAC_Stop, %function
  57              	VDAC_Stop:
  58              	.LFB3:
 100:Generated_Source\PSoC5/VDAC.c **** 
 101:Generated_Source\PSoC5/VDAC.c ****     /*This is to restore the value of register CR0 ,
 102:Generated_Source\PSoC5/VDAC.c ****     which is modified  in Stop API , this prevents misbehaviour of VDAC */
 103:Generated_Source\PSoC5/VDAC.c ****     #if (CY_PSOC5A)
 104:Generated_Source\PSoC5/VDAC.c ****         if(VDAC_restoreVal == 1u) 
 105:Generated_Source\PSoC5/VDAC.c ****         {
 106:Generated_Source\PSoC5/VDAC.c ****              VDAC_CR0 = VDAC_backup.data_value;
 107:Generated_Source\PSoC5/VDAC.c ****              VDAC_restoreVal = 0u;
 108:Generated_Source\PSoC5/VDAC.c ****         }
 109:Generated_Source\PSoC5/VDAC.c ****     #endif /* CY_PSOC5A */
 110:Generated_Source\PSoC5/VDAC.c **** }
 111:Generated_Source\PSoC5/VDAC.c **** 
 112:Generated_Source\PSoC5/VDAC.c **** 
 113:Generated_Source\PSoC5/VDAC.c **** /*******************************************************************************
ARM GAS  C:\Users\juano\AppData\Local\Temp\cckNbHpd.s 			page 4


 114:Generated_Source\PSoC5/VDAC.c **** * Function Name: VDAC_Start
 115:Generated_Source\PSoC5/VDAC.c **** ********************************************************************************
 116:Generated_Source\PSoC5/VDAC.c **** *
 117:Generated_Source\PSoC5/VDAC.c **** * Summary:
 118:Generated_Source\PSoC5/VDAC.c **** *  The start function initializes the voltage DAC with the default values, 
 119:Generated_Source\PSoC5/VDAC.c **** *  and sets the power to the given level.  A power level of 0, is the same as
 120:Generated_Source\PSoC5/VDAC.c **** *  executing the stop function.
 121:Generated_Source\PSoC5/VDAC.c **** *
 122:Generated_Source\PSoC5/VDAC.c **** * Parameters:
 123:Generated_Source\PSoC5/VDAC.c **** *  Power: Sets power level between off (0) and (3) high power
 124:Generated_Source\PSoC5/VDAC.c **** *
 125:Generated_Source\PSoC5/VDAC.c **** * Return:
 126:Generated_Source\PSoC5/VDAC.c **** *  void 
 127:Generated_Source\PSoC5/VDAC.c **** *
 128:Generated_Source\PSoC5/VDAC.c **** * Global variables:
 129:Generated_Source\PSoC5/VDAC.c **** *  VDAC_initVar: Is modified when this function is called for the 
 130:Generated_Source\PSoC5/VDAC.c **** *  first time. Is used to ensure that initialization happens only once.
 131:Generated_Source\PSoC5/VDAC.c **** *
 132:Generated_Source\PSoC5/VDAC.c **** *******************************************************************************/
 133:Generated_Source\PSoC5/VDAC.c **** void VDAC_Start(void)  
 134:Generated_Source\PSoC5/VDAC.c **** {
 135:Generated_Source\PSoC5/VDAC.c ****     /* Hardware initiazation only needs to occure the first time */
 136:Generated_Source\PSoC5/VDAC.c ****     if(VDAC_initVar == 0u)
 137:Generated_Source\PSoC5/VDAC.c ****     { 
 138:Generated_Source\PSoC5/VDAC.c ****         VDAC_Init();
 139:Generated_Source\PSoC5/VDAC.c ****         VDAC_initVar = 1u;
 140:Generated_Source\PSoC5/VDAC.c ****     }
 141:Generated_Source\PSoC5/VDAC.c **** 
 142:Generated_Source\PSoC5/VDAC.c ****     /* Enable power to DAC */
 143:Generated_Source\PSoC5/VDAC.c ****     VDAC_Enable();
 144:Generated_Source\PSoC5/VDAC.c **** 
 145:Generated_Source\PSoC5/VDAC.c ****     /* Set default value */
 146:Generated_Source\PSoC5/VDAC.c ****     VDAC_SetValue(VDAC_DEFAULT_DATA); 
 147:Generated_Source\PSoC5/VDAC.c **** }
 148:Generated_Source\PSoC5/VDAC.c **** 
 149:Generated_Source\PSoC5/VDAC.c **** 
 150:Generated_Source\PSoC5/VDAC.c **** /*******************************************************************************
 151:Generated_Source\PSoC5/VDAC.c **** * Function Name: VDAC_Stop
 152:Generated_Source\PSoC5/VDAC.c **** ********************************************************************************
 153:Generated_Source\PSoC5/VDAC.c **** *
 154:Generated_Source\PSoC5/VDAC.c **** * Summary:
 155:Generated_Source\PSoC5/VDAC.c **** *  Powers down DAC to lowest power state.
 156:Generated_Source\PSoC5/VDAC.c **** *
 157:Generated_Source\PSoC5/VDAC.c **** * Parameters:
 158:Generated_Source\PSoC5/VDAC.c **** *  void
 159:Generated_Source\PSoC5/VDAC.c **** *
 160:Generated_Source\PSoC5/VDAC.c **** * Return:
 161:Generated_Source\PSoC5/VDAC.c **** *  void
 162:Generated_Source\PSoC5/VDAC.c **** *
 163:Generated_Source\PSoC5/VDAC.c **** * Theory:
 164:Generated_Source\PSoC5/VDAC.c **** *
 165:Generated_Source\PSoC5/VDAC.c **** * Side Effects:
 166:Generated_Source\PSoC5/VDAC.c **** *
 167:Generated_Source\PSoC5/VDAC.c **** *******************************************************************************/
 168:Generated_Source\PSoC5/VDAC.c **** void VDAC_Stop(void) 
 169:Generated_Source\PSoC5/VDAC.c **** {
  59              		.loc 1 169 0
ARM GAS  C:\Users\juano\AppData\Local\Temp\cckNbHpd.s 			page 5


  60              		.cfi_startproc
  61              		@ args = 0, pretend = 0, frame = 0
  62              		@ frame_needed = 0, uses_anonymous_args = 0
  63              		@ link register save eliminated.
 170:Generated_Source\PSoC5/VDAC.c ****     /* Disble power to DAC */
 171:Generated_Source\PSoC5/VDAC.c ****     VDAC_PWRMGR &= (uint8)(~VDAC_ACT_PWR_EN);
  64              		.loc 1 171 0
  65 0000 054A     		ldr	r2, .L5
  66 0002 1378     		ldrb	r3, [r2]	@ zero_extendqisi2
  67 0004 03F0FE03 		and	r3, r3, #254
  68 0008 1370     		strb	r3, [r2]
 172:Generated_Source\PSoC5/VDAC.c ****     VDAC_STBY_PWRMGR &= (uint8)(~VDAC_STBY_PWR_EN);
  69              		.loc 1 172 0
  70 000a 1032     		adds	r2, r2, #16
  71 000c 1378     		ldrb	r3, [r2]	@ zero_extendqisi2
  72 000e 03F0FE03 		and	r3, r3, #254
  73 0012 1370     		strb	r3, [r2]
  74 0014 7047     		bx	lr
  75              	.L6:
  76 0016 00BF     		.align	2
  77              	.L5:
  78 0018 A8430040 		.word	1073759144
  79              		.cfi_endproc
  80              	.LFE3:
  81              		.size	VDAC_Stop, .-VDAC_Stop
  82              		.section	.text.VDAC_SetSpeed,"ax",%progbits
  83              		.align	2
  84              		.global	VDAC_SetSpeed
  85              		.thumb
  86              		.thumb_func
  87              		.type	VDAC_SetSpeed, %function
  88              	VDAC_SetSpeed:
  89              	.LFB4:
 173:Generated_Source\PSoC5/VDAC.c **** 
 174:Generated_Source\PSoC5/VDAC.c ****     /* This is a work around for PSoC5A  ,
 175:Generated_Source\PSoC5/VDAC.c ****     this sets VDAC to current mode with output off */
 176:Generated_Source\PSoC5/VDAC.c ****     #if (CY_PSOC5A)
 177:Generated_Source\PSoC5/VDAC.c ****         VDAC_backup.data_value = VDAC_CR0;
 178:Generated_Source\PSoC5/VDAC.c ****         VDAC_CR0 = VDAC_CUR_MODE_OUT_OFF;
 179:Generated_Source\PSoC5/VDAC.c ****         VDAC_restoreVal = 1u;
 180:Generated_Source\PSoC5/VDAC.c ****     #endif /* CY_PSOC5A */
 181:Generated_Source\PSoC5/VDAC.c **** }
 182:Generated_Source\PSoC5/VDAC.c **** 
 183:Generated_Source\PSoC5/VDAC.c **** 
 184:Generated_Source\PSoC5/VDAC.c **** /*******************************************************************************
 185:Generated_Source\PSoC5/VDAC.c **** * Function Name: VDAC_SetSpeed
 186:Generated_Source\PSoC5/VDAC.c **** ********************************************************************************
 187:Generated_Source\PSoC5/VDAC.c **** *
 188:Generated_Source\PSoC5/VDAC.c **** * Summary:
 189:Generated_Source\PSoC5/VDAC.c **** *  Set DAC speed
 190:Generated_Source\PSoC5/VDAC.c **** *
 191:Generated_Source\PSoC5/VDAC.c **** * Parameters:
 192:Generated_Source\PSoC5/VDAC.c **** *  power: Sets speed value
 193:Generated_Source\PSoC5/VDAC.c **** *
 194:Generated_Source\PSoC5/VDAC.c **** * Return:
 195:Generated_Source\PSoC5/VDAC.c **** *  void
 196:Generated_Source\PSoC5/VDAC.c **** *
ARM GAS  C:\Users\juano\AppData\Local\Temp\cckNbHpd.s 			page 6


 197:Generated_Source\PSoC5/VDAC.c **** * Theory:
 198:Generated_Source\PSoC5/VDAC.c **** *
 199:Generated_Source\PSoC5/VDAC.c **** * Side Effects:
 200:Generated_Source\PSoC5/VDAC.c **** *
 201:Generated_Source\PSoC5/VDAC.c **** *******************************************************************************/
 202:Generated_Source\PSoC5/VDAC.c **** void VDAC_SetSpeed(uint8 speed) 
 203:Generated_Source\PSoC5/VDAC.c **** {
  90              		.loc 1 203 0
  91              		.cfi_startproc
  92              		@ args = 0, pretend = 0, frame = 0
  93              		@ frame_needed = 0, uses_anonymous_args = 0
  94              		@ link register save eliminated.
  95              	.LVL0:
 204:Generated_Source\PSoC5/VDAC.c ****     /* Clear power mask then write in new value */
 205:Generated_Source\PSoC5/VDAC.c ****     VDAC_CR0 &= (uint8)(~VDAC_HS_MASK);
  96              		.loc 1 205 0
  97 0000 054B     		ldr	r3, .L8
  98 0002 1A78     		ldrb	r2, [r3]	@ zero_extendqisi2
  99 0004 02F0FD02 		and	r2, r2, #253
 100 0008 1A70     		strb	r2, [r3]
 206:Generated_Source\PSoC5/VDAC.c ****     VDAC_CR0 |=  (speed & VDAC_HS_MASK);
 101              		.loc 1 206 0
 102 000a 1A78     		ldrb	r2, [r3]	@ zero_extendqisi2
 103 000c 00F00200 		and	r0, r0, #2
 104              	.LVL1:
 105 0010 1043     		orrs	r0, r0, r2
 106 0012 1870     		strb	r0, [r3]
 107 0014 7047     		bx	lr
 108              	.L9:
 109 0016 00BF     		.align	2
 110              	.L8:
 111 0018 20580040 		.word	1073764384
 112              		.cfi_endproc
 113              	.LFE4:
 114              		.size	VDAC_SetSpeed, .-VDAC_SetSpeed
 115              		.section	.text.VDAC_SetValue,"ax",%progbits
 116              		.align	2
 117              		.global	VDAC_SetValue
 118              		.thumb
 119              		.thumb_func
 120              		.type	VDAC_SetValue, %function
 121              	VDAC_SetValue:
 122              	.LFB6:
 207:Generated_Source\PSoC5/VDAC.c **** }
 208:Generated_Source\PSoC5/VDAC.c **** 
 209:Generated_Source\PSoC5/VDAC.c **** 
 210:Generated_Source\PSoC5/VDAC.c **** /*******************************************************************************
 211:Generated_Source\PSoC5/VDAC.c **** * Function Name: VDAC_SetRange
 212:Generated_Source\PSoC5/VDAC.c **** ********************************************************************************
 213:Generated_Source\PSoC5/VDAC.c **** *
 214:Generated_Source\PSoC5/VDAC.c **** * Summary:
 215:Generated_Source\PSoC5/VDAC.c **** *  Set one of three current ranges.
 216:Generated_Source\PSoC5/VDAC.c **** *
 217:Generated_Source\PSoC5/VDAC.c **** * Parameters:
 218:Generated_Source\PSoC5/VDAC.c **** *  Range: Sets one of Three valid ranges.
 219:Generated_Source\PSoC5/VDAC.c **** *
 220:Generated_Source\PSoC5/VDAC.c **** * Return:
ARM GAS  C:\Users\juano\AppData\Local\Temp\cckNbHpd.s 			page 7


 221:Generated_Source\PSoC5/VDAC.c **** *  void 
 222:Generated_Source\PSoC5/VDAC.c **** *
 223:Generated_Source\PSoC5/VDAC.c **** * Theory:
 224:Generated_Source\PSoC5/VDAC.c **** *
 225:Generated_Source\PSoC5/VDAC.c **** * Side Effects:
 226:Generated_Source\PSoC5/VDAC.c **** *
 227:Generated_Source\PSoC5/VDAC.c **** *******************************************************************************/
 228:Generated_Source\PSoC5/VDAC.c **** void VDAC_SetRange(uint8 range) 
 229:Generated_Source\PSoC5/VDAC.c **** {
 230:Generated_Source\PSoC5/VDAC.c ****     VDAC_CR0 &= (uint8)(~VDAC_RANGE_MASK);      /* Clear existing mode */
 231:Generated_Source\PSoC5/VDAC.c ****     VDAC_CR0 |= (range & VDAC_RANGE_MASK);      /*  Set Range  */
 232:Generated_Source\PSoC5/VDAC.c ****     VDAC_DacTrim();
 233:Generated_Source\PSoC5/VDAC.c **** }
 234:Generated_Source\PSoC5/VDAC.c **** 
 235:Generated_Source\PSoC5/VDAC.c **** 
 236:Generated_Source\PSoC5/VDAC.c **** /*******************************************************************************
 237:Generated_Source\PSoC5/VDAC.c **** * Function Name: VDAC_SetValue
 238:Generated_Source\PSoC5/VDAC.c **** ********************************************************************************
 239:Generated_Source\PSoC5/VDAC.c **** *
 240:Generated_Source\PSoC5/VDAC.c **** * Summary:
 241:Generated_Source\PSoC5/VDAC.c **** *  Set 8-bit DAC value
 242:Generated_Source\PSoC5/VDAC.c **** *
 243:Generated_Source\PSoC5/VDAC.c **** * Parameters:  
 244:Generated_Source\PSoC5/VDAC.c **** *  value:  Sets DAC value between 0 and 255.
 245:Generated_Source\PSoC5/VDAC.c **** *
 246:Generated_Source\PSoC5/VDAC.c **** * Return: 
 247:Generated_Source\PSoC5/VDAC.c **** *  void 
 248:Generated_Source\PSoC5/VDAC.c **** *
 249:Generated_Source\PSoC5/VDAC.c **** * Theory: 
 250:Generated_Source\PSoC5/VDAC.c **** *
 251:Generated_Source\PSoC5/VDAC.c **** * Side Effects:
 252:Generated_Source\PSoC5/VDAC.c **** *
 253:Generated_Source\PSoC5/VDAC.c **** *******************************************************************************/
 254:Generated_Source\PSoC5/VDAC.c **** void VDAC_SetValue(uint8 value) 
 255:Generated_Source\PSoC5/VDAC.c **** {
 123              		.loc 1 255 0
 124              		.cfi_startproc
 125              		@ args = 0, pretend = 0, frame = 0
 126              		@ frame_needed = 0, uses_anonymous_args = 0
 127              		@ link register save eliminated.
 128              	.LVL2:
 256:Generated_Source\PSoC5/VDAC.c ****     #if (CY_PSOC5A)
 257:Generated_Source\PSoC5/VDAC.c ****         uint8 VDAC_intrStatus = CyEnterCriticalSection();
 258:Generated_Source\PSoC5/VDAC.c ****     #endif /* CY_PSOC5A */
 259:Generated_Source\PSoC5/VDAC.c **** 
 260:Generated_Source\PSoC5/VDAC.c ****     VDAC_Data = value;                /*  Set Value  */
 129              		.loc 1 260 0
 130 0000 014B     		ldr	r3, .L11
 131 0002 1870     		strb	r0, [r3]
 132 0004 7047     		bx	lr
 133              	.L12:
 134 0006 00BF     		.align	2
 135              	.L11:
 136 0008 805B0040 		.word	1073765248
 137              		.cfi_endproc
 138              	.LFE6:
 139              		.size	VDAC_SetValue, .-VDAC_SetValue
ARM GAS  C:\Users\juano\AppData\Local\Temp\cckNbHpd.s 			page 8


 140              		.section	.text.VDAC_DacTrim,"ax",%progbits
 141              		.align	2
 142              		.global	VDAC_DacTrim
 143              		.thumb
 144              		.thumb_func
 145              		.type	VDAC_DacTrim, %function
 146              	VDAC_DacTrim:
 147              	.LFB7:
 261:Generated_Source\PSoC5/VDAC.c **** 
 262:Generated_Source\PSoC5/VDAC.c ****     /* PSOC5A requires a double write */
 263:Generated_Source\PSoC5/VDAC.c ****     /* Exit Critical Section */
 264:Generated_Source\PSoC5/VDAC.c ****     #if (CY_PSOC5A)
 265:Generated_Source\PSoC5/VDAC.c ****         VDAC_Data = value;
 266:Generated_Source\PSoC5/VDAC.c ****         CyExitCriticalSection(VDAC_intrStatus);
 267:Generated_Source\PSoC5/VDAC.c ****     #endif /* CY_PSOC5A */
 268:Generated_Source\PSoC5/VDAC.c **** }
 269:Generated_Source\PSoC5/VDAC.c **** 
 270:Generated_Source\PSoC5/VDAC.c **** 
 271:Generated_Source\PSoC5/VDAC.c **** /*******************************************************************************
 272:Generated_Source\PSoC5/VDAC.c **** * Function Name: VDAC_DacTrim
 273:Generated_Source\PSoC5/VDAC.c **** ********************************************************************************
 274:Generated_Source\PSoC5/VDAC.c **** *
 275:Generated_Source\PSoC5/VDAC.c **** * Summary:
 276:Generated_Source\PSoC5/VDAC.c **** *  Set the trim value for the given range.
 277:Generated_Source\PSoC5/VDAC.c **** *
 278:Generated_Source\PSoC5/VDAC.c **** * Parameters:
 279:Generated_Source\PSoC5/VDAC.c **** *  range:  1V or 4V range.  See constants.
 280:Generated_Source\PSoC5/VDAC.c **** *
 281:Generated_Source\PSoC5/VDAC.c **** * Return:
 282:Generated_Source\PSoC5/VDAC.c **** *  void
 283:Generated_Source\PSoC5/VDAC.c **** *
 284:Generated_Source\PSoC5/VDAC.c **** * Theory: 
 285:Generated_Source\PSoC5/VDAC.c **** *
 286:Generated_Source\PSoC5/VDAC.c **** * Side Effects:
 287:Generated_Source\PSoC5/VDAC.c **** *
 288:Generated_Source\PSoC5/VDAC.c **** *******************************************************************************/
 289:Generated_Source\PSoC5/VDAC.c **** void VDAC_DacTrim(void) 
 290:Generated_Source\PSoC5/VDAC.c **** {
 148              		.loc 1 290 0
 149              		.cfi_startproc
 150              		@ args = 0, pretend = 0, frame = 0
 151              		@ frame_needed = 0, uses_anonymous_args = 0
 152              		@ link register save eliminated.
 291:Generated_Source\PSoC5/VDAC.c ****     uint8 mode;
 292:Generated_Source\PSoC5/VDAC.c **** 
 293:Generated_Source\PSoC5/VDAC.c ****     mode = (uint8)((VDAC_CR0 & VDAC_RANGE_MASK) >> 2) + VDAC_TRIM_M7_1V_RNG_OFFSET;
 153              		.loc 1 293 0
 154 0000 064B     		ldr	r3, .L14
 155 0002 1B78     		ldrb	r3, [r3]	@ zero_extendqisi2
 156 0004 C3F38103 		ubfx	r3, r3, #2, #2
 157              	.LVL3:
 294:Generated_Source\PSoC5/VDAC.c ****     VDAC_TR = CY_GET_XTND_REG8((uint8 *)(VDAC_DAC_TRIM_BASE + mode));
 158              		.loc 1 294 0
 159 0008 03F19243 		add	r3, r3, #1224736768
 160              	.LVL4:
 161 000c 0633     		adds	r3, r3, #6
 162              	.LVL5:
ARM GAS  C:\Users\juano\AppData\Local\Temp\cckNbHpd.s 			page 9


 163 000e 93F82031 		ldrb	r3, [r3, #288]	@ zero_extendqisi2
 164              	.LVL6:
 165 0012 DBB2     		uxtb	r3, r3
 166 0014 024A     		ldr	r2, .L14+4
 167 0016 1370     		strb	r3, [r2]
 168 0018 7047     		bx	lr
 169              	.L15:
 170 001a 00BF     		.align	2
 171              	.L14:
 172 001c 20580040 		.word	1073764384
 173 0020 08460040 		.word	1073759752
 174              		.cfi_endproc
 175              	.LFE7:
 176              		.size	VDAC_DacTrim, .-VDAC_DacTrim
 177              		.section	.text.VDAC_SetRange,"ax",%progbits
 178              		.align	2
 179              		.global	VDAC_SetRange
 180              		.thumb
 181              		.thumb_func
 182              		.type	VDAC_SetRange, %function
 183              	VDAC_SetRange:
 184              	.LFB5:
 229:Generated_Source\PSoC5/VDAC.c ****     VDAC_CR0 &= (uint8)(~VDAC_RANGE_MASK);      /* Clear existing mode */
 185              		.loc 1 229 0
 186              		.cfi_startproc
 187              		@ args = 0, pretend = 0, frame = 0
 188              		@ frame_needed = 0, uses_anonymous_args = 0
 189              	.LVL7:
 190 0000 08B5     		push	{r3, lr}
 191              		.cfi_def_cfa_offset 8
 192              		.cfi_offset 3, -8
 193              		.cfi_offset 14, -4
 230:Generated_Source\PSoC5/VDAC.c ****     VDAC_CR0 |= (range & VDAC_RANGE_MASK);      /*  Set Range  */
 194              		.loc 1 230 0
 195 0002 064B     		ldr	r3, .L18
 196 0004 1A78     		ldrb	r2, [r3]	@ zero_extendqisi2
 197 0006 02F0F302 		and	r2, r2, #243
 198 000a 1A70     		strb	r2, [r3]
 231:Generated_Source\PSoC5/VDAC.c ****     VDAC_DacTrim();
 199              		.loc 1 231 0
 200 000c 1A78     		ldrb	r2, [r3]	@ zero_extendqisi2
 201 000e 00F00C00 		and	r0, r0, #12
 202              	.LVL8:
 203 0012 1043     		orrs	r0, r0, r2
 204 0014 1870     		strb	r0, [r3]
 232:Generated_Source\PSoC5/VDAC.c **** }
 205              		.loc 1 232 0
 206 0016 FFF7FEFF 		bl	VDAC_DacTrim
 207              	.LVL9:
 208 001a 08BD     		pop	{r3, pc}
 209              	.L19:
 210              		.align	2
 211              	.L18:
 212 001c 20580040 		.word	1073764384
 213              		.cfi_endproc
 214              	.LFE5:
 215              		.size	VDAC_SetRange, .-VDAC_SetRange
ARM GAS  C:\Users\juano\AppData\Local\Temp\cckNbHpd.s 			page 10


 216              		.section	.text.VDAC_Init,"ax",%progbits
 217              		.align	2
 218              		.global	VDAC_Init
 219              		.thumb
 220              		.thumb_func
 221              		.type	VDAC_Init, %function
 222              	VDAC_Init:
 223              	.LFB0:
  56:Generated_Source\PSoC5/VDAC.c ****     VDAC_CR0 = (VDAC_MODE_V );
 224              		.loc 1 56 0
 225              		.cfi_startproc
 226              		@ args = 0, pretend = 0, frame = 0
 227              		@ frame_needed = 0, uses_anonymous_args = 0
 228 0000 08B5     		push	{r3, lr}
 229              		.cfi_def_cfa_offset 8
 230              		.cfi_offset 3, -8
 231              		.cfi_offset 14, -4
  57:Generated_Source\PSoC5/VDAC.c **** 
 232              		.loc 1 57 0
 233 0002 0023     		movs	r3, #0
 234 0004 054A     		ldr	r2, .L22
 235 0006 1370     		strb	r3, [r2]
  63:Generated_Source\PSoC5/VDAC.c ****     #endif /* (VDAC_DEFAULT_DATA_SRC != 0 ) */
 236              		.loc 1 63 0
 237 0008 0132     		adds	r2, r2, #1
 238 000a 1370     		strb	r3, [r2]
  72:Generated_Source\PSoC5/VDAC.c **** 
 239              		.loc 1 72 0
 240 000c 0420     		movs	r0, #4
 241 000e FFF7FEFF 		bl	VDAC_SetRange
 242              	.LVL10:
  75:Generated_Source\PSoC5/VDAC.c **** }
 243              		.loc 1 75 0
 244 0012 0220     		movs	r0, #2
 245 0014 FFF7FEFF 		bl	VDAC_SetSpeed
 246              	.LVL11:
 247 0018 08BD     		pop	{r3, pc}
 248              	.L23:
 249 001a 00BF     		.align	2
 250              	.L22:
 251 001c 20580040 		.word	1073764384
 252              		.cfi_endproc
 253              	.LFE0:
 254              		.size	VDAC_Init, .-VDAC_Init
 255              		.section	.text.VDAC_Start,"ax",%progbits
 256              		.align	2
 257              		.global	VDAC_Start
 258              		.thumb
 259              		.thumb_func
 260              		.type	VDAC_Start, %function
 261              	VDAC_Start:
 262              	.LFB2:
 134:Generated_Source\PSoC5/VDAC.c ****     /* Hardware initiazation only needs to occure the first time */
 263              		.loc 1 134 0
 264              		.cfi_startproc
 265              		@ args = 0, pretend = 0, frame = 0
 266              		@ frame_needed = 0, uses_anonymous_args = 0
ARM GAS  C:\Users\juano\AppData\Local\Temp\cckNbHpd.s 			page 11


 267 0000 08B5     		push	{r3, lr}
 268              		.cfi_def_cfa_offset 8
 269              		.cfi_offset 3, -8
 270              		.cfi_offset 14, -4
 136:Generated_Source\PSoC5/VDAC.c ****     { 
 271              		.loc 1 136 0
 272 0002 074B     		ldr	r3, .L27
 273 0004 1B78     		ldrb	r3, [r3]	@ zero_extendqisi2
 274 0006 23B9     		cbnz	r3, .L25
 138:Generated_Source\PSoC5/VDAC.c ****         VDAC_initVar = 1u;
 275              		.loc 1 138 0
 276 0008 FFF7FEFF 		bl	VDAC_Init
 277              	.LVL12:
 139:Generated_Source\PSoC5/VDAC.c ****     }
 278              		.loc 1 139 0
 279 000c 0122     		movs	r2, #1
 280 000e 044B     		ldr	r3, .L27
 281 0010 1A70     		strb	r2, [r3]
 282              	.L25:
 143:Generated_Source\PSoC5/VDAC.c **** 
 283              		.loc 1 143 0
 284 0012 FFF7FEFF 		bl	VDAC_Enable
 285              	.LVL13:
 146:Generated_Source\PSoC5/VDAC.c **** }
 286              		.loc 1 146 0
 287 0016 FF20     		movs	r0, #255
 288 0018 FFF7FEFF 		bl	VDAC_SetValue
 289              	.LVL14:
 290 001c 08BD     		pop	{r3, pc}
 291              	.L28:
 292 001e 00BF     		.align	2
 293              	.L27:
 294 0020 00000000 		.word	.LANCHOR0
 295              		.cfi_endproc
 296              	.LFE2:
 297              		.size	VDAC_Start, .-VDAC_Start
 298              		.global	VDAC_initVar
 299              		.bss
 300              		.set	.LANCHOR0,. + 0
 301              		.type	VDAC_initVar, %object
 302              		.size	VDAC_initVar, 1
 303              	VDAC_initVar:
 304 0000 00       		.space	1
 305              		.text
 306              	.Letext0:
 307              		.file 2 "Generated_Source\\PSoC5\\cytypes.h"
 308              		.section	.debug_info,"",%progbits
 309              	.Ldebug_info0:
 310 0000 DA010000 		.4byte	0x1da
 311 0004 0400     		.2byte	0x4
 312 0006 00000000 		.4byte	.Ldebug_abbrev0
 313 000a 04       		.byte	0x4
 314 000b 01       		.uleb128 0x1
 315 000c 3F000000 		.4byte	.LASF25
 316 0010 0C       		.byte	0xc
 317 0011 4A020000 		.4byte	.LASF26
 318 0015 83010000 		.4byte	.LASF27
ARM GAS  C:\Users\juano\AppData\Local\Temp\cckNbHpd.s 			page 12


 319 0019 00000000 		.4byte	.Ldebug_ranges0+0
 320 001d 00000000 		.4byte	0
 321 0021 00000000 		.4byte	.Ldebug_line0
 322 0025 02       		.uleb128 0x2
 323 0026 01       		.byte	0x1
 324 0027 06       		.byte	0x6
 325 0028 3E020000 		.4byte	.LASF0
 326 002c 02       		.uleb128 0x2
 327 002d 01       		.byte	0x1
 328 002e 08       		.byte	0x8
 329 002f 31000000 		.4byte	.LASF1
 330 0033 02       		.uleb128 0x2
 331 0034 02       		.byte	0x2
 332 0035 05       		.byte	0x5
 333 0036 18020000 		.4byte	.LASF2
 334 003a 02       		.uleb128 0x2
 335 003b 02       		.byte	0x2
 336 003c 07       		.byte	0x7
 337 003d F2000000 		.4byte	.LASF3
 338 0041 02       		.uleb128 0x2
 339 0042 04       		.byte	0x4
 340 0043 05       		.byte	0x5
 341 0044 35020000 		.4byte	.LASF4
 342 0048 02       		.uleb128 0x2
 343 0049 04       		.byte	0x4
 344 004a 07       		.byte	0x7
 345 004b E0000000 		.4byte	.LASF5
 346 004f 02       		.uleb128 0x2
 347 0050 08       		.byte	0x8
 348 0051 05       		.byte	0x5
 349 0052 62010000 		.4byte	.LASF6
 350 0056 02       		.uleb128 0x2
 351 0057 08       		.byte	0x8
 352 0058 07       		.byte	0x7
 353 0059 36010000 		.4byte	.LASF7
 354 005d 03       		.uleb128 0x3
 355 005e 04       		.byte	0x4
 356 005f 05       		.byte	0x5
 357 0060 696E7400 		.ascii	"int\000"
 358 0064 02       		.uleb128 0x2
 359 0065 04       		.byte	0x4
 360 0066 07       		.byte	0x7
 361 0067 29010000 		.4byte	.LASF8
 362 006b 04       		.uleb128 0x4
 363 006c 2F020000 		.4byte	.LASF12
 364 0070 02       		.byte	0x2
 365 0071 E801     		.2byte	0x1e8
 366 0073 2C000000 		.4byte	0x2c
 367 0077 02       		.uleb128 0x2
 368 0078 04       		.byte	0x4
 369 0079 04       		.byte	0x4
 370 007a 2B000000 		.4byte	.LASF9
 371 007e 02       		.uleb128 0x2
 372 007f 08       		.byte	0x8
 373 0080 04       		.byte	0x4
 374 0081 22010000 		.4byte	.LASF10
 375 0085 02       		.uleb128 0x2
ARM GAS  C:\Users\juano\AppData\Local\Temp\cckNbHpd.s 			page 13


 376 0086 01       		.byte	0x1
 377 0087 08       		.byte	0x8
 378 0088 70010000 		.4byte	.LASF11
 379 008c 04       		.uleb128 0x4
 380 008d CD000000 		.4byte	.LASF13
 381 0091 02       		.byte	0x2
 382 0092 9202     		.2byte	0x292
 383 0094 98000000 		.4byte	0x98
 384 0098 05       		.uleb128 0x5
 385 0099 6B000000 		.4byte	0x6b
 386 009d 06       		.uleb128 0x6
 387 009e 14000000 		.4byte	.LASF14
 388 00a2 01       		.byte	0x1
 389 00a3 60       		.byte	0x60
 390 00a4 00000000 		.4byte	.LFB1
 391 00a8 1C000000 		.4byte	.LFE1-.LFB1
 392 00ac 01       		.uleb128 0x1
 393 00ad 9C       		.byte	0x9c
 394 00ae 06       		.uleb128 0x6
 395 00af 52010000 		.4byte	.LASF15
 396 00b3 01       		.byte	0x1
 397 00b4 A8       		.byte	0xa8
 398 00b5 00000000 		.4byte	.LFB3
 399 00b9 1C000000 		.4byte	.LFE3-.LFB3
 400 00bd 01       		.uleb128 0x1
 401 00be 9C       		.byte	0x9c
 402 00bf 07       		.uleb128 0x7
 403 00c0 D2000000 		.4byte	.LASF16
 404 00c4 01       		.byte	0x1
 405 00c5 CA       		.byte	0xca
 406 00c6 00000000 		.4byte	.LFB4
 407 00ca 1C000000 		.4byte	.LFE4-.LFB4
 408 00ce 01       		.uleb128 0x1
 409 00cf 9C       		.byte	0x9c
 410 00d0 E4000000 		.4byte	0xe4
 411 00d4 08       		.uleb128 0x8
 412 00d5 5C010000 		.4byte	.LASF18
 413 00d9 01       		.byte	0x1
 414 00da CA       		.byte	0xca
 415 00db 6B000000 		.4byte	0x6b
 416 00df 00000000 		.4byte	.LLST0
 417 00e3 00       		.byte	0
 418 00e4 07       		.uleb128 0x7
 419 00e5 75010000 		.4byte	.LASF17
 420 00e9 01       		.byte	0x1
 421 00ea FE       		.byte	0xfe
 422 00eb 00000000 		.4byte	.LFB6
 423 00ef 0C000000 		.4byte	.LFE6-.LFB6
 424 00f3 01       		.uleb128 0x1
 425 00f4 9C       		.byte	0x9c
 426 00f5 07010000 		.4byte	0x107
 427 00f9 09       		.uleb128 0x9
 428 00fa 0E000000 		.4byte	.LASF19
 429 00fe 01       		.byte	0x1
 430 00ff FE       		.byte	0xfe
 431 0100 6B000000 		.4byte	0x6b
 432 0104 01       		.uleb128 0x1
ARM GAS  C:\Users\juano\AppData\Local\Temp\cckNbHpd.s 			page 14


 433 0105 50       		.byte	0x50
 434 0106 00       		.byte	0
 435 0107 0A       		.uleb128 0xa
 436 0108 22020000 		.4byte	.LASF20
 437 010c 01       		.byte	0x1
 438 010d 2101     		.2byte	0x121
 439 010f 00000000 		.4byte	.LFB7
 440 0113 24000000 		.4byte	.LFE7-.LFB7
 441 0117 01       		.uleb128 0x1
 442 0118 9C       		.byte	0x9c
 443 0119 2E010000 		.4byte	0x12e
 444 011d 0B       		.uleb128 0xb
 445 011e 4D010000 		.4byte	.LASF28
 446 0122 01       		.byte	0x1
 447 0123 2301     		.2byte	0x123
 448 0125 6B000000 		.4byte	0x6b
 449 0129 21000000 		.4byte	.LLST1
 450 012d 00       		.byte	0
 451 012e 07       		.uleb128 0x7
 452 012f 00000000 		.4byte	.LASF21
 453 0133 01       		.byte	0x1
 454 0134 E4       		.byte	0xe4
 455 0135 00000000 		.4byte	.LFB5
 456 0139 20000000 		.4byte	.LFE5-.LFB5
 457 013d 01       		.uleb128 0x1
 458 013e 9C       		.byte	0x9c
 459 013f 5C010000 		.4byte	0x15c
 460 0143 08       		.uleb128 0x8
 461 0144 1C010000 		.4byte	.LASF22
 462 0148 01       		.byte	0x1
 463 0149 E4       		.byte	0xe4
 464 014a 6B000000 		.4byte	0x6b
 465 014e 58000000 		.4byte	.LLST2
 466 0152 0C       		.uleb128 0xc
 467 0153 1A000000 		.4byte	.LVL9
 468 0157 07010000 		.4byte	0x107
 469 015b 00       		.byte	0
 470 015c 07       		.uleb128 0x7
 471 015d 05010000 		.4byte	.LASF23
 472 0161 01       		.byte	0x1
 473 0162 37       		.byte	0x37
 474 0163 00000000 		.4byte	.LFB0
 475 0167 20000000 		.4byte	.LFE0-.LFB0
 476 016b 01       		.uleb128 0x1
 477 016c 9C       		.byte	0x9c
 478 016d 94010000 		.4byte	0x194
 479 0171 0D       		.uleb128 0xd
 480 0172 12000000 		.4byte	.LVL10
 481 0176 2E010000 		.4byte	0x12e
 482 017a 84010000 		.4byte	0x184
 483 017e 0E       		.uleb128 0xe
 484 017f 01       		.uleb128 0x1
 485 0180 50       		.byte	0x50
 486 0181 01       		.uleb128 0x1
 487 0182 34       		.byte	0x34
 488 0183 00       		.byte	0
 489 0184 0F       		.uleb128 0xf
ARM GAS  C:\Users\juano\AppData\Local\Temp\cckNbHpd.s 			page 15


 490 0185 18000000 		.4byte	.LVL11
 491 0189 BF000000 		.4byte	0xbf
 492 018d 0E       		.uleb128 0xe
 493 018e 01       		.uleb128 0x1
 494 018f 50       		.byte	0x50
 495 0190 01       		.uleb128 0x1
 496 0191 32       		.byte	0x32
 497 0192 00       		.byte	0
 498 0193 00       		.byte	0
 499 0194 07       		.uleb128 0x7
 500 0195 20000000 		.4byte	.LASF24
 501 0199 01       		.byte	0x1
 502 019a 85       		.byte	0x85
 503 019b 00000000 		.4byte	.LFB2
 504 019f 24000000 		.4byte	.LFE2-.LFB2
 505 01a3 01       		.uleb128 0x1
 506 01a4 9C       		.byte	0x9c
 507 01a5 CC010000 		.4byte	0x1cc
 508 01a9 0C       		.uleb128 0xc
 509 01aa 0C000000 		.4byte	.LVL12
 510 01ae 5C010000 		.4byte	0x15c
 511 01b2 0C       		.uleb128 0xc
 512 01b3 16000000 		.4byte	.LVL13
 513 01b7 9D000000 		.4byte	0x9d
 514 01bb 0F       		.uleb128 0xf
 515 01bc 1C000000 		.4byte	.LVL14
 516 01c0 E4000000 		.4byte	0xe4
 517 01c4 0E       		.uleb128 0xe
 518 01c5 01       		.uleb128 0x1
 519 01c6 50       		.byte	0x50
 520 01c7 02       		.uleb128 0x2
 521 01c8 09       		.byte	0x9
 522 01c9 FF       		.byte	0xff
 523 01ca 00       		.byte	0
 524 01cb 00       		.byte	0
 525 01cc 10       		.uleb128 0x10
 526 01cd 0F010000 		.4byte	.LASF29
 527 01d1 01       		.byte	0x1
 528 01d2 1B       		.byte	0x1b
 529 01d3 6B000000 		.4byte	0x6b
 530 01d7 05       		.uleb128 0x5
 531 01d8 03       		.byte	0x3
 532 01d9 00000000 		.4byte	VDAC_initVar
 533 01dd 00       		.byte	0
 534              		.section	.debug_abbrev,"",%progbits
 535              	.Ldebug_abbrev0:
 536 0000 01       		.uleb128 0x1
 537 0001 11       		.uleb128 0x11
 538 0002 01       		.byte	0x1
 539 0003 25       		.uleb128 0x25
 540 0004 0E       		.uleb128 0xe
 541 0005 13       		.uleb128 0x13
 542 0006 0B       		.uleb128 0xb
 543 0007 03       		.uleb128 0x3
 544 0008 0E       		.uleb128 0xe
 545 0009 1B       		.uleb128 0x1b
 546 000a 0E       		.uleb128 0xe
ARM GAS  C:\Users\juano\AppData\Local\Temp\cckNbHpd.s 			page 16


 547 000b 55       		.uleb128 0x55
 548 000c 17       		.uleb128 0x17
 549 000d 11       		.uleb128 0x11
 550 000e 01       		.uleb128 0x1
 551 000f 10       		.uleb128 0x10
 552 0010 17       		.uleb128 0x17
 553 0011 00       		.byte	0
 554 0012 00       		.byte	0
 555 0013 02       		.uleb128 0x2
 556 0014 24       		.uleb128 0x24
 557 0015 00       		.byte	0
 558 0016 0B       		.uleb128 0xb
 559 0017 0B       		.uleb128 0xb
 560 0018 3E       		.uleb128 0x3e
 561 0019 0B       		.uleb128 0xb
 562 001a 03       		.uleb128 0x3
 563 001b 0E       		.uleb128 0xe
 564 001c 00       		.byte	0
 565 001d 00       		.byte	0
 566 001e 03       		.uleb128 0x3
 567 001f 24       		.uleb128 0x24
 568 0020 00       		.byte	0
 569 0021 0B       		.uleb128 0xb
 570 0022 0B       		.uleb128 0xb
 571 0023 3E       		.uleb128 0x3e
 572 0024 0B       		.uleb128 0xb
 573 0025 03       		.uleb128 0x3
 574 0026 08       		.uleb128 0x8
 575 0027 00       		.byte	0
 576 0028 00       		.byte	0
 577 0029 04       		.uleb128 0x4
 578 002a 16       		.uleb128 0x16
 579 002b 00       		.byte	0
 580 002c 03       		.uleb128 0x3
 581 002d 0E       		.uleb128 0xe
 582 002e 3A       		.uleb128 0x3a
 583 002f 0B       		.uleb128 0xb
 584 0030 3B       		.uleb128 0x3b
 585 0031 05       		.uleb128 0x5
 586 0032 49       		.uleb128 0x49
 587 0033 13       		.uleb128 0x13
 588 0034 00       		.byte	0
 589 0035 00       		.byte	0
 590 0036 05       		.uleb128 0x5
 591 0037 35       		.uleb128 0x35
 592 0038 00       		.byte	0
 593 0039 49       		.uleb128 0x49
 594 003a 13       		.uleb128 0x13
 595 003b 00       		.byte	0
 596 003c 00       		.byte	0
 597 003d 06       		.uleb128 0x6
 598 003e 2E       		.uleb128 0x2e
 599 003f 00       		.byte	0
 600 0040 3F       		.uleb128 0x3f
 601 0041 19       		.uleb128 0x19
 602 0042 03       		.uleb128 0x3
 603 0043 0E       		.uleb128 0xe
ARM GAS  C:\Users\juano\AppData\Local\Temp\cckNbHpd.s 			page 17


 604 0044 3A       		.uleb128 0x3a
 605 0045 0B       		.uleb128 0xb
 606 0046 3B       		.uleb128 0x3b
 607 0047 0B       		.uleb128 0xb
 608 0048 27       		.uleb128 0x27
 609 0049 19       		.uleb128 0x19
 610 004a 11       		.uleb128 0x11
 611 004b 01       		.uleb128 0x1
 612 004c 12       		.uleb128 0x12
 613 004d 06       		.uleb128 0x6
 614 004e 40       		.uleb128 0x40
 615 004f 18       		.uleb128 0x18
 616 0050 9742     		.uleb128 0x2117
 617 0052 19       		.uleb128 0x19
 618 0053 00       		.byte	0
 619 0054 00       		.byte	0
 620 0055 07       		.uleb128 0x7
 621 0056 2E       		.uleb128 0x2e
 622 0057 01       		.byte	0x1
 623 0058 3F       		.uleb128 0x3f
 624 0059 19       		.uleb128 0x19
 625 005a 03       		.uleb128 0x3
 626 005b 0E       		.uleb128 0xe
 627 005c 3A       		.uleb128 0x3a
 628 005d 0B       		.uleb128 0xb
 629 005e 3B       		.uleb128 0x3b
 630 005f 0B       		.uleb128 0xb
 631 0060 27       		.uleb128 0x27
 632 0061 19       		.uleb128 0x19
 633 0062 11       		.uleb128 0x11
 634 0063 01       		.uleb128 0x1
 635 0064 12       		.uleb128 0x12
 636 0065 06       		.uleb128 0x6
 637 0066 40       		.uleb128 0x40
 638 0067 18       		.uleb128 0x18
 639 0068 9742     		.uleb128 0x2117
 640 006a 19       		.uleb128 0x19
 641 006b 01       		.uleb128 0x1
 642 006c 13       		.uleb128 0x13
 643 006d 00       		.byte	0
 644 006e 00       		.byte	0
 645 006f 08       		.uleb128 0x8
 646 0070 05       		.uleb128 0x5
 647 0071 00       		.byte	0
 648 0072 03       		.uleb128 0x3
 649 0073 0E       		.uleb128 0xe
 650 0074 3A       		.uleb128 0x3a
 651 0075 0B       		.uleb128 0xb
 652 0076 3B       		.uleb128 0x3b
 653 0077 0B       		.uleb128 0xb
 654 0078 49       		.uleb128 0x49
 655 0079 13       		.uleb128 0x13
 656 007a 02       		.uleb128 0x2
 657 007b 17       		.uleb128 0x17
 658 007c 00       		.byte	0
 659 007d 00       		.byte	0
 660 007e 09       		.uleb128 0x9
ARM GAS  C:\Users\juano\AppData\Local\Temp\cckNbHpd.s 			page 18


 661 007f 05       		.uleb128 0x5
 662 0080 00       		.byte	0
 663 0081 03       		.uleb128 0x3
 664 0082 0E       		.uleb128 0xe
 665 0083 3A       		.uleb128 0x3a
 666 0084 0B       		.uleb128 0xb
 667 0085 3B       		.uleb128 0x3b
 668 0086 0B       		.uleb128 0xb
 669 0087 49       		.uleb128 0x49
 670 0088 13       		.uleb128 0x13
 671 0089 02       		.uleb128 0x2
 672 008a 18       		.uleb128 0x18
 673 008b 00       		.byte	0
 674 008c 00       		.byte	0
 675 008d 0A       		.uleb128 0xa
 676 008e 2E       		.uleb128 0x2e
 677 008f 01       		.byte	0x1
 678 0090 3F       		.uleb128 0x3f
 679 0091 19       		.uleb128 0x19
 680 0092 03       		.uleb128 0x3
 681 0093 0E       		.uleb128 0xe
 682 0094 3A       		.uleb128 0x3a
 683 0095 0B       		.uleb128 0xb
 684 0096 3B       		.uleb128 0x3b
 685 0097 05       		.uleb128 0x5
 686 0098 27       		.uleb128 0x27
 687 0099 19       		.uleb128 0x19
 688 009a 11       		.uleb128 0x11
 689 009b 01       		.uleb128 0x1
 690 009c 12       		.uleb128 0x12
 691 009d 06       		.uleb128 0x6
 692 009e 40       		.uleb128 0x40
 693 009f 18       		.uleb128 0x18
 694 00a0 9742     		.uleb128 0x2117
 695 00a2 19       		.uleb128 0x19
 696 00a3 01       		.uleb128 0x1
 697 00a4 13       		.uleb128 0x13
 698 00a5 00       		.byte	0
 699 00a6 00       		.byte	0
 700 00a7 0B       		.uleb128 0xb
 701 00a8 34       		.uleb128 0x34
 702 00a9 00       		.byte	0
 703 00aa 03       		.uleb128 0x3
 704 00ab 0E       		.uleb128 0xe
 705 00ac 3A       		.uleb128 0x3a
 706 00ad 0B       		.uleb128 0xb
 707 00ae 3B       		.uleb128 0x3b
 708 00af 05       		.uleb128 0x5
 709 00b0 49       		.uleb128 0x49
 710 00b1 13       		.uleb128 0x13
 711 00b2 02       		.uleb128 0x2
 712 00b3 17       		.uleb128 0x17
 713 00b4 00       		.byte	0
 714 00b5 00       		.byte	0
 715 00b6 0C       		.uleb128 0xc
 716 00b7 898201   		.uleb128 0x4109
 717 00ba 00       		.byte	0
ARM GAS  C:\Users\juano\AppData\Local\Temp\cckNbHpd.s 			page 19


 718 00bb 11       		.uleb128 0x11
 719 00bc 01       		.uleb128 0x1
 720 00bd 31       		.uleb128 0x31
 721 00be 13       		.uleb128 0x13
 722 00bf 00       		.byte	0
 723 00c0 00       		.byte	0
 724 00c1 0D       		.uleb128 0xd
 725 00c2 898201   		.uleb128 0x4109
 726 00c5 01       		.byte	0x1
 727 00c6 11       		.uleb128 0x11
 728 00c7 01       		.uleb128 0x1
 729 00c8 31       		.uleb128 0x31
 730 00c9 13       		.uleb128 0x13
 731 00ca 01       		.uleb128 0x1
 732 00cb 13       		.uleb128 0x13
 733 00cc 00       		.byte	0
 734 00cd 00       		.byte	0
 735 00ce 0E       		.uleb128 0xe
 736 00cf 8A8201   		.uleb128 0x410a
 737 00d2 00       		.byte	0
 738 00d3 02       		.uleb128 0x2
 739 00d4 18       		.uleb128 0x18
 740 00d5 9142     		.uleb128 0x2111
 741 00d7 18       		.uleb128 0x18
 742 00d8 00       		.byte	0
 743 00d9 00       		.byte	0
 744 00da 0F       		.uleb128 0xf
 745 00db 898201   		.uleb128 0x4109
 746 00de 01       		.byte	0x1
 747 00df 11       		.uleb128 0x11
 748 00e0 01       		.uleb128 0x1
 749 00e1 31       		.uleb128 0x31
 750 00e2 13       		.uleb128 0x13
 751 00e3 00       		.byte	0
 752 00e4 00       		.byte	0
 753 00e5 10       		.uleb128 0x10
 754 00e6 34       		.uleb128 0x34
 755 00e7 00       		.byte	0
 756 00e8 03       		.uleb128 0x3
 757 00e9 0E       		.uleb128 0xe
 758 00ea 3A       		.uleb128 0x3a
 759 00eb 0B       		.uleb128 0xb
 760 00ec 3B       		.uleb128 0x3b
 761 00ed 0B       		.uleb128 0xb
 762 00ee 49       		.uleb128 0x49
 763 00ef 13       		.uleb128 0x13
 764 00f0 3F       		.uleb128 0x3f
 765 00f1 19       		.uleb128 0x19
 766 00f2 02       		.uleb128 0x2
 767 00f3 18       		.uleb128 0x18
 768 00f4 00       		.byte	0
 769 00f5 00       		.byte	0
 770 00f6 00       		.byte	0
 771              		.section	.debug_loc,"",%progbits
 772              	.Ldebug_loc0:
 773              	.LLST0:
 774 0000 00000000 		.4byte	.LVL0
ARM GAS  C:\Users\juano\AppData\Local\Temp\cckNbHpd.s 			page 20


 775 0004 10000000 		.4byte	.LVL1
 776 0008 0100     		.2byte	0x1
 777 000a 50       		.byte	0x50
 778 000b 10000000 		.4byte	.LVL1
 779 000f 1C000000 		.4byte	.LFE4
 780 0013 0400     		.2byte	0x4
 781 0015 F3       		.byte	0xf3
 782 0016 01       		.uleb128 0x1
 783 0017 50       		.byte	0x50
 784 0018 9F       		.byte	0x9f
 785 0019 00000000 		.4byte	0
 786 001d 00000000 		.4byte	0
 787              	.LLST1:
 788 0021 08000000 		.4byte	.LVL3
 789 0025 0C000000 		.4byte	.LVL4
 790 0029 0300     		.2byte	0x3
 791 002b 73       		.byte	0x73
 792 002c 06       		.sleb128 6
 793 002d 9F       		.byte	0x9f
 794 002e 0C000000 		.4byte	.LVL4
 795 0032 0E000000 		.4byte	.LVL5
 796 0036 0700     		.2byte	0x7
 797 0038 73       		.byte	0x73
 798 0039 868080B8 		.sleb128 -1224736762
 798      7B
 799 003e 9F       		.byte	0x9f
 800 003f 0E000000 		.4byte	.LVL5
 801 0043 12000000 		.4byte	.LVL6
 802 0047 0700     		.2byte	0x7
 803 0049 73       		.byte	0x73
 804 004a 808080B8 		.sleb128 -1224736768
 804      7B
 805 004f 9F       		.byte	0x9f
 806 0050 00000000 		.4byte	0
 807 0054 00000000 		.4byte	0
 808              	.LLST2:
 809 0058 00000000 		.4byte	.LVL7
 810 005c 12000000 		.4byte	.LVL8
 811 0060 0100     		.2byte	0x1
 812 0062 50       		.byte	0x50
 813 0063 12000000 		.4byte	.LVL8
 814 0067 20000000 		.4byte	.LFE5
 815 006b 0400     		.2byte	0x4
 816 006d F3       		.byte	0xf3
 817 006e 01       		.uleb128 0x1
 818 006f 50       		.byte	0x50
 819 0070 9F       		.byte	0x9f
 820 0071 00000000 		.4byte	0
 821 0075 00000000 		.4byte	0
 822              		.section	.debug_aranges,"",%progbits
 823 0000 54000000 		.4byte	0x54
 824 0004 0200     		.2byte	0x2
 825 0006 00000000 		.4byte	.Ldebug_info0
 826 000a 04       		.byte	0x4
 827 000b 00       		.byte	0
 828 000c 0000     		.2byte	0
 829 000e 0000     		.2byte	0
ARM GAS  C:\Users\juano\AppData\Local\Temp\cckNbHpd.s 			page 21


 830 0010 00000000 		.4byte	.LFB1
 831 0014 1C000000 		.4byte	.LFE1-.LFB1
 832 0018 00000000 		.4byte	.LFB3
 833 001c 1C000000 		.4byte	.LFE3-.LFB3
 834 0020 00000000 		.4byte	.LFB4
 835 0024 1C000000 		.4byte	.LFE4-.LFB4
 836 0028 00000000 		.4byte	.LFB6
 837 002c 0C000000 		.4byte	.LFE6-.LFB6
 838 0030 00000000 		.4byte	.LFB7
 839 0034 24000000 		.4byte	.LFE7-.LFB7
 840 0038 00000000 		.4byte	.LFB5
 841 003c 20000000 		.4byte	.LFE5-.LFB5
 842 0040 00000000 		.4byte	.LFB0
 843 0044 20000000 		.4byte	.LFE0-.LFB0
 844 0048 00000000 		.4byte	.LFB2
 845 004c 24000000 		.4byte	.LFE2-.LFB2
 846 0050 00000000 		.4byte	0
 847 0054 00000000 		.4byte	0
 848              		.section	.debug_ranges,"",%progbits
 849              	.Ldebug_ranges0:
 850 0000 00000000 		.4byte	.LFB1
 851 0004 1C000000 		.4byte	.LFE1
 852 0008 00000000 		.4byte	.LFB3
 853 000c 1C000000 		.4byte	.LFE3
 854 0010 00000000 		.4byte	.LFB4
 855 0014 1C000000 		.4byte	.LFE4
 856 0018 00000000 		.4byte	.LFB6
 857 001c 0C000000 		.4byte	.LFE6
 858 0020 00000000 		.4byte	.LFB7
 859 0024 24000000 		.4byte	.LFE7
 860 0028 00000000 		.4byte	.LFB5
 861 002c 20000000 		.4byte	.LFE5
 862 0030 00000000 		.4byte	.LFB0
 863 0034 20000000 		.4byte	.LFE0
 864 0038 00000000 		.4byte	.LFB2
 865 003c 24000000 		.4byte	.LFE2
 866 0040 00000000 		.4byte	0
 867 0044 00000000 		.4byte	0
 868              		.section	.debug_line,"",%progbits
 869              	.Ldebug_line0:
 870 0000 DD000000 		.section	.debug_str,"MS",%progbits,1
 870      02004100 
 870      00000201 
 870      FB0E0D00 
 870      01010101 
 871              	.LASF21:
 872 0000 56444143 		.ascii	"VDAC_SetRange\000"
 872      5F536574 
 872      52616E67 
 872      6500
 873              	.LASF19:
 874 000e 76616C75 		.ascii	"value\000"
 874      6500
 875              	.LASF14:
 876 0014 56444143 		.ascii	"VDAC_Enable\000"
 876      5F456E61 
 876      626C6500 
ARM GAS  C:\Users\juano\AppData\Local\Temp\cckNbHpd.s 			page 22


 877              	.LASF24:
 878 0020 56444143 		.ascii	"VDAC_Start\000"
 878      5F537461 
 878      727400
 879              	.LASF9:
 880 002b 666C6F61 		.ascii	"float\000"
 880      7400
 881              	.LASF1:
 882 0031 756E7369 		.ascii	"unsigned char\000"
 882      676E6564 
 882      20636861 
 882      7200
 883              	.LASF25:
 884 003f 474E5520 		.ascii	"GNU C11 5.4.1 20160609 (release) [ARM/embedded-5-br"
 884      43313120 
 884      352E342E 
 884      31203230 
 884      31363036 
 885 0072 616E6368 		.ascii	"anch revision 237715] -mcpu=cortex-m3 -mthumb -g -O"
 885      20726576 
 885      6973696F 
 885      6E203233 
 885      37373135 
 886 00a5 67202D66 		.ascii	"g -ffunction-sections -ffat-lto-objects\000"
 886      66756E63 
 886      74696F6E 
 886      2D736563 
 886      74696F6E 
 887              	.LASF13:
 888 00cd 72656738 		.ascii	"reg8\000"
 888      00
 889              	.LASF16:
 890 00d2 56444143 		.ascii	"VDAC_SetSpeed\000"
 890      5F536574 
 890      53706565 
 890      6400
 891              	.LASF5:
 892 00e0 6C6F6E67 		.ascii	"long unsigned int\000"
 892      20756E73 
 892      69676E65 
 892      6420696E 
 892      7400
 893              	.LASF3:
 894 00f2 73686F72 		.ascii	"short unsigned int\000"
 894      7420756E 
 894      7369676E 
 894      65642069 
 894      6E7400
 895              	.LASF23:
 896 0105 56444143 		.ascii	"VDAC_Init\000"
 896      5F496E69 
 896      7400
 897              	.LASF29:
 898 010f 56444143 		.ascii	"VDAC_initVar\000"
 898      5F696E69 
 898      74566172 
 898      00
ARM GAS  C:\Users\juano\AppData\Local\Temp\cckNbHpd.s 			page 23


 899              	.LASF22:
 900 011c 72616E67 		.ascii	"range\000"
 900      6500
 901              	.LASF10:
 902 0122 646F7562 		.ascii	"double\000"
 902      6C6500
 903              	.LASF8:
 904 0129 756E7369 		.ascii	"unsigned int\000"
 904      676E6564 
 904      20696E74 
 904      00
 905              	.LASF7:
 906 0136 6C6F6E67 		.ascii	"long long unsigned int\000"
 906      206C6F6E 
 906      6720756E 
 906      7369676E 
 906      65642069 
 907              	.LASF28:
 908 014d 6D6F6465 		.ascii	"mode\000"
 908      00
 909              	.LASF15:
 910 0152 56444143 		.ascii	"VDAC_Stop\000"
 910      5F53746F 
 910      7000
 911              	.LASF18:
 912 015c 73706565 		.ascii	"speed\000"
 912      6400
 913              	.LASF6:
 914 0162 6C6F6E67 		.ascii	"long long int\000"
 914      206C6F6E 
 914      6720696E 
 914      7400
 915              	.LASF11:
 916 0170 63686172 		.ascii	"char\000"
 916      00
 917              	.LASF17:
 918 0175 56444143 		.ascii	"VDAC_SetValue\000"
 918      5F536574 
 918      56616C75 
 918      6500
 919              	.LASF27:
 920 0183 433A5C55 		.ascii	"C:\\Users\\juano\\Documents\\JuanPabloOviedoPerdomo"
 920      73657273 
 920      5C6A7561 
 920      6E6F5C44 
 920      6F63756D 
 921 01b2 5C756E69 		.ascii	"\\universidad\\posgrados\\MCIC\\segundoSemestre\\Ap"
 921      76657273 
 921      69646164 
 921      5C706F73 
 921      67726164 
 922 01e0 6C696361 		.ascii	"licacionesWeb\\ProyectoFinal\\Actuadores\\actuadore"
 922      63696F6E 
 922      65735765 
 922      625C5072 
 922      6F796563 
 923 0210 732E6379 		.ascii	"s.cydsn\000"
ARM GAS  C:\Users\juano\AppData\Local\Temp\cckNbHpd.s 			page 24


 923      64736E00 
 924              	.LASF2:
 925 0218 73686F72 		.ascii	"short int\000"
 925      7420696E 
 925      7400
 926              	.LASF20:
 927 0222 56444143 		.ascii	"VDAC_DacTrim\000"
 927      5F446163 
 927      5472696D 
 927      00
 928              	.LASF12:
 929 022f 75696E74 		.ascii	"uint8\000"
 929      3800
 930              	.LASF4:
 931 0235 6C6F6E67 		.ascii	"long int\000"
 931      20696E74 
 931      00
 932              	.LASF0:
 933 023e 7369676E 		.ascii	"signed char\000"
 933      65642063 
 933      68617200 
 934              	.LASF26:
 935 024a 47656E65 		.ascii	"Generated_Source\\PSoC5\\VDAC.c\000"
 935      72617465 
 935      645F536F 
 935      75726365 
 935      5C50536F 
 936              		.ident	"GCC: (GNU Tools for ARM Embedded Processors) 5.4.1 20160609 (release) [ARM/embedded-5-bran
