ARM GAS  C:\Users\juano\AppData\Local\Temp\cc5BErxz.s 			page 1


   1              		.syntax unified
   2              		.cpu cortex-m3
   3              		.fpu softvfp
   4              		.eabi_attribute 20, 1
   5              		.eabi_attribute 21, 1
   6              		.eabi_attribute 23, 3
   7              		.eabi_attribute 24, 1
   8              		.eabi_attribute 25, 1
   9              		.eabi_attribute 26, 1
  10              		.eabi_attribute 30, 1
  11              		.eabi_attribute 34, 1
  12              		.eabi_attribute 18, 4
  13              		.thumb
  14              		.syntax unified
  15              		.file	"main.c"
  16              		.text
  17              	.Ltext0:
  18              		.cfi_sections	.debug_frame
  19              		.section	.text.DHTread,"ax",%progbits
  20              		.align	2
  21              		.global	DHTread
  22              		.thumb
  23              		.thumb_func
  24              		.type	DHTread, %function
  25              	DHTread:
  26              	.LFB64:
  27              		.file 1 "main.c"
   1:main.c        **** /* ========================================
   2:main.c        ****  *
   3:main.c        ****  * Copyright YOUR COMPANY, THE YEAR
   4:main.c        ****  * All Rights Reserved
   5:main.c        ****  * UNPUBLISHED, LICENSED SOFTWARE.
   6:main.c        ****  *
   7:main.c        ****  * CONFIDENTIAL AND PROPRIETARY INFORMATION
   8:main.c        ****  * WHICH IS THE PROPERTY OF your company.
   9:main.c        ****  *
  10:main.c        ****  * ========================================
  11:main.c        **** */
  12:main.c        **** #include "project.h"
  13:main.c        **** #include "stdio.h"
  14:main.c        **** #include "math.h"
  15:main.c        **** 
  16:main.c        **** static int temperature=99;
  17:main.c        **** static int humidity=99;
  18:main.c        **** static uint8 IState,i;
  19:main.c        **** float rs=0;
  20:main.c        **** float ro=0;
  21:main.c        **** float ppm=0;
  22:main.c        **** int DHTread()
  23:main.c        **** {    
  28              		.loc 1 23 0
  29              		.cfi_startproc
  30              		@ args = 0, pretend = 0, frame = 8
  31              		@ frame_needed = 0, uses_anonymous_args = 0
  32 0000 F0B5     		push	{r4, r5, r6, r7, lr}
  33              		.cfi_def_cfa_offset 20
  34              		.cfi_offset 4, -20
ARM GAS  C:\Users\juano\AppData\Local\Temp\cc5BErxz.s 			page 2


  35              		.cfi_offset 5, -16
  36              		.cfi_offset 6, -12
  37              		.cfi_offset 7, -8
  38              		.cfi_offset 14, -4
  39 0002 83B0     		sub	sp, sp, #12
  40              		.cfi_def_cfa_offset 32
  41              	.LVL0:
  24:main.c        ****     uint8 bits[5];
  25:main.c        ****     uint8 cnt = 7;
  26:main.c        ****     uint8 idx = 0;
  27:main.c        ****     int   calc=0;
  28:main.c        ****     int   timeout=0;
  29:main.c        ****     for (i=0; i< 5; i++) 
  42              		.loc 1 29 0
  43 0004 0022     		movs	r2, #0
  44 0006 354B     		ldr	r3, .L20
  45 0008 1A70     		strb	r2, [r3]
  46 000a 07E0     		b	.L2
  47              	.L3:
  30:main.c        ****         bits[i] = 0;
  48              		.loc 1 30 0 discriminator 3
  49 000c 02AA     		add	r2, sp, #8
  50 000e 1A44     		add	r2, r2, r3
  51 0010 0021     		movs	r1, #0
  52 0012 02F8081C 		strb	r1, [r2, #-8]
  29:main.c        ****         bits[i] = 0;
  53              		.loc 1 29 0 discriminator 3
  54 0016 0133     		adds	r3, r3, #1
  55 0018 304A     		ldr	r2, .L20
  56 001a 1370     		strb	r3, [r2]
  57              	.L2:
  29:main.c        ****         bits[i] = 0;
  58              		.loc 1 29 0 is_stmt 0 discriminator 1
  59 001c 2F4B     		ldr	r3, .L20
  60 001e 1B78     		ldrb	r3, [r3]	@ zero_extendqisi2
  61 0020 042B     		cmp	r3, #4
  62 0022 F3D9     		bls	.L3
  31:main.c        ****     DHT_Write(0u);
  63              		.loc 1 31 0 is_stmt 1
  64 0024 0020     		movs	r0, #0
  65 0026 FFF7FEFF 		bl	DHT_Write
  66              	.LVL1:
  32:main.c        ****     CyDelay(19);
  67              		.loc 1 32 0
  68 002a 1320     		movs	r0, #19
  69 002c FFF7FEFF 		bl	CyDelay
  70              	.LVL2:
  33:main.c        ****     DHT_Write(1u);
  71              		.loc 1 33 0
  72 0030 0120     		movs	r0, #1
  73 0032 FFF7FEFF 		bl	DHT_Write
  74              	.LVL3:
  28:main.c        ****     for (i=0; i< 5; i++) 
  75              		.loc 1 28 0
  76 0036 0025     		movs	r5, #0
  34:main.c        ****     while(DHT_Read()==1)
  77              		.loc 1 34 0
ARM GAS  C:\Users\juano\AppData\Local\Temp\cc5BErxz.s 			page 3


  78 0038 03E0     		b	.L4
  79              	.LVL4:
  80              	.L6:
  35:main.c        ****     {
  36:main.c        ****         timeout++;
  81              		.loc 1 36 0
  82 003a 0135     		adds	r5, r5, #1
  83              	.LVL5:
  37:main.c        ****         if(timeout>500)
  84              		.loc 1 37 0
  85 003c B5F5FA7F 		cmp	r5, #500
  86 0040 46DC     		bgt	.L17
  87              	.LVL6:
  88              	.L4:
  34:main.c        ****     while(DHT_Read()==1)
  89              		.loc 1 34 0
  90 0042 FFF7FEFF 		bl	DHT_Read
  91              	.LVL7:
  92 0046 0128     		cmp	r0, #1
  93 0048 F7D0     		beq	.L6
  94 004a 03E0     		b	.L7
  95              	.L8:
  38:main.c        ****             return 99;  //Write overflow return function
  39:main.c        ****     }
  40:main.c        ****     while(DHT_Read()==0)
  41:main.c        ****     {        
  42:main.c        ****         timeout++;
  96              		.loc 1 42 0
  97 004c 0135     		adds	r5, r5, #1
  98              	.LVL8:
  43:main.c        ****         if(timeout>500)
  99              		.loc 1 43 0
 100 004e B5F5FA7F 		cmp	r5, #500
 101 0052 3FDC     		bgt	.L18
 102              	.L7:
  40:main.c        ****     {        
 103              		.loc 1 40 0
 104 0054 FFF7FEFF 		bl	DHT_Read
 105              	.LVL9:
 106 0058 0028     		cmp	r0, #0
 107 005a F7D0     		beq	.L8
 108              	.L9:
  44:main.c        ****             return 99;  //Write overflow return function
  45:main.c        ****     }
  46:main.c        ****     calc=timeout;
  47:main.c        ****     timeout=0;
  48:main.c        ****     while(DHT_Read()==1);
 109              		.loc 1 48 0 discriminator 1
 110 005c FFF7FEFF 		bl	DHT_Read
 111              	.LVL10:
 112 0060 0128     		cmp	r0, #1
 113 0062 FBD0     		beq	.L9
  49:main.c        ****     for (i=0; i<40; i++)
 114              		.loc 1 49 0
 115 0064 0027     		movs	r7, #0
 116 0066 1D4B     		ldr	r3, .L20
 117 0068 1F70     		strb	r7, [r3]
ARM GAS  C:\Users\juano\AppData\Local\Temp\cc5BErxz.s 			page 4


  25:main.c        ****     uint8 idx = 0;
 118              		.loc 1 25 0
 119 006a 0726     		movs	r6, #7
 120              		.loc 1 49 0
 121 006c 23E0     		b	.L10
 122              	.LVL11:
 123              	.L11:
  50:main.c        ****     {
  51:main.c        ****         timeout=0;
  52:main.c        ****         while(DHT_Read()==0);
 124              		.loc 1 52 0 discriminator 1
 125 006e FFF7FEFF 		bl	DHT_Read
 126              	.LVL12:
 127 0072 0028     		cmp	r0, #0
 128 0074 FBD0     		beq	.L11
 129 0076 0024     		movs	r4, #0
 130 0078 00E0     		b	.L12
 131              	.LVL13:
 132              	.L13:
  53:main.c        ****         while(DHT_Read()==1)
  54:main.c        ****             timeout++;
 133              		.loc 1 54 0
 134 007a 0134     		adds	r4, r4, #1
 135              	.LVL14:
 136              	.L12:
  53:main.c        ****         while(DHT_Read()==1)
 137              		.loc 1 53 0
 138 007c FFF7FEFF 		bl	DHT_Read
 139              	.LVL15:
 140 0080 0128     		cmp	r0, #1
 141 0082 FAD0     		beq	.L13
  55:main.c        ****         //Data acquiring area point
  56:main.c        ****         if ((timeout) > (calc/2))
 142              		.loc 1 56 0
 143 0084 05EBD573 		add	r3, r5, r5, lsr #31
 144 0088 B4EB630F 		cmp	r4, r3, asr #1
 145 008c 08DD     		ble	.L14
  57:main.c        ****         //  UART_UartPutChar(49);
  58:main.c        ****             bits[idx] |= (1 << cnt);
 146              		.loc 1 58 0
 147 008e 0123     		movs	r3, #1
 148 0090 B340     		lsls	r3, r3, r6
 149 0092 02AA     		add	r2, sp, #8
 150 0094 3A44     		add	r2, r2, r7
 151 0096 12F8081C 		ldrb	r1, [r2, #-8]	@ zero_extendqisi2
 152 009a 0B43     		orrs	r3, r3, r1
 153 009c 02F8083C 		strb	r3, [r2, #-8]
 154              	.L14:
  59:main.c        **** 
  60:main.c        ****         if (cnt == 0)   // next byte?
 155              		.loc 1 60 0
 156 00a0 1EB9     		cbnz	r6, .L15
 157              	.LVL16:
  61:main.c        ****         {
  62:main.c        ****             cnt = 7;    // restart at MSB
  63:main.c        ****             idx++;      // next byte!
 158              		.loc 1 63 0
ARM GAS  C:\Users\juano\AppData\Local\Temp\cc5BErxz.s 			page 5


 159 00a2 0137     		adds	r7, r7, #1
 160              	.LVL17:
 161 00a4 FFB2     		uxtb	r7, r7
 162              	.LVL18:
  62:main.c        ****             idx++;      // next byte!
 163              		.loc 1 62 0
 164 00a6 0726     		movs	r6, #7
 165 00a8 01E0     		b	.L16
 166              	.LVL19:
 167              	.L15:
  64:main.c        ****         }
  65:main.c        ****         else cnt--;
 168              		.loc 1 65 0
 169 00aa 013E     		subs	r6, r6, #1
 170              	.LVL20:
 171 00ac F6B2     		uxtb	r6, r6
 172              	.LVL21:
 173              	.L16:
  49:main.c        ****     {
 174              		.loc 1 49 0 discriminator 2
 175 00ae 0B4A     		ldr	r2, .L20
 176 00b0 1378     		ldrb	r3, [r2]	@ zero_extendqisi2
 177 00b2 0133     		adds	r3, r3, #1
 178 00b4 1370     		strb	r3, [r2]
 179              	.LVL22:
 180              	.L10:
  49:main.c        ****     {
 181              		.loc 1 49 0 is_stmt 0 discriminator 1
 182 00b6 094B     		ldr	r3, .L20
 183 00b8 1B78     		ldrb	r3, [r3]	@ zero_extendqisi2
 184 00ba 272B     		cmp	r3, #39
 185 00bc D7D9     		bls	.L11
  66:main.c        ****     }
  67:main.c        ****     humidity    = bits[0]; 
 186              		.loc 1 67 0 is_stmt 1
 187 00be 9DF80020 		ldrb	r2, [sp]	@ zero_extendqisi2
 188 00c2 074B     		ldr	r3, .L20+4
 189 00c4 1A60     		str	r2, [r3]
  68:main.c        ****     temperature = bits[2]; 
 190              		.loc 1 68 0
 191 00c6 9DF80220 		ldrb	r2, [sp, #2]	@ zero_extendqisi2
 192 00ca 5A60     		str	r2, [r3, #4]
  69:main.c        **** //    char symbol[60];
  70:main.c        **** //    sprintf(symbol,"Temperature:%c\tHumidity%c\r\n",temperature,humidity);
  71:main.c        **** //    UART_PutString(symbol);
  72:main.c        ****    
  73:main.c        ****     return 0;
 193              		.loc 1 73 0
 194 00cc 0020     		movs	r0, #0
 195 00ce 02E0     		b	.L5
 196              	.LVL23:
 197              	.L17:
  38:main.c        ****     }
 198              		.loc 1 38 0
 199 00d0 6320     		movs	r0, #99
 200 00d2 00E0     		b	.L5
 201              	.L18:
ARM GAS  C:\Users\juano\AppData\Local\Temp\cc5BErxz.s 			page 6


  44:main.c        ****     }
 202              		.loc 1 44 0
 203 00d4 6320     		movs	r0, #99
 204              	.LVL24:
 205              	.L5:
  74:main.c        **** }
 206              		.loc 1 74 0
 207 00d6 03B0     		add	sp, sp, #12
 208              		.cfi_def_cfa_offset 20
 209              		@ sp needed
 210 00d8 F0BD     		pop	{r4, r5, r6, r7, pc}
 211              	.L21:
 212 00da 00BF     		.align	2
 213              	.L20:
 214 00dc 00000000 		.word	.LANCHOR0
 215 00e0 00000000 		.word	.LANCHOR1
 216              		.cfi_endproc
 217              	.LFE64:
 218              		.size	DHTread, .-DHTread
 219              		.global	__aeabi_i2f
 220              		.global	__aeabi_fdiv
 221              		.global	__aeabi_fsub
 222              		.global	__aeabi_f2d
 223              		.global	__aeabi_ddiv
 224              		.global	__aeabi_d2f
 225              		.section	.text.ppmMeasure,"ax",%progbits
 226              		.align	2
 227              		.global	ppmMeasure
 228              		.thumb
 229              		.thumb_func
 230              		.type	ppmMeasure, %function
 231              	ppmMeasure:
 232              	.LFB65:
  75:main.c        **** void ppmMeasure(){
 233              		.loc 1 75 0
 234              		.cfi_startproc
 235              		@ args = 0, pretend = 0, frame = 0
 236              		@ frame_needed = 0, uses_anonymous_args = 0
 237 0000 10B5     		push	{r4, lr}
 238              		.cfi_def_cfa_offset 8
 239              		.cfi_offset 4, -8
 240              		.cfi_offset 14, -4
 241              	.LVL25:
  76:main.c        ****     uint16 adcresult=0;
  77:main.c        ****     float voltaje=0;
  78:main.c        ****     ro=76.63;
 242              		.loc 1 78 0
 243 0002 174C     		ldr	r4, .L24+8
 244 0004 174B     		ldr	r3, .L24+12
 245 0006 6360     		str	r3, [r4, #4]	@ float
  79:main.c        ****     adcresult=ADC_GetResult16();
 246              		.loc 1 79 0
 247 0008 FFF7FEFF 		bl	ADC_GetResult16
 248              	.LVL26:
 249 000c 80B2     		uxth	r0, r0
 250              	.LVL27:
  80:main.c        ****     voltaje=adcresult*5/1023;
ARM GAS  C:\Users\juano\AppData\Local\Temp\cc5BErxz.s 			page 7


 251              		.loc 1 80 0
 252 000e 00EB8003 		add	r3, r0, r0, lsl #2
 253 0012 1548     		ldr	r0, .L24+16
 254              	.LVL28:
 255 0014 80FB0320 		smull	r2, r0, r0, r3
 256 0018 1844     		add	r0, r0, r3
 257 001a DB17     		asrs	r3, r3, #31
 258 001c C3EB6020 		rsb	r0, r3, r0, asr #9
 259 0020 FFF7FEFF 		bl	__aeabi_i2f
 260              	.LVL29:
  81:main.c        ****     ppm=(((1024*20000/voltaje)-20000)/ro)/5.5973021420;
 261              		.loc 1 81 0
 262 0024 0146     		mov	r1, r0
 263 0026 1148     		ldr	r0, .L24+20
 264              	.LVL30:
 265 0028 FFF7FEFF 		bl	__aeabi_fdiv
 266              	.LVL31:
 267 002c 1049     		ldr	r1, .L24+24
 268 002e FFF7FEFF 		bl	__aeabi_fsub
 269              	.LVL32:
 270 0032 6168     		ldr	r1, [r4, #4]	@ float
 271 0034 FFF7FEFF 		bl	__aeabi_fdiv
 272              	.LVL33:
 273 0038 FFF7FEFF 		bl	__aeabi_f2d
 274              	.LVL34:
 275 003c 06A3     		adr	r3, .L24
 276 003e D3E90023 		ldrd	r2, [r3]
 277 0042 FFF7FEFF 		bl	__aeabi_ddiv
 278              	.LVL35:
 279 0046 FFF7FEFF 		bl	__aeabi_d2f
 280              	.LVL36:
 281 004a A060     		str	r0, [r4, #8]	@ float
  82:main.c        ****     float ppm1=powf(ppm,-0.365425824);
 282              		.loc 1 82 0
 283 004c 0949     		ldr	r1, .L24+28
 284 004e FFF7FEFF 		bl	powf
 285              	.LVL37:
 286 0052 10BD     		pop	{r4, pc}
 287              	.L25:
 288 0054 AFF30080 		.align	3
 289              	.L24:
 290 0058 0CE2362C 		.word	741794316
 291 005c A3631640 		.word	1075209123
 292 0060 00000000 		.word	.LANCHOR0
 293 0064 8F429942 		.word	1117340303
 294 0068 03082080 		.word	-2145384445
 295 006c 00409C4B 		.word	1268531200
 296 0070 00409C46 		.word	1184645120
 297 0074 1819BBBE 		.word	-1095034600
 298              		.cfi_endproc
 299              	.LFE65:
 300              		.size	ppmMeasure, .-ppmMeasure
 301              		.global	__aeabi_f2iz
 302              		.section	.text.main,"ax",%progbits
 303              		.align	2
 304              		.global	main
 305              		.thumb
ARM GAS  C:\Users\juano\AppData\Local\Temp\cc5BErxz.s 			page 8


 306              		.thumb_func
 307              		.type	main, %function
 308              	main:
 309              	.LFB66:
  83:main.c        ****   
  84:main.c        ****     
  85:main.c        **** }
  86:main.c        **** int main(void)
  87:main.c        **** {
 310              		.loc 1 87 0
 311              		.cfi_startproc
 312              		@ args = 0, pretend = 0, frame = 40
 313              		@ frame_needed = 0, uses_anonymous_args = 0
 314 0000 30B5     		push	{r4, r5, lr}
 315              		.cfi_def_cfa_offset 12
 316              		.cfi_offset 4, -12
 317              		.cfi_offset 5, -8
 318              		.cfi_offset 14, -4
 319 0002 8DB0     		sub	sp, sp, #52
 320              		.cfi_def_cfa_offset 64
  88:main.c        ****     CyGlobalIntEnable; /* Enable global interrupts. */
 321              		.loc 1 88 0
 322              		.syntax unified
 323              	@ 88 "main.c" 1
 324 0004 62B6     		CPSIE   i
 325              	@ 0 "" 2
  89:main.c        ****     
  90:main.c        ****     char outputstring[40];
  91:main.c        ****     UART_Start();
 326              		.loc 1 91 0
 327              		.thumb
 328              		.syntax unified
 329 0006 FFF7FEFF 		bl	UART_Start
 330              	.LVL38:
  92:main.c        ****     ADC_Start();
 331              		.loc 1 92 0
 332 000a FFF7FEFF 		bl	ADC_Start
 333              	.LVL39:
  93:main.c        ****     ADC_StartConvert();
 334              		.loc 1 93 0
 335 000e FFF7FEFF 		bl	ADC_StartConvert
 336              	.LVL40:
 337              	.L27:
  94:main.c        ****     
  95:main.c        ****     for(;;)
  96:main.c        ****     {
  97:main.c        ****         ppmMeasure();
 338              		.loc 1 97 0 discriminator 1
 339 0012 FFF7FEFF 		bl	ppmMeasure
 340              	.LVL41:
  98:main.c        ****         DHTread();
 341              		.loc 1 98 0 discriminator 1
 342 0016 FFF7FEFF 		bl	DHTread
 343              	.LVL42:
  99:main.c        ****         sprintf(outputstring,"T=%i, H=%i, ppm=%i \n",temperature,humidity,(int)ppm);
 344              		.loc 1 99 0 discriminator 1
 345 001a 0B4B     		ldr	r3, .L29
ARM GAS  C:\Users\juano\AppData\Local\Temp\cc5BErxz.s 			page 9


 346 001c 1D68     		ldr	r5, [r3]
 347 001e 5C68     		ldr	r4, [r3, #4]
 348 0020 0A4B     		ldr	r3, .L29+4
 349 0022 9868     		ldr	r0, [r3, #8]	@ float
 350 0024 FFF7FEFF 		bl	__aeabi_f2iz
 351              	.LVL43:
 352 0028 0090     		str	r0, [sp]
 353 002a 2B46     		mov	r3, r5
 354 002c 2246     		mov	r2, r4
 355 002e 0849     		ldr	r1, .L29+8
 356 0030 02A8     		add	r0, sp, #8
 357 0032 FFF7FEFF 		bl	sprintf
 358              	.LVL44:
 100:main.c        ****         
 101:main.c        ****         UART_PutString(outputstring);
 359              		.loc 1 101 0 discriminator 1
 360 0036 02A8     		add	r0, sp, #8
 361 0038 FFF7FEFF 		bl	UART_PutString
 362              	.LVL45:
 102:main.c        ****         CyDelay(1000);  //Delay in milli seconds.        
 363              		.loc 1 102 0 discriminator 1
 364 003c 4FF47A70 		mov	r0, #1000
 365 0040 FFF7FEFF 		bl	CyDelay
 366              	.LVL46:
 367 0044 E5E7     		b	.L27
 368              	.L30:
 369 0046 00BF     		.align	2
 370              	.L29:
 371 0048 00000000 		.word	.LANCHOR1
 372 004c 00000000 		.word	.LANCHOR0
 373 0050 00000000 		.word	.LC0
 374              		.cfi_endproc
 375              	.LFE66:
 376              		.size	main, .-main
 377              		.global	ppm
 378              		.global	ro
 379              		.global	rs
 380              		.data
 381              		.align	2
 382              		.set	.LANCHOR1,. + 0
 383              		.type	humidity, %object
 384              		.size	humidity, 4
 385              	humidity:
 386 0000 63000000 		.word	99
 387              		.type	temperature, %object
 388              		.size	temperature, 4
 389              	temperature:
 390 0004 63000000 		.word	99
 391              		.section	.rodata.str1.4,"aMS",%progbits,1
 392              		.align	2
 393              	.LC0:
 394 0000 543D2569 		.ascii	"T=%i, H=%i, ppm=%i \012\000"
 394      2C20483D 
 394      25692C20 
 394      70706D3D 
 394      2569200A 
 395              		.bss
ARM GAS  C:\Users\juano\AppData\Local\Temp\cc5BErxz.s 			page 10


 396              		.align	2
 397              		.set	.LANCHOR0,. + 0
 398              		.type	i, %object
 399              		.size	i, 1
 400              	i:
 401 0000 00       		.space	1
 402 0001 000000   		.space	3
 403              		.type	ro, %object
 404              		.size	ro, 4
 405              	ro:
 406 0004 00000000 		.space	4
 407              		.type	ppm, %object
 408              		.size	ppm, 4
 409              	ppm:
 410 0008 00000000 		.space	4
 411              		.type	rs, %object
 412              		.size	rs, 4
 413              	rs:
 414 000c 00000000 		.space	4
 415              		.text
 416              	.Letext0:
 417              		.file 2 "c:\\program files (x86)\\cypress\\psoc creator\\4.4\\psoc creator\\import\\gnu\\arm\\5.4.
 418              		.file 3 "c:\\program files (x86)\\cypress\\psoc creator\\4.4\\psoc creator\\import\\gnu\\arm\\5.4.
 419              		.file 4 "Generated_Source\\PSoC5/cytypes.h"
 420              		.file 5 "Generated_Source\\PSoC5/DHT.h"
 421              		.file 6 "Generated_Source\\PSoC5/CyLib.h"
 422              		.file 7 "Generated_Source\\PSoC5/ADC.h"
 423              		.file 8 "c:\\program files (x86)\\cypress\\psoc creator\\4.4\\psoc creator\\import\\gnu\\arm\\5.4.
 424              		.file 9 "Generated_Source\\PSoC5/UART.h"
 425              		.file 10 "c:\\program files (x86)\\cypress\\psoc creator\\4.4\\psoc creator\\import\\gnu\\arm\\5.4
 426              		.file 11 "Generated_Source\\PSoC5/core_cm3.h"
 427              		.section	.debug_info,"",%progbits
 428              	.Ldebug_info0:
 429 0000 81030000 		.4byte	0x381
 430 0004 0400     		.2byte	0x4
 431 0006 00000000 		.4byte	.Ldebug_abbrev0
 432 000a 04       		.byte	0x4
 433 000b 01       		.uleb128 0x1
 434 000c 62000000 		.4byte	.LASF39
 435 0010 0C       		.byte	0xc
 436 0011 AF010000 		.4byte	.LASF40
 437 0015 2B020000 		.4byte	.LASF41
 438 0019 00000000 		.4byte	.Ldebug_ranges0+0
 439 001d 00000000 		.4byte	0
 440 0021 00000000 		.4byte	.Ldebug_line0
 441 0025 02       		.uleb128 0x2
 442 0026 01       		.byte	0x1
 443 0027 06       		.byte	0x6
 444 0028 0B020000 		.4byte	.LASF0
 445 002c 02       		.uleb128 0x2
 446 002d 01       		.byte	0x1
 447 002e 08       		.byte	0x8
 448 002f 54000000 		.4byte	.LASF1
 449 0033 02       		.uleb128 0x2
 450 0034 02       		.byte	0x2
 451 0035 05       		.byte	0x5
 452 0036 CA010000 		.4byte	.LASF2
ARM GAS  C:\Users\juano\AppData\Local\Temp\cc5BErxz.s 			page 11


 453 003a 02       		.uleb128 0x2
 454 003b 02       		.byte	0x2
 455 003c 07       		.byte	0x7
 456 003d 13010000 		.4byte	.LASF3
 457 0041 03       		.uleb128 0x3
 458 0042 30000000 		.4byte	.LASF9
 459 0046 02       		.byte	0x2
 460 0047 3F       		.byte	0x3f
 461 0048 4C000000 		.4byte	0x4c
 462 004c 02       		.uleb128 0x2
 463 004d 04       		.byte	0x4
 464 004e 05       		.byte	0x5
 465 004f F6010000 		.4byte	.LASF4
 466 0053 02       		.uleb128 0x2
 467 0054 04       		.byte	0x4
 468 0055 07       		.byte	0x7
 469 0056 01010000 		.4byte	.LASF5
 470 005a 02       		.uleb128 0x2
 471 005b 08       		.byte	0x8
 472 005c 05       		.byte	0x5
 473 005d 00000000 		.4byte	.LASF6
 474 0061 02       		.uleb128 0x2
 475 0062 08       		.byte	0x8
 476 0063 07       		.byte	0x7
 477 0064 6E010000 		.4byte	.LASF7
 478 0068 04       		.uleb128 0x4
 479 0069 04       		.byte	0x4
 480 006a 05       		.byte	0x5
 481 006b 696E7400 		.ascii	"int\000"
 482 006f 02       		.uleb128 0x2
 483 0070 04       		.byte	0x4
 484 0071 07       		.byte	0x7
 485 0072 61010000 		.4byte	.LASF8
 486 0076 03       		.uleb128 0x3
 487 0077 97010000 		.4byte	.LASF10
 488 007b 03       		.byte	0x3
 489 007c 2C       		.byte	0x2c
 490 007d 41000000 		.4byte	0x41
 491 0081 05       		.uleb128 0x5
 492 0082 E1010000 		.4byte	.LASF11
 493 0086 04       		.byte	0x4
 494 0087 9201     		.2byte	0x192
 495 0089 2C000000 		.4byte	0x2c
 496 008d 05       		.uleb128 0x5
 497 008e 55010000 		.4byte	.LASF12
 498 0092 04       		.byte	0x4
 499 0093 9301     		.2byte	0x193
 500 0095 3A000000 		.4byte	0x3a
 501 0099 02       		.uleb128 0x2
 502 009a 04       		.byte	0x4
 503 009b 04       		.byte	0x4
 504 009c 22000000 		.4byte	.LASF13
 505 00a0 02       		.uleb128 0x2
 506 00a1 08       		.byte	0x8
 507 00a2 04       		.byte	0x4
 508 00a3 4E010000 		.4byte	.LASF14
 509 00a7 02       		.uleb128 0x2
ARM GAS  C:\Users\juano\AppData\Local\Temp\cc5BErxz.s 			page 12


 510 00a8 01       		.byte	0x1
 511 00a9 08       		.byte	0x8
 512 00aa B6010000 		.4byte	.LASF15
 513 00ae 02       		.uleb128 0x2
 514 00af 08       		.byte	0x8
 515 00b0 04       		.byte	0x4
 516 00b1 FF010000 		.4byte	.LASF16
 517 00b5 02       		.uleb128 0x2
 518 00b6 04       		.byte	0x4
 519 00b7 07       		.byte	0x7
 520 00b8 9F010000 		.4byte	.LASF17
 521 00bc 06       		.uleb128 0x6
 522 00bd 8F010000 		.4byte	.LASF42
 523 00c1 01       		.byte	0x1
 524 00c2 16       		.byte	0x16
 525 00c3 68000000 		.4byte	0x68
 526 00c7 00000000 		.4byte	.LFB64
 527 00cb E4000000 		.4byte	.LFE64-.LFB64
 528 00cf 01       		.uleb128 0x1
 529 00d0 9C       		.byte	0x9c
 530 00d1 83010000 		.4byte	0x183
 531 00d5 07       		.uleb128 0x7
 532 00d6 C5010000 		.4byte	.LASF18
 533 00da 01       		.byte	0x1
 534 00db 18       		.byte	0x18
 535 00dc 83010000 		.4byte	0x183
 536 00e0 02       		.uleb128 0x2
 537 00e1 91       		.byte	0x91
 538 00e2 60       		.sleb128 -32
 539 00e3 08       		.uleb128 0x8
 540 00e4 636E7400 		.ascii	"cnt\000"
 541 00e8 01       		.byte	0x1
 542 00e9 19       		.byte	0x19
 543 00ea 81000000 		.4byte	0x81
 544 00ee 00000000 		.4byte	.LLST0
 545 00f2 08       		.uleb128 0x8
 546 00f3 69647800 		.ascii	"idx\000"
 547 00f7 01       		.byte	0x1
 548 00f8 1A       		.byte	0x1a
 549 00f9 81000000 		.4byte	0x81
 550 00fd 4D000000 		.4byte	.LLST1
 551 0101 09       		.uleb128 0x9
 552 0102 F1010000 		.4byte	.LASF19
 553 0106 01       		.byte	0x1
 554 0107 1B       		.byte	0x1b
 555 0108 68000000 		.4byte	0x68
 556 010c 00       		.byte	0
 557 010d 0A       		.uleb128 0xa
 558 010e 28000000 		.4byte	.LASF20
 559 0112 01       		.byte	0x1
 560 0113 1C       		.byte	0x1c
 561 0114 68000000 		.4byte	0x68
 562 0118 83000000 		.4byte	.LLST2
 563 011c 0B       		.uleb128 0xb
 564 011d 2A000000 		.4byte	.LVL1
 565 0121 15030000 		.4byte	0x315
 566 0125 2F010000 		.4byte	0x12f
ARM GAS  C:\Users\juano\AppData\Local\Temp\cc5BErxz.s 			page 13


 567 0129 0C       		.uleb128 0xc
 568 012a 01       		.uleb128 0x1
 569 012b 50       		.byte	0x50
 570 012c 01       		.uleb128 0x1
 571 012d 30       		.byte	0x30
 572 012e 00       		.byte	0
 573 012f 0B       		.uleb128 0xb
 574 0130 30000000 		.4byte	.LVL2
 575 0134 20030000 		.4byte	0x320
 576 0138 42010000 		.4byte	0x142
 577 013c 0C       		.uleb128 0xc
 578 013d 01       		.uleb128 0x1
 579 013e 50       		.byte	0x50
 580 013f 01       		.uleb128 0x1
 581 0140 43       		.byte	0x43
 582 0141 00       		.byte	0
 583 0142 0B       		.uleb128 0xb
 584 0143 36000000 		.4byte	.LVL3
 585 0147 15030000 		.4byte	0x315
 586 014b 55010000 		.4byte	0x155
 587 014f 0C       		.uleb128 0xc
 588 0150 01       		.uleb128 0x1
 589 0151 50       		.byte	0x50
 590 0152 01       		.uleb128 0x1
 591 0153 31       		.byte	0x31
 592 0154 00       		.byte	0
 593 0155 0D       		.uleb128 0xd
 594 0156 46000000 		.4byte	.LVL7
 595 015a 2B030000 		.4byte	0x32b
 596 015e 0D       		.uleb128 0xd
 597 015f 58000000 		.4byte	.LVL9
 598 0163 2B030000 		.4byte	0x32b
 599 0167 0D       		.uleb128 0xd
 600 0168 60000000 		.4byte	.LVL10
 601 016c 2B030000 		.4byte	0x32b
 602 0170 0D       		.uleb128 0xd
 603 0171 72000000 		.4byte	.LVL12
 604 0175 2B030000 		.4byte	0x32b
 605 0179 0D       		.uleb128 0xd
 606 017a 80000000 		.4byte	.LVL15
 607 017e 2B030000 		.4byte	0x32b
 608 0182 00       		.byte	0
 609 0183 0E       		.uleb128 0xe
 610 0184 81000000 		.4byte	0x81
 611 0188 93010000 		.4byte	0x193
 612 018c 0F       		.uleb128 0xf
 613 018d B5000000 		.4byte	0xb5
 614 0191 04       		.byte	0x4
 615 0192 00       		.byte	0
 616 0193 10       		.uleb128 0x10
 617 0194 0E000000 		.4byte	.LASF43
 618 0198 01       		.byte	0x1
 619 0199 4B       		.byte	0x4b
 620 019a 00000000 		.4byte	.LFB65
 621 019e 78000000 		.4byte	.LFE65-.LFB65
 622 01a2 01       		.uleb128 0x1
 623 01a3 9C       		.byte	0x9c
ARM GAS  C:\Users\juano\AppData\Local\Temp\cc5BErxz.s 			page 14


 624 01a4 E4010000 		.4byte	0x1e4
 625 01a8 0A       		.uleb128 0xa
 626 01a9 BB010000 		.4byte	.LASF21
 627 01ad 01       		.byte	0x1
 628 01ae 4C       		.byte	0x4c
 629 01af 8D000000 		.4byte	0x8d
 630 01b3 B8000000 		.4byte	.LLST3
 631 01b7 0A       		.uleb128 0xa
 632 01b8 E0020000 		.4byte	.LASF22
 633 01bc 01       		.byte	0x1
 634 01bd 4D       		.byte	0x4d
 635 01be 99000000 		.4byte	0x99
 636 01c2 D7000000 		.4byte	.LLST4
 637 01c6 11       		.uleb128 0x11
 638 01c7 26020000 		.4byte	.LASF26
 639 01cb 01       		.byte	0x1
 640 01cc 52       		.byte	0x52
 641 01cd 99000000 		.4byte	0x99
 642 01d1 0D       		.uleb128 0xd
 643 01d2 0C000000 		.4byte	.LVL26
 644 01d6 36030000 		.4byte	0x336
 645 01da 0D       		.uleb128 0xd
 646 01db 52000000 		.4byte	.LVL37
 647 01df 41030000 		.4byte	0x341
 648 01e3 00       		.byte	0
 649 01e4 12       		.uleb128 0x12
 650 01e5 5C010000 		.4byte	.LASF44
 651 01e9 01       		.byte	0x1
 652 01ea 56       		.byte	0x56
 653 01eb 68000000 		.4byte	0x68
 654 01ef 00000000 		.4byte	.LFB66
 655 01f3 54000000 		.4byte	.LFE66-.LFB66
 656 01f7 01       		.uleb128 0x1
 657 01f8 9C       		.byte	0x9c
 658 01f9 87020000 		.4byte	0x287
 659 01fd 07       		.uleb128 0x7
 660 01fe D4010000 		.4byte	.LASF23
 661 0202 01       		.byte	0x1
 662 0203 5A       		.byte	0x5a
 663 0204 87020000 		.4byte	0x287
 664 0208 02       		.uleb128 0x2
 665 0209 91       		.byte	0x91
 666 020a 48       		.sleb128 -56
 667 020b 0D       		.uleb128 0xd
 668 020c 0A000000 		.4byte	.LVL38
 669 0210 4D030000 		.4byte	0x34d
 670 0214 0D       		.uleb128 0xd
 671 0215 0E000000 		.4byte	.LVL39
 672 0219 58030000 		.4byte	0x358
 673 021d 0D       		.uleb128 0xd
 674 021e 12000000 		.4byte	.LVL40
 675 0222 63030000 		.4byte	0x363
 676 0226 0D       		.uleb128 0xd
 677 0227 16000000 		.4byte	.LVL41
 678 022b 93010000 		.4byte	0x193
 679 022f 0D       		.uleb128 0xd
 680 0230 1A000000 		.4byte	.LVL42
ARM GAS  C:\Users\juano\AppData\Local\Temp\cc5BErxz.s 			page 15


 681 0234 BC000000 		.4byte	0xbc
 682 0238 0B       		.uleb128 0xb
 683 0239 36000000 		.4byte	.LVL44
 684 023d 6E030000 		.4byte	0x36e
 685 0241 61020000 		.4byte	0x261
 686 0245 0C       		.uleb128 0xc
 687 0246 01       		.uleb128 0x1
 688 0247 50       		.byte	0x50
 689 0248 02       		.uleb128 0x2
 690 0249 91       		.byte	0x91
 691 024a 48       		.sleb128 -56
 692 024b 0C       		.uleb128 0xc
 693 024c 01       		.uleb128 0x1
 694 024d 51       		.byte	0x51
 695 024e 05       		.uleb128 0x5
 696 024f 03       		.byte	0x3
 697 0250 00000000 		.4byte	.LC0
 698 0254 0C       		.uleb128 0xc
 699 0255 01       		.uleb128 0x1
 700 0256 52       		.byte	0x52
 701 0257 02       		.uleb128 0x2
 702 0258 74       		.byte	0x74
 703 0259 00       		.sleb128 0
 704 025a 0C       		.uleb128 0xc
 705 025b 01       		.uleb128 0x1
 706 025c 53       		.byte	0x53
 707 025d 02       		.uleb128 0x2
 708 025e 75       		.byte	0x75
 709 025f 00       		.sleb128 0
 710 0260 00       		.byte	0
 711 0261 0B       		.uleb128 0xb
 712 0262 3C000000 		.4byte	.LVL45
 713 0266 79030000 		.4byte	0x379
 714 026a 75020000 		.4byte	0x275
 715 026e 0C       		.uleb128 0xc
 716 026f 01       		.uleb128 0x1
 717 0270 50       		.byte	0x50
 718 0271 02       		.uleb128 0x2
 719 0272 91       		.byte	0x91
 720 0273 48       		.sleb128 -56
 721 0274 00       		.byte	0
 722 0275 13       		.uleb128 0x13
 723 0276 44000000 		.4byte	.LVL46
 724 027a 20030000 		.4byte	0x320
 725 027e 0C       		.uleb128 0xc
 726 027f 01       		.uleb128 0x1
 727 0280 50       		.byte	0x50
 728 0281 03       		.uleb128 0x3
 729 0282 0A       		.byte	0xa
 730 0283 E803     		.2byte	0x3e8
 731 0285 00       		.byte	0
 732 0286 00       		.byte	0
 733 0287 0E       		.uleb128 0xe
 734 0288 A7000000 		.4byte	0xa7
 735 028c 97020000 		.4byte	0x297
 736 0290 0F       		.uleb128 0xf
 737 0291 B5000000 		.4byte	0xb5
ARM GAS  C:\Users\juano\AppData\Local\Temp\cc5BErxz.s 			page 16


 738 0295 27       		.byte	0x27
 739 0296 00       		.byte	0
 740 0297 07       		.uleb128 0x7
 741 0298 43000000 		.4byte	.LASF24
 742 029c 01       		.byte	0x1
 743 029d 10       		.byte	0x10
 744 029e 68000000 		.4byte	0x68
 745 02a2 05       		.uleb128 0x5
 746 02a3 03       		.byte	0x3
 747 02a4 04000000 		.4byte	temperature
 748 02a8 07       		.uleb128 0x7
 749 02a9 19000000 		.4byte	.LASF25
 750 02ad 01       		.byte	0x1
 751 02ae 11       		.byte	0x11
 752 02af 68000000 		.4byte	0x68
 753 02b3 05       		.uleb128 0x5
 754 02b4 03       		.byte	0x3
 755 02b5 00000000 		.4byte	humidity
 756 02b9 11       		.uleb128 0x11
 757 02ba A8010000 		.4byte	.LASF27
 758 02be 01       		.byte	0x1
 759 02bf 12       		.byte	0x12
 760 02c0 81000000 		.4byte	0x81
 761 02c4 14       		.uleb128 0x14
 762 02c5 6900     		.ascii	"i\000"
 763 02c7 01       		.byte	0x1
 764 02c8 12       		.byte	0x12
 765 02c9 81000000 		.4byte	0x81
 766 02cd 05       		.uleb128 0x5
 767 02ce 03       		.byte	0x3
 768 02cf 00000000 		.4byte	i
 769 02d3 15       		.uleb128 0x15
 770 02d4 41010000 		.4byte	.LASF28
 771 02d8 0B       		.byte	0xb
 772 02d9 9606     		.2byte	0x696
 773 02db DF020000 		.4byte	0x2df
 774 02df 16       		.uleb128 0x16
 775 02e0 76000000 		.4byte	0x76
 776 02e4 17       		.uleb128 0x17
 777 02e5 727300   		.ascii	"rs\000"
 778 02e8 01       		.byte	0x1
 779 02e9 13       		.byte	0x13
 780 02ea 99000000 		.4byte	0x99
 781 02ee 05       		.uleb128 0x5
 782 02ef 03       		.byte	0x3
 783 02f0 00000000 		.4byte	rs
 784 02f4 17       		.uleb128 0x17
 785 02f5 726F00   		.ascii	"ro\000"
 786 02f8 01       		.byte	0x1
 787 02f9 14       		.byte	0x14
 788 02fa 99000000 		.4byte	0x99
 789 02fe 05       		.uleb128 0x5
 790 02ff 03       		.byte	0x3
 791 0300 00000000 		.4byte	ro
 792 0304 17       		.uleb128 0x17
 793 0305 70706D00 		.ascii	"ppm\000"
 794 0309 01       		.byte	0x1
ARM GAS  C:\Users\juano\AppData\Local\Temp\cc5BErxz.s 			page 17


 795 030a 15       		.byte	0x15
 796 030b 99000000 		.4byte	0x99
 797 030f 05       		.uleb128 0x5
 798 0310 03       		.byte	0x3
 799 0311 00000000 		.4byte	ppm
 800 0315 18       		.uleb128 0x18
 801 0316 E7010000 		.4byte	.LASF29
 802 031a E7010000 		.4byte	.LASF29
 803 031e 05       		.byte	0x5
 804 031f 26       		.byte	0x26
 805 0320 18       		.uleb128 0x18
 806 0321 D8020000 		.4byte	.LASF30
 807 0325 D8020000 		.4byte	.LASF30
 808 0329 06       		.byte	0x6
 809 032a 76       		.byte	0x76
 810 032b 18       		.uleb128 0x18
 811 032c 3A000000 		.4byte	.LASF31
 812 0330 3A000000 		.4byte	.LASF31
 813 0334 05       		.byte	0x5
 814 0335 29       		.byte	0x29
 815 0336 18       		.uleb128 0x18
 816 0337 31010000 		.4byte	.LASF32
 817 033b 31010000 		.4byte	.LASF32
 818 033f 07       		.byte	0x7
 819 0340 41       		.byte	0x41
 820 0341 19       		.uleb128 0x19
 821 0342 4F000000 		.4byte	.LASF33
 822 0346 4F000000 		.4byte	.LASF33
 823 034a 08       		.byte	0x8
 824 034b 8401     		.2byte	0x184
 825 034d 18       		.uleb128 0x18
 826 034e 26010000 		.4byte	.LASF34
 827 0352 26010000 		.4byte	.LASF34
 828 0356 09       		.byte	0x9
 829 0357 1F       		.byte	0x1f
 830 0358 18       		.uleb128 0x18
 831 0359 85010000 		.4byte	.LASF35
 832 035d 85010000 		.4byte	.LASF35
 833 0361 07       		.byte	0x7
 834 0362 3A       		.byte	0x3a
 835 0363 18       		.uleb128 0x18
 836 0364 F0000000 		.4byte	.LASF36
 837 0368 F0000000 		.4byte	.LASF36
 838 036c 07       		.byte	0x7
 839 036d 3D       		.byte	0x3d
 840 036e 18       		.uleb128 0x18
 841 036f E8020000 		.4byte	.LASF37
 842 0373 E8020000 		.4byte	.LASF37
 843 0377 0A       		.byte	0xa
 844 0378 E7       		.byte	0xe7
 845 0379 18       		.uleb128 0x18
 846 037a 17020000 		.4byte	.LASF38
 847 037e 17020000 		.4byte	.LASF38
 848 0382 09       		.byte	0x9
 849 0383 26       		.byte	0x26
 850 0384 00       		.byte	0
 851              		.section	.debug_abbrev,"",%progbits
ARM GAS  C:\Users\juano\AppData\Local\Temp\cc5BErxz.s 			page 18


 852              	.Ldebug_abbrev0:
 853 0000 01       		.uleb128 0x1
 854 0001 11       		.uleb128 0x11
 855 0002 01       		.byte	0x1
 856 0003 25       		.uleb128 0x25
 857 0004 0E       		.uleb128 0xe
 858 0005 13       		.uleb128 0x13
 859 0006 0B       		.uleb128 0xb
 860 0007 03       		.uleb128 0x3
 861 0008 0E       		.uleb128 0xe
 862 0009 1B       		.uleb128 0x1b
 863 000a 0E       		.uleb128 0xe
 864 000b 55       		.uleb128 0x55
 865 000c 17       		.uleb128 0x17
 866 000d 11       		.uleb128 0x11
 867 000e 01       		.uleb128 0x1
 868 000f 10       		.uleb128 0x10
 869 0010 17       		.uleb128 0x17
 870 0011 00       		.byte	0
 871 0012 00       		.byte	0
 872 0013 02       		.uleb128 0x2
 873 0014 24       		.uleb128 0x24
 874 0015 00       		.byte	0
 875 0016 0B       		.uleb128 0xb
 876 0017 0B       		.uleb128 0xb
 877 0018 3E       		.uleb128 0x3e
 878 0019 0B       		.uleb128 0xb
 879 001a 03       		.uleb128 0x3
 880 001b 0E       		.uleb128 0xe
 881 001c 00       		.byte	0
 882 001d 00       		.byte	0
 883 001e 03       		.uleb128 0x3
 884 001f 16       		.uleb128 0x16
 885 0020 00       		.byte	0
 886 0021 03       		.uleb128 0x3
 887 0022 0E       		.uleb128 0xe
 888 0023 3A       		.uleb128 0x3a
 889 0024 0B       		.uleb128 0xb
 890 0025 3B       		.uleb128 0x3b
 891 0026 0B       		.uleb128 0xb
 892 0027 49       		.uleb128 0x49
 893 0028 13       		.uleb128 0x13
 894 0029 00       		.byte	0
 895 002a 00       		.byte	0
 896 002b 04       		.uleb128 0x4
 897 002c 24       		.uleb128 0x24
 898 002d 00       		.byte	0
 899 002e 0B       		.uleb128 0xb
 900 002f 0B       		.uleb128 0xb
 901 0030 3E       		.uleb128 0x3e
 902 0031 0B       		.uleb128 0xb
 903 0032 03       		.uleb128 0x3
 904 0033 08       		.uleb128 0x8
 905 0034 00       		.byte	0
 906 0035 00       		.byte	0
 907 0036 05       		.uleb128 0x5
 908 0037 16       		.uleb128 0x16
ARM GAS  C:\Users\juano\AppData\Local\Temp\cc5BErxz.s 			page 19


 909 0038 00       		.byte	0
 910 0039 03       		.uleb128 0x3
 911 003a 0E       		.uleb128 0xe
 912 003b 3A       		.uleb128 0x3a
 913 003c 0B       		.uleb128 0xb
 914 003d 3B       		.uleb128 0x3b
 915 003e 05       		.uleb128 0x5
 916 003f 49       		.uleb128 0x49
 917 0040 13       		.uleb128 0x13
 918 0041 00       		.byte	0
 919 0042 00       		.byte	0
 920 0043 06       		.uleb128 0x6
 921 0044 2E       		.uleb128 0x2e
 922 0045 01       		.byte	0x1
 923 0046 3F       		.uleb128 0x3f
 924 0047 19       		.uleb128 0x19
 925 0048 03       		.uleb128 0x3
 926 0049 0E       		.uleb128 0xe
 927 004a 3A       		.uleb128 0x3a
 928 004b 0B       		.uleb128 0xb
 929 004c 3B       		.uleb128 0x3b
 930 004d 0B       		.uleb128 0xb
 931 004e 49       		.uleb128 0x49
 932 004f 13       		.uleb128 0x13
 933 0050 11       		.uleb128 0x11
 934 0051 01       		.uleb128 0x1
 935 0052 12       		.uleb128 0x12
 936 0053 06       		.uleb128 0x6
 937 0054 40       		.uleb128 0x40
 938 0055 18       		.uleb128 0x18
 939 0056 9742     		.uleb128 0x2117
 940 0058 19       		.uleb128 0x19
 941 0059 01       		.uleb128 0x1
 942 005a 13       		.uleb128 0x13
 943 005b 00       		.byte	0
 944 005c 00       		.byte	0
 945 005d 07       		.uleb128 0x7
 946 005e 34       		.uleb128 0x34
 947 005f 00       		.byte	0
 948 0060 03       		.uleb128 0x3
 949 0061 0E       		.uleb128 0xe
 950 0062 3A       		.uleb128 0x3a
 951 0063 0B       		.uleb128 0xb
 952 0064 3B       		.uleb128 0x3b
 953 0065 0B       		.uleb128 0xb
 954 0066 49       		.uleb128 0x49
 955 0067 13       		.uleb128 0x13
 956 0068 02       		.uleb128 0x2
 957 0069 18       		.uleb128 0x18
 958 006a 00       		.byte	0
 959 006b 00       		.byte	0
 960 006c 08       		.uleb128 0x8
 961 006d 34       		.uleb128 0x34
 962 006e 00       		.byte	0
 963 006f 03       		.uleb128 0x3
 964 0070 08       		.uleb128 0x8
 965 0071 3A       		.uleb128 0x3a
ARM GAS  C:\Users\juano\AppData\Local\Temp\cc5BErxz.s 			page 20


 966 0072 0B       		.uleb128 0xb
 967 0073 3B       		.uleb128 0x3b
 968 0074 0B       		.uleb128 0xb
 969 0075 49       		.uleb128 0x49
 970 0076 13       		.uleb128 0x13
 971 0077 02       		.uleb128 0x2
 972 0078 17       		.uleb128 0x17
 973 0079 00       		.byte	0
 974 007a 00       		.byte	0
 975 007b 09       		.uleb128 0x9
 976 007c 34       		.uleb128 0x34
 977 007d 00       		.byte	0
 978 007e 03       		.uleb128 0x3
 979 007f 0E       		.uleb128 0xe
 980 0080 3A       		.uleb128 0x3a
 981 0081 0B       		.uleb128 0xb
 982 0082 3B       		.uleb128 0x3b
 983 0083 0B       		.uleb128 0xb
 984 0084 49       		.uleb128 0x49
 985 0085 13       		.uleb128 0x13
 986 0086 1C       		.uleb128 0x1c
 987 0087 0B       		.uleb128 0xb
 988 0088 00       		.byte	0
 989 0089 00       		.byte	0
 990 008a 0A       		.uleb128 0xa
 991 008b 34       		.uleb128 0x34
 992 008c 00       		.byte	0
 993 008d 03       		.uleb128 0x3
 994 008e 0E       		.uleb128 0xe
 995 008f 3A       		.uleb128 0x3a
 996 0090 0B       		.uleb128 0xb
 997 0091 3B       		.uleb128 0x3b
 998 0092 0B       		.uleb128 0xb
 999 0093 49       		.uleb128 0x49
 1000 0094 13       		.uleb128 0x13
 1001 0095 02       		.uleb128 0x2
 1002 0096 17       		.uleb128 0x17
 1003 0097 00       		.byte	0
 1004 0098 00       		.byte	0
 1005 0099 0B       		.uleb128 0xb
 1006 009a 898201   		.uleb128 0x4109
 1007 009d 01       		.byte	0x1
 1008 009e 11       		.uleb128 0x11
 1009 009f 01       		.uleb128 0x1
 1010 00a0 31       		.uleb128 0x31
 1011 00a1 13       		.uleb128 0x13
 1012 00a2 01       		.uleb128 0x1
 1013 00a3 13       		.uleb128 0x13
 1014 00a4 00       		.byte	0
 1015 00a5 00       		.byte	0
 1016 00a6 0C       		.uleb128 0xc
 1017 00a7 8A8201   		.uleb128 0x410a
 1018 00aa 00       		.byte	0
 1019 00ab 02       		.uleb128 0x2
 1020 00ac 18       		.uleb128 0x18
 1021 00ad 9142     		.uleb128 0x2111
 1022 00af 18       		.uleb128 0x18
ARM GAS  C:\Users\juano\AppData\Local\Temp\cc5BErxz.s 			page 21


 1023 00b0 00       		.byte	0
 1024 00b1 00       		.byte	0
 1025 00b2 0D       		.uleb128 0xd
 1026 00b3 898201   		.uleb128 0x4109
 1027 00b6 00       		.byte	0
 1028 00b7 11       		.uleb128 0x11
 1029 00b8 01       		.uleb128 0x1
 1030 00b9 31       		.uleb128 0x31
 1031 00ba 13       		.uleb128 0x13
 1032 00bb 00       		.byte	0
 1033 00bc 00       		.byte	0
 1034 00bd 0E       		.uleb128 0xe
 1035 00be 01       		.uleb128 0x1
 1036 00bf 01       		.byte	0x1
 1037 00c0 49       		.uleb128 0x49
 1038 00c1 13       		.uleb128 0x13
 1039 00c2 01       		.uleb128 0x1
 1040 00c3 13       		.uleb128 0x13
 1041 00c4 00       		.byte	0
 1042 00c5 00       		.byte	0
 1043 00c6 0F       		.uleb128 0xf
 1044 00c7 21       		.uleb128 0x21
 1045 00c8 00       		.byte	0
 1046 00c9 49       		.uleb128 0x49
 1047 00ca 13       		.uleb128 0x13
 1048 00cb 2F       		.uleb128 0x2f
 1049 00cc 0B       		.uleb128 0xb
 1050 00cd 00       		.byte	0
 1051 00ce 00       		.byte	0
 1052 00cf 10       		.uleb128 0x10
 1053 00d0 2E       		.uleb128 0x2e
 1054 00d1 01       		.byte	0x1
 1055 00d2 3F       		.uleb128 0x3f
 1056 00d3 19       		.uleb128 0x19
 1057 00d4 03       		.uleb128 0x3
 1058 00d5 0E       		.uleb128 0xe
 1059 00d6 3A       		.uleb128 0x3a
 1060 00d7 0B       		.uleb128 0xb
 1061 00d8 3B       		.uleb128 0x3b
 1062 00d9 0B       		.uleb128 0xb
 1063 00da 11       		.uleb128 0x11
 1064 00db 01       		.uleb128 0x1
 1065 00dc 12       		.uleb128 0x12
 1066 00dd 06       		.uleb128 0x6
 1067 00de 40       		.uleb128 0x40
 1068 00df 18       		.uleb128 0x18
 1069 00e0 9642     		.uleb128 0x2116
 1070 00e2 19       		.uleb128 0x19
 1071 00e3 01       		.uleb128 0x1
 1072 00e4 13       		.uleb128 0x13
 1073 00e5 00       		.byte	0
 1074 00e6 00       		.byte	0
 1075 00e7 11       		.uleb128 0x11
 1076 00e8 34       		.uleb128 0x34
 1077 00e9 00       		.byte	0
 1078 00ea 03       		.uleb128 0x3
 1079 00eb 0E       		.uleb128 0xe
ARM GAS  C:\Users\juano\AppData\Local\Temp\cc5BErxz.s 			page 22


 1080 00ec 3A       		.uleb128 0x3a
 1081 00ed 0B       		.uleb128 0xb
 1082 00ee 3B       		.uleb128 0x3b
 1083 00ef 0B       		.uleb128 0xb
 1084 00f0 49       		.uleb128 0x49
 1085 00f1 13       		.uleb128 0x13
 1086 00f2 00       		.byte	0
 1087 00f3 00       		.byte	0
 1088 00f4 12       		.uleb128 0x12
 1089 00f5 2E       		.uleb128 0x2e
 1090 00f6 01       		.byte	0x1
 1091 00f7 3F       		.uleb128 0x3f
 1092 00f8 19       		.uleb128 0x19
 1093 00f9 03       		.uleb128 0x3
 1094 00fa 0E       		.uleb128 0xe
 1095 00fb 3A       		.uleb128 0x3a
 1096 00fc 0B       		.uleb128 0xb
 1097 00fd 3B       		.uleb128 0x3b
 1098 00fe 0B       		.uleb128 0xb
 1099 00ff 27       		.uleb128 0x27
 1100 0100 19       		.uleb128 0x19
 1101 0101 49       		.uleb128 0x49
 1102 0102 13       		.uleb128 0x13
 1103 0103 8701     		.uleb128 0x87
 1104 0105 19       		.uleb128 0x19
 1105 0106 11       		.uleb128 0x11
 1106 0107 01       		.uleb128 0x1
 1107 0108 12       		.uleb128 0x12
 1108 0109 06       		.uleb128 0x6
 1109 010a 40       		.uleb128 0x40
 1110 010b 18       		.uleb128 0x18
 1111 010c 9642     		.uleb128 0x2116
 1112 010e 19       		.uleb128 0x19
 1113 010f 01       		.uleb128 0x1
 1114 0110 13       		.uleb128 0x13
 1115 0111 00       		.byte	0
 1116 0112 00       		.byte	0
 1117 0113 13       		.uleb128 0x13
 1118 0114 898201   		.uleb128 0x4109
 1119 0117 01       		.byte	0x1
 1120 0118 11       		.uleb128 0x11
 1121 0119 01       		.uleb128 0x1
 1122 011a 31       		.uleb128 0x31
 1123 011b 13       		.uleb128 0x13
 1124 011c 00       		.byte	0
 1125 011d 00       		.byte	0
 1126 011e 14       		.uleb128 0x14
 1127 011f 34       		.uleb128 0x34
 1128 0120 00       		.byte	0
 1129 0121 03       		.uleb128 0x3
 1130 0122 08       		.uleb128 0x8
 1131 0123 3A       		.uleb128 0x3a
 1132 0124 0B       		.uleb128 0xb
 1133 0125 3B       		.uleb128 0x3b
 1134 0126 0B       		.uleb128 0xb
 1135 0127 49       		.uleb128 0x49
 1136 0128 13       		.uleb128 0x13
ARM GAS  C:\Users\juano\AppData\Local\Temp\cc5BErxz.s 			page 23


 1137 0129 02       		.uleb128 0x2
 1138 012a 18       		.uleb128 0x18
 1139 012b 00       		.byte	0
 1140 012c 00       		.byte	0
 1141 012d 15       		.uleb128 0x15
 1142 012e 34       		.uleb128 0x34
 1143 012f 00       		.byte	0
 1144 0130 03       		.uleb128 0x3
 1145 0131 0E       		.uleb128 0xe
 1146 0132 3A       		.uleb128 0x3a
 1147 0133 0B       		.uleb128 0xb
 1148 0134 3B       		.uleb128 0x3b
 1149 0135 05       		.uleb128 0x5
 1150 0136 49       		.uleb128 0x49
 1151 0137 13       		.uleb128 0x13
 1152 0138 3F       		.uleb128 0x3f
 1153 0139 19       		.uleb128 0x19
 1154 013a 3C       		.uleb128 0x3c
 1155 013b 19       		.uleb128 0x19
 1156 013c 00       		.byte	0
 1157 013d 00       		.byte	0
 1158 013e 16       		.uleb128 0x16
 1159 013f 35       		.uleb128 0x35
 1160 0140 00       		.byte	0
 1161 0141 49       		.uleb128 0x49
 1162 0142 13       		.uleb128 0x13
 1163 0143 00       		.byte	0
 1164 0144 00       		.byte	0
 1165 0145 17       		.uleb128 0x17
 1166 0146 34       		.uleb128 0x34
 1167 0147 00       		.byte	0
 1168 0148 03       		.uleb128 0x3
 1169 0149 08       		.uleb128 0x8
 1170 014a 3A       		.uleb128 0x3a
 1171 014b 0B       		.uleb128 0xb
 1172 014c 3B       		.uleb128 0x3b
 1173 014d 0B       		.uleb128 0xb
 1174 014e 49       		.uleb128 0x49
 1175 014f 13       		.uleb128 0x13
 1176 0150 3F       		.uleb128 0x3f
 1177 0151 19       		.uleb128 0x19
 1178 0152 02       		.uleb128 0x2
 1179 0153 18       		.uleb128 0x18
 1180 0154 00       		.byte	0
 1181 0155 00       		.byte	0
 1182 0156 18       		.uleb128 0x18
 1183 0157 2E       		.uleb128 0x2e
 1184 0158 00       		.byte	0
 1185 0159 3F       		.uleb128 0x3f
 1186 015a 19       		.uleb128 0x19
 1187 015b 3C       		.uleb128 0x3c
 1188 015c 19       		.uleb128 0x19
 1189 015d 6E       		.uleb128 0x6e
 1190 015e 0E       		.uleb128 0xe
 1191 015f 03       		.uleb128 0x3
 1192 0160 0E       		.uleb128 0xe
 1193 0161 3A       		.uleb128 0x3a
ARM GAS  C:\Users\juano\AppData\Local\Temp\cc5BErxz.s 			page 24


 1194 0162 0B       		.uleb128 0xb
 1195 0163 3B       		.uleb128 0x3b
 1196 0164 0B       		.uleb128 0xb
 1197 0165 00       		.byte	0
 1198 0166 00       		.byte	0
 1199 0167 19       		.uleb128 0x19
 1200 0168 2E       		.uleb128 0x2e
 1201 0169 00       		.byte	0
 1202 016a 3F       		.uleb128 0x3f
 1203 016b 19       		.uleb128 0x19
 1204 016c 3C       		.uleb128 0x3c
 1205 016d 19       		.uleb128 0x19
 1206 016e 6E       		.uleb128 0x6e
 1207 016f 0E       		.uleb128 0xe
 1208 0170 03       		.uleb128 0x3
 1209 0171 0E       		.uleb128 0xe
 1210 0172 3A       		.uleb128 0x3a
 1211 0173 0B       		.uleb128 0xb
 1212 0174 3B       		.uleb128 0x3b
 1213 0175 05       		.uleb128 0x5
 1214 0176 00       		.byte	0
 1215 0177 00       		.byte	0
 1216 0178 00       		.byte	0
 1217              		.section	.debug_loc,"",%progbits
 1218              	.Ldebug_loc0:
 1219              	.LLST0:
 1220 0000 04000000 		.4byte	.LVL0
 1221 0004 6E000000 		.4byte	.LVL11
 1222 0008 0200     		.2byte	0x2
 1223 000a 37       		.byte	0x37
 1224 000b 9F       		.byte	0x9f
 1225 000c 6E000000 		.4byte	.LVL11
 1226 0010 A2000000 		.4byte	.LVL16
 1227 0014 0100     		.2byte	0x1
 1228 0016 56       		.byte	0x56
 1229 0017 A2000000 		.4byte	.LVL16
 1230 001b AA000000 		.4byte	.LVL19
 1231 001f 0200     		.2byte	0x2
 1232 0021 37       		.byte	0x37
 1233 0022 9F       		.byte	0x9f
 1234 0023 AA000000 		.4byte	.LVL19
 1235 0027 AC000000 		.4byte	.LVL20
 1236 002b 0100     		.2byte	0x1
 1237 002d 56       		.byte	0x56
 1238 002e AE000000 		.4byte	.LVL21
 1239 0032 D0000000 		.4byte	.LVL23
 1240 0036 0100     		.2byte	0x1
 1241 0038 56       		.byte	0x56
 1242 0039 D0000000 		.4byte	.LVL23
 1243 003d D6000000 		.4byte	.LVL24
 1244 0041 0200     		.2byte	0x2
 1245 0043 37       		.byte	0x37
 1246 0044 9F       		.byte	0x9f
 1247 0045 00000000 		.4byte	0
 1248 0049 00000000 		.4byte	0
 1249              	.LLST1:
 1250 004d 04000000 		.4byte	.LVL0
ARM GAS  C:\Users\juano\AppData\Local\Temp\cc5BErxz.s 			page 25


 1251 0051 6E000000 		.4byte	.LVL11
 1252 0055 0200     		.2byte	0x2
 1253 0057 30       		.byte	0x30
 1254 0058 9F       		.byte	0x9f
 1255 0059 6E000000 		.4byte	.LVL11
 1256 005d A4000000 		.4byte	.LVL17
 1257 0061 0100     		.2byte	0x1
 1258 0063 57       		.byte	0x57
 1259 0064 A6000000 		.4byte	.LVL18
 1260 0068 D0000000 		.4byte	.LVL23
 1261 006c 0100     		.2byte	0x1
 1262 006e 57       		.byte	0x57
 1263 006f D0000000 		.4byte	.LVL23
 1264 0073 D6000000 		.4byte	.LVL24
 1265 0077 0200     		.2byte	0x2
 1266 0079 30       		.byte	0x30
 1267 007a 9F       		.byte	0x9f
 1268 007b 00000000 		.4byte	0
 1269 007f 00000000 		.4byte	0
 1270              	.LLST2:
 1271 0083 04000000 		.4byte	.LVL0
 1272 0087 3A000000 		.4byte	.LVL4
 1273 008b 0200     		.2byte	0x2
 1274 008d 30       		.byte	0x30
 1275 008e 9F       		.byte	0x9f
 1276 008f 3A000000 		.4byte	.LVL4
 1277 0093 6E000000 		.4byte	.LVL11
 1278 0097 0100     		.2byte	0x1
 1279 0099 55       		.byte	0x55
 1280 009a 7A000000 		.4byte	.LVL13
 1281 009e B6000000 		.4byte	.LVL22
 1282 00a2 0100     		.2byte	0x1
 1283 00a4 54       		.byte	0x54
 1284 00a5 D0000000 		.4byte	.LVL23
 1285 00a9 D6000000 		.4byte	.LVL24
 1286 00ad 0100     		.2byte	0x1
 1287 00af 55       		.byte	0x55
 1288 00b0 00000000 		.4byte	0
 1289 00b4 00000000 		.4byte	0
 1290              	.LLST3:
 1291 00b8 02000000 		.4byte	.LVL25
 1292 00bc 0E000000 		.4byte	.LVL27
 1293 00c0 0200     		.2byte	0x2
 1294 00c2 30       		.byte	0x30
 1295 00c3 9F       		.byte	0x9f
 1296 00c4 0E000000 		.4byte	.LVL27
 1297 00c8 14000000 		.4byte	.LVL28
 1298 00cc 0100     		.2byte	0x1
 1299 00ce 50       		.byte	0x50
 1300 00cf 00000000 		.4byte	0
 1301 00d3 00000000 		.4byte	0
 1302              	.LLST4:
 1303 00d7 02000000 		.4byte	.LVL25
 1304 00db 24000000 		.4byte	.LVL29
 1305 00df 0600     		.2byte	0x6
 1306 00e1 9E       		.byte	0x9e
 1307 00e2 04       		.uleb128 0x4
ARM GAS  C:\Users\juano\AppData\Local\Temp\cc5BErxz.s 			page 26


 1308 00e3 00000000 		.4byte	0
 1309 00e7 24000000 		.4byte	.LVL29
 1310 00eb 28000000 		.4byte	.LVL30
 1311 00ef 0100     		.2byte	0x1
 1312 00f1 50       		.byte	0x50
 1313 00f2 28000000 		.4byte	.LVL30
 1314 00f6 2B000000 		.4byte	.LVL31-1
 1315 00fa 0100     		.2byte	0x1
 1316 00fc 51       		.byte	0x51
 1317 00fd 00000000 		.4byte	0
 1318 0101 00000000 		.4byte	0
 1319              		.section	.debug_aranges,"",%progbits
 1320 0000 2C000000 		.4byte	0x2c
 1321 0004 0200     		.2byte	0x2
 1322 0006 00000000 		.4byte	.Ldebug_info0
 1323 000a 04       		.byte	0x4
 1324 000b 00       		.byte	0
 1325 000c 0000     		.2byte	0
 1326 000e 0000     		.2byte	0
 1327 0010 00000000 		.4byte	.LFB64
 1328 0014 E4000000 		.4byte	.LFE64-.LFB64
 1329 0018 00000000 		.4byte	.LFB65
 1330 001c 78000000 		.4byte	.LFE65-.LFB65
 1331 0020 00000000 		.4byte	.LFB66
 1332 0024 54000000 		.4byte	.LFE66-.LFB66
 1333 0028 00000000 		.4byte	0
 1334 002c 00000000 		.4byte	0
 1335              		.section	.debug_ranges,"",%progbits
 1336              	.Ldebug_ranges0:
 1337 0000 00000000 		.4byte	.LFB64
 1338 0004 E4000000 		.4byte	.LFE64
 1339 0008 00000000 		.4byte	.LFB65
 1340 000c 78000000 		.4byte	.LFE65
 1341 0010 00000000 		.4byte	.LFB66
 1342 0014 54000000 		.4byte	.LFE66
 1343 0018 00000000 		.4byte	0
 1344 001c 00000000 		.4byte	0
 1345              		.section	.debug_line,"",%progbits
 1346              	.Ldebug_line0:
 1347 0000 98020000 		.section	.debug_str,"MS",%progbits,1
 1347      0200F001 
 1347      00000201 
 1347      FB0E0D00 
 1347      01010101 
 1348              	.LASF6:
 1349 0000 6C6F6E67 		.ascii	"long long int\000"
 1349      206C6F6E 
 1349      6720696E 
 1349      7400
 1350              	.LASF43:
 1351 000e 70706D4D 		.ascii	"ppmMeasure\000"
 1351      65617375 
 1351      726500
 1352              	.LASF25:
 1353 0019 68756D69 		.ascii	"humidity\000"
 1353      64697479 
 1353      00
ARM GAS  C:\Users\juano\AppData\Local\Temp\cc5BErxz.s 			page 27


 1354              	.LASF13:
 1355 0022 666C6F61 		.ascii	"float\000"
 1355      7400
 1356              	.LASF20:
 1357 0028 74696D65 		.ascii	"timeout\000"
 1357      6F757400 
 1358              	.LASF9:
 1359 0030 5F5F696E 		.ascii	"__int32_t\000"
 1359      7433325F 
 1359      7400
 1360              	.LASF31:
 1361 003a 4448545F 		.ascii	"DHT_Read\000"
 1361      52656164 
 1361      00
 1362              	.LASF24:
 1363 0043 74656D70 		.ascii	"temperature\000"
 1363      65726174 
 1363      75726500 
 1364              	.LASF33:
 1365 004f 706F7766 		.ascii	"powf\000"
 1365      00
 1366              	.LASF1:
 1367 0054 756E7369 		.ascii	"unsigned char\000"
 1367      676E6564 
 1367      20636861 
 1367      7200
 1368              	.LASF39:
 1369 0062 474E5520 		.ascii	"GNU C11 5.4.1 20160609 (release) [ARM/embedded-5-br"
 1369      43313120 
 1369      352E342E 
 1369      31203230 
 1369      31363036 
 1370 0095 616E6368 		.ascii	"anch revision 237715] -mcpu=cortex-m3 -mthumb -g -O"
 1370      20726576 
 1370      6973696F 
 1370      6E203233 
 1370      37373135 
 1371 00c8 67202D66 		.ascii	"g -ffunction-sections -ffat-lto-objects\000"
 1371      66756E63 
 1371      74696F6E 
 1371      2D736563 
 1371      74696F6E 
 1372              	.LASF36:
 1373 00f0 4144435F 		.ascii	"ADC_StartConvert\000"
 1373      53746172 
 1373      74436F6E 
 1373      76657274 
 1373      00
 1374              	.LASF5:
 1375 0101 6C6F6E67 		.ascii	"long unsigned int\000"
 1375      20756E73 
 1375      69676E65 
 1375      6420696E 
 1375      7400
 1376              	.LASF3:
 1377 0113 73686F72 		.ascii	"short unsigned int\000"
 1377      7420756E 
ARM GAS  C:\Users\juano\AppData\Local\Temp\cc5BErxz.s 			page 28


 1377      7369676E 
 1377      65642069 
 1377      6E7400
 1378              	.LASF34:
 1379 0126 55415254 		.ascii	"UART_Start\000"
 1379      5F537461 
 1379      727400
 1380              	.LASF32:
 1381 0131 4144435F 		.ascii	"ADC_GetResult16\000"
 1381      47657452 
 1381      6573756C 
 1381      74313600 
 1382              	.LASF28:
 1383 0141 49544D5F 		.ascii	"ITM_RxBuffer\000"
 1383      52784275 
 1383      66666572 
 1383      00
 1384              	.LASF14:
 1385 014e 646F7562 		.ascii	"double\000"
 1385      6C6500
 1386              	.LASF12:
 1387 0155 75696E74 		.ascii	"uint16\000"
 1387      313600
 1388              	.LASF44:
 1389 015c 6D61696E 		.ascii	"main\000"
 1389      00
 1390              	.LASF8:
 1391 0161 756E7369 		.ascii	"unsigned int\000"
 1391      676E6564 
 1391      20696E74 
 1391      00
 1392              	.LASF7:
 1393 016e 6C6F6E67 		.ascii	"long long unsigned int\000"
 1393      206C6F6E 
 1393      6720756E 
 1393      7369676E 
 1393      65642069 
 1394              	.LASF35:
 1395 0185 4144435F 		.ascii	"ADC_Start\000"
 1395      53746172 
 1395      7400
 1396              	.LASF42:
 1397 018f 44485472 		.ascii	"DHTread\000"
 1397      65616400 
 1398              	.LASF10:
 1399 0197 696E7433 		.ascii	"int32_t\000"
 1399      325F7400 
 1400              	.LASF17:
 1401 019f 73697A65 		.ascii	"sizetype\000"
 1401      74797065 
 1401      00
 1402              	.LASF27:
 1403 01a8 49537461 		.ascii	"IState\000"
 1403      746500
 1404              	.LASF40:
 1405 01af 6D61696E 		.ascii	"main.c\000"
 1405      2E6300
ARM GAS  C:\Users\juano\AppData\Local\Temp\cc5BErxz.s 			page 29


 1406              	.LASF15:
 1407 01b6 63686172 		.ascii	"char\000"
 1407      00
 1408              	.LASF21:
 1409 01bb 61646372 		.ascii	"adcresult\000"
 1409      6573756C 
 1409      7400
 1410              	.LASF18:
 1411 01c5 62697473 		.ascii	"bits\000"
 1411      00
 1412              	.LASF2:
 1413 01ca 73686F72 		.ascii	"short int\000"
 1413      7420696E 
 1413      7400
 1414              	.LASF23:
 1415 01d4 6F757470 		.ascii	"outputstring\000"
 1415      75747374 
 1415      72696E67 
 1415      00
 1416              	.LASF11:
 1417 01e1 75696E74 		.ascii	"uint8\000"
 1417      3800
 1418              	.LASF29:
 1419 01e7 4448545F 		.ascii	"DHT_Write\000"
 1419      57726974 
 1419      6500
 1420              	.LASF19:
 1421 01f1 63616C63 		.ascii	"calc\000"
 1421      00
 1422              	.LASF4:
 1423 01f6 6C6F6E67 		.ascii	"long int\000"
 1423      20696E74 
 1423      00
 1424              	.LASF16:
 1425 01ff 6C6F6E67 		.ascii	"long double\000"
 1425      20646F75 
 1425      626C6500 
 1426              	.LASF0:
 1427 020b 7369676E 		.ascii	"signed char\000"
 1427      65642063 
 1427      68617200 
 1428              	.LASF38:
 1429 0217 55415254 		.ascii	"UART_PutString\000"
 1429      5F507574 
 1429      53747269 
 1429      6E6700
 1430              	.LASF26:
 1431 0226 70706D31 		.ascii	"ppm1\000"
 1431      00
 1432              	.LASF41:
 1433 022b 433A5C55 		.ascii	"C:\\Users\\juano\\Documents\\JuanPabloOviedoPerdomo"
 1433      73657273 
 1433      5C6A7561 
 1433      6E6F5C44 
 1433      6F63756D 
 1434 025a 5C756E69 		.ascii	"\\universidad\\posgrados\\MCIC\\segundoSemestre\\Ap"
 1434      76657273 
ARM GAS  C:\Users\juano\AppData\Local\Temp\cc5BErxz.s 			page 30


 1434      69646164 
 1434      5C706F73 
 1434      67726164 
 1435 0288 6C696361 		.ascii	"licacionesWeb\\ProyectoFinal\\PSoC5_DHT11\\Example\\"
 1435      63696F6E 
 1435      65735765 
 1435      625C5072 
 1435      6F796563 
 1436 02b8 312D7769 		.ascii	"1-wire Protocol\\DHT11 POC.cydsn\000"
 1436      72652050 
 1436      726F746F 
 1436      636F6C5C 
 1436      44485431 
 1437              	.LASF30:
 1438 02d8 43794465 		.ascii	"CyDelay\000"
 1438      6C617900 
 1439              	.LASF22:
 1440 02e0 766F6C74 		.ascii	"voltaje\000"
 1440      616A6500 
 1441              	.LASF37:
 1442 02e8 73707269 		.ascii	"sprintf\000"
 1442      6E746600 
 1443              		.ident	"GCC: (GNU Tools for ARM Embedded Processors) 5.4.1 20160609 (release) [ARM/embedded-5-bran
