:20000000035200400264004002650040010701405108014030090140541801404219014058
:20002000581A0140461B01400240014001410140014201400343014002450140014601404A
:2000400001470140024C0140084D01400450014001510140108061806440880D8938897264
:200060008B0FE6020304060207030A010E021502160422053001310234043501360237042D
:200080003E504040410645D046204701481A49FF4AFF4BFF4DA04F045018528054055804DC
:2000A00059045A045B045C115D115F01604062C06440654066C068C06AC06CC06EC081107D
:2000C0008405850189038A028C048D028E019405951899089C049D189E019F07A118A30767
:2000E000A507A718AB07AD1FAE02B004B103B201B402B71CB808BB80BE11D418D604D80457
:20010000D904DB04DF0100100180020103200488060809880F2012021701181419011C4163
:200120001E08218022012789280129202A012B203194370839883A223C023E0847014F21E0
:20014000560857105A025E085F816005634074018740C0E7C225C411CA0FCC4ECECFD080B1
:20016000D220D6D1D80D00160201031509030B14101811131203130415131606170C1B08A3
:200180001E0928182A052D0A2E022F143007330F3418371038203A023B083E103F4040022D
:2001A000474049FF4A074BFF4C404D204EF04F055008580459045A045F01604061A8624030
:2001C00063208080810C831184E786188AE38C3C8D1C8EC28F02920494C098FF99109B0CE2
:2001E0009CDC9E219F03A010A114A408A509A710A818AC44AD10B038B4D8B61FB71FBAA0CA
:20020000BB08D602D713D804D904DB04DF0101A0028003200680074009800A180B400C418B
:200220000E600F011082131416011720188019801B221E441F0121082244264427302810C1
:200240002B812E8032403310341136343A803B023E0C3F21423046084F0156015701590126
:20026000695470807114720273149488958899019DB49E22A180A508A602A720B001B108C6
:20028000B440C01FC2BFC4CFCA1BCCECCEA9D020D601011005C709C70A040C020D840F41F2
:2002A000100115101F102120220824022501270628022D422E082F89300131083307340294
:2002C0003530360C37C039203E41402641034204440147EC483049FF4AFF4BFF4C624DA052
:2002E0004EF04F41500C580459045A045F016640670269106A306B106D106E106F128308B9
:200300009101930E9501970698019B0C9D0C9F03A303B10FB401BB02BE10C024C101C5EEED
:20032000C6CBC80FC9FFCAFFCBFFCEF0CF44D00CD401D804D904DA04DB04DF01E6C0EA4052
:20034000EB020020014002040A800F08100211141280188119301E082020214022A0234011
:200360002740284029802A042C403004334034053620374039943A013F3240014108432256
:2003800044454601472049104F095004520257905E885F11880289848C409154928094089A
:2003A0009588974098419B209D209F40A108A240A323A412A6A2A790B010B220C003C24834
:2003C000C40FCA8BCCFACE8FD0BFD204D6F03220CC10A620A6208620A620E6405D08D6011F
:2003E0009D089D08B508E8021080798088808D40C408DC01E408E60100030C0310011C01F2
:200400000003000000FEFE0000000000800040808000800000000000000B0B000000000087
:2004200000808000800001000000000000000000000000000000000000000000000000003B
:00000001FF
