ARM GAS  C:\Users\juano\AppData\Local\Temp\ccicpn4E.s 			page 1


   1              		.syntax unified
   2              		.cpu cortex-m0
   3              		.fpu softvfp
   4              		.eabi_attribute 20, 1
   5              		.eabi_attribute 21, 1
   6              		.eabi_attribute 23, 3
   7              		.eabi_attribute 24, 1
   8              		.eabi_attribute 25, 1
   9              		.eabi_attribute 26, 1
  10              		.eabi_attribute 30, 1
  11              		.eabi_attribute 34, 0
  12              		.eabi_attribute 18, 4
  13              		.thumb
  14              		.syntax unified
  15              		.file	"LCD_BarGraph.c"
  16              		.text
  17              	.Ltext0:
  18              		.cfi_sections	.debug_frame
  19              		.section	.text.LCD_LoadCustomFonts,"ax",%progbits
  20              		.align	2
  21              		.global	LCD_LoadCustomFonts
  22              		.code	16
  23              		.thumb_func
  24              		.type	LCD_LoadCustomFonts, %function
  25              	LCD_LoadCustomFonts:
  26              	.LFB0:
  27              		.file 1 "Generated_Source\\PSoC4\\LCD_BarGraph.c"
   1:Generated_Source\PSoC4/LCD_BarGraph.c **** /*******************************************************************************
   2:Generated_Source\PSoC4/LCD_BarGraph.c **** * File Name: LCD_BarGraph.c
   3:Generated_Source\PSoC4/LCD_BarGraph.c **** * Version 2.20
   4:Generated_Source\PSoC4/LCD_BarGraph.c **** *
   5:Generated_Source\PSoC4/LCD_BarGraph.c **** * Description:
   6:Generated_Source\PSoC4/LCD_BarGraph.c **** *  This file provides the custom character data and API for creating and using
   7:Generated_Source\PSoC4/LCD_BarGraph.c **** *  bar graphs with the Character LCD component.
   8:Generated_Source\PSoC4/LCD_BarGraph.c **** *
   9:Generated_Source\PSoC4/LCD_BarGraph.c **** * Note:
  10:Generated_Source\PSoC4/LCD_BarGraph.c **** *
  11:Generated_Source\PSoC4/LCD_BarGraph.c **** ********************************************************************************
  12:Generated_Source\PSoC4/LCD_BarGraph.c **** * Copyright 2008-2014, Cypress Semiconductor Corporation.  All rights reserved.
  13:Generated_Source\PSoC4/LCD_BarGraph.c **** * You may use this file only in accordance with the license, terms, conditions,
  14:Generated_Source\PSoC4/LCD_BarGraph.c **** * disclaimers, and limitations in the end user license agreement accompanying
  15:Generated_Source\PSoC4/LCD_BarGraph.c **** * the software package with which this file was provided.
  16:Generated_Source\PSoC4/LCD_BarGraph.c **** *******************************************************************************/
  17:Generated_Source\PSoC4/LCD_BarGraph.c **** 
  18:Generated_Source\PSoC4/LCD_BarGraph.c **** #include "LCD.h"
  19:Generated_Source\PSoC4/LCD_BarGraph.c **** 
  20:Generated_Source\PSoC4/LCD_BarGraph.c **** 
  21:Generated_Source\PSoC4/LCD_BarGraph.c **** uint8 const CYCODE LCD_customFonts[] = \
  22:Generated_Source\PSoC4/LCD_BarGraph.c **** {
  23:Generated_Source\PSoC4/LCD_BarGraph.c ****     /* Character LCD_CUSTOM_0   */
  24:Generated_Source\PSoC4/LCD_BarGraph.c ****     0x00u,    0x00u,    0x00u,    0x00u,    0x00u,    0x00u,    0x00u,    0x1Fu, \
  25:Generated_Source\PSoC4/LCD_BarGraph.c ****     /* Character LCD_CUSTOM_1   */
  26:Generated_Source\PSoC4/LCD_BarGraph.c ****     0x00u,    0x00u,    0x00u,    0x00u,    0x00u,    0x00u,    0x1Fu,    0x1Fu, \
  27:Generated_Source\PSoC4/LCD_BarGraph.c ****     /* Character LCD_CUSTOM_2   */
  28:Generated_Source\PSoC4/LCD_BarGraph.c ****     0x00u,    0x00u,    0x00u,    0x00u,    0x00u,    0x1Fu,    0x1Fu,    0x1Fu, \
  29:Generated_Source\PSoC4/LCD_BarGraph.c ****     /* Character LCD_CUSTOM_3   */
  30:Generated_Source\PSoC4/LCD_BarGraph.c ****     0x00u,    0x00u,    0x00u,    0x00u,    0x1Fu,    0x1Fu,    0x1Fu,    0x1Fu, \
ARM GAS  C:\Users\juano\AppData\Local\Temp\ccicpn4E.s 			page 2


  31:Generated_Source\PSoC4/LCD_BarGraph.c ****     /* Character LCD_CUSTOM_4   */
  32:Generated_Source\PSoC4/LCD_BarGraph.c ****     0x00u,    0x00u,    0x00u,    0x1Fu,    0x1Fu,    0x1Fu,    0x1Fu,    0x1Fu, \
  33:Generated_Source\PSoC4/LCD_BarGraph.c ****     /* Character LCD_CUSTOM_5   */
  34:Generated_Source\PSoC4/LCD_BarGraph.c ****     0x00u,    0x00u,    0x1Fu,    0x1Fu,    0x1Fu,    0x1Fu,    0x1Fu,    0x1Fu, \
  35:Generated_Source\PSoC4/LCD_BarGraph.c ****     /* Character LCD_CUSTOM_6   */
  36:Generated_Source\PSoC4/LCD_BarGraph.c ****     0x00u,    0x1Fu,    0x1Fu,    0x1Fu,    0x1Fu,    0x1Fu,    0x1Fu,    0x1Fu, \
  37:Generated_Source\PSoC4/LCD_BarGraph.c ****     /* Character LCD_CUSTOM_7   */
  38:Generated_Source\PSoC4/LCD_BarGraph.c ****     0x1Fu,    0x1Fu,    0x1Fu,    0x1Fu,    0x1Fu,    0x1Fu,    0x1Fu,    0x1Fu \
  39:Generated_Source\PSoC4/LCD_BarGraph.c **** };
  40:Generated_Source\PSoC4/LCD_BarGraph.c **** 
  41:Generated_Source\PSoC4/LCD_BarGraph.c **** 
  42:Generated_Source\PSoC4/LCD_BarGraph.c **** /*******************************************************************************
  43:Generated_Source\PSoC4/LCD_BarGraph.c **** * Function Name: LCD_LoadCustomFonts
  44:Generated_Source\PSoC4/LCD_BarGraph.c **** ********************************************************************************
  45:Generated_Source\PSoC4/LCD_BarGraph.c **** *
  46:Generated_Source\PSoC4/LCD_BarGraph.c **** * Summary:
  47:Generated_Source\PSoC4/LCD_BarGraph.c **** *  Loads 8 custom font characters into the LCD Module for use.  Cannot use
  48:Generated_Source\PSoC4/LCD_BarGraph.c **** *  characters from two different font sets at once, but font sets can be
  49:Generated_Source\PSoC4/LCD_BarGraph.c **** *  switched out during runtime.
  50:Generated_Source\PSoC4/LCD_BarGraph.c **** *
  51:Generated_Source\PSoC4/LCD_BarGraph.c **** * Parameters:
  52:Generated_Source\PSoC4/LCD_BarGraph.c **** *  customData:  pointer to a constant array of 64 bytes representing 8 custom
  53:Generated_Source\PSoC4/LCD_BarGraph.c **** *               font characters.
  54:Generated_Source\PSoC4/LCD_BarGraph.c **** * Return:
  55:Generated_Source\PSoC4/LCD_BarGraph.c **** *  None.
  56:Generated_Source\PSoC4/LCD_BarGraph.c **** *
  57:Generated_Source\PSoC4/LCD_BarGraph.c **** * Theory:
  58:Generated_Source\PSoC4/LCD_BarGraph.c **** *  Prior to using this function user need to import the pointer to custom
  59:Generated_Source\PSoC4/LCD_BarGraph.c **** *  font array to your project by writting the following in the source code file
  60:Generated_Source\PSoC4/LCD_BarGraph.c **** *  where custom font will be used:
  61:Generated_Source\PSoC4/LCD_BarGraph.c **** *       extern uint8 const CYCODE LCD_Char_customFonts[];
  62:Generated_Source\PSoC4/LCD_BarGraph.c **** *  This function is not automatically called by the Start() routine and must be
  63:Generated_Source\PSoC4/LCD_BarGraph.c **** *  called manually by the user.
  64:Generated_Source\PSoC4/LCD_BarGraph.c **** *******************************************************************************/
  65:Generated_Source\PSoC4/LCD_BarGraph.c **** void LCD_LoadCustomFonts(uint8 const customData[]) 
  66:Generated_Source\PSoC4/LCD_BarGraph.c **** {
  28              		.loc 1 66 0
  29              		.cfi_startproc
  30              		@ args = 0, pretend = 0, frame = 0
  31              		@ frame_needed = 0, uses_anonymous_args = 0
  32              	.LVL0:
  33 0000 70B5     		push	{r4, r5, r6, lr}
  34              		.cfi_def_cfa_offset 16
  35              		.cfi_offset 4, -16
  36              		.cfi_offset 5, -12
  37              		.cfi_offset 6, -8
  38              		.cfi_offset 14, -4
  39 0002 0500     		movs	r5, r0
  67:Generated_Source\PSoC4/LCD_BarGraph.c ****     uint8 indexU8;
  68:Generated_Source\PSoC4/LCD_BarGraph.c **** 
  69:Generated_Source\PSoC4/LCD_BarGraph.c ****     LCD_IsReady();
  40              		.loc 1 69 0
  41 0004 FFF7FEFF 		bl	LCD_IsReady
  42              	.LVL1:
  70:Generated_Source\PSoC4/LCD_BarGraph.c ****     /* Set starting address in the LCD Module */
  71:Generated_Source\PSoC4/LCD_BarGraph.c ****     /* Optionally: Read the current address to restore at a later time */
  72:Generated_Source\PSoC4/LCD_BarGraph.c ****     LCD_WriteControl(LCD_CGRAM_0);
ARM GAS  C:\Users\juano\AppData\Local\Temp\ccicpn4E.s 			page 3


  43              		.loc 1 72 0
  44 0008 4020     		movs	r0, #64
  45 000a FFF7FEFF 		bl	LCD_WriteControl
  46              	.LVL2:
  73:Generated_Source\PSoC4/LCD_BarGraph.c **** 
  74:Generated_Source\PSoC4/LCD_BarGraph.c ****     /* Load in the 64 bytes of CustomChar Data */
  75:Generated_Source\PSoC4/LCD_BarGraph.c ****     for(indexU8 = 0u; indexU8 < LCD_CUSTOM_CHAR_SET_LEN; indexU8++)
  47              		.loc 1 75 0
  48 000e 0024     		movs	r4, #0
  49 0010 04E0     		b	.L2
  50              	.LVL3:
  51              	.L3:
  76:Generated_Source\PSoC4/LCD_BarGraph.c ****     {
  77:Generated_Source\PSoC4/LCD_BarGraph.c ****         /* Delay between each write */
  78:Generated_Source\PSoC4/LCD_BarGraph.c ****         LCD_WriteData(customData[indexU8]);
  52              		.loc 1 78 0 discriminator 3
  53 0012 285D     		ldrb	r0, [r5, r4]
  54 0014 FFF7FEFF 		bl	LCD_WriteData
  55              	.LVL4:
  75:Generated_Source\PSoC4/LCD_BarGraph.c ****     {
  56              		.loc 1 75 0 discriminator 3
  57 0018 0134     		adds	r4, r4, #1
  58              	.LVL5:
  59 001a E4B2     		uxtb	r4, r4
  60              	.LVL6:
  61              	.L2:
  75:Generated_Source\PSoC4/LCD_BarGraph.c ****     {
  62              		.loc 1 75 0 is_stmt 0 discriminator 1
  63 001c 3F2C     		cmp	r4, #63
  64 001e F8D9     		bls	.L3
  79:Generated_Source\PSoC4/LCD_BarGraph.c ****     }
  80:Generated_Source\PSoC4/LCD_BarGraph.c **** 
  81:Generated_Source\PSoC4/LCD_BarGraph.c ****     LCD_IsReady();
  65              		.loc 1 81 0 is_stmt 1
  66 0020 FFF7FEFF 		bl	LCD_IsReady
  67              	.LVL7:
  82:Generated_Source\PSoC4/LCD_BarGraph.c ****     LCD_WriteControl(LCD_DDRAM_0);
  68              		.loc 1 82 0
  69 0024 8020     		movs	r0, #128
  70 0026 FFF7FEFF 		bl	LCD_WriteControl
  71              	.LVL8:
  83:Generated_Source\PSoC4/LCD_BarGraph.c **** }
  72              		.loc 1 83 0
  73              		@ sp needed
  74              	.LVL9:
  75              	.LVL10:
  76 002a 70BD     		pop	{r4, r5, r6, pc}
  77              		.cfi_endproc
  78              	.LFE0:
  79              		.size	LCD_LoadCustomFonts, .-LCD_LoadCustomFonts
  80              		.section	.text.LCD_DrawVerticalBG,"ax",%progbits
  81              		.align	2
  82              		.global	LCD_DrawVerticalBG
  83              		.code	16
  84              		.thumb_func
  85              		.type	LCD_DrawVerticalBG, %function
  86              	LCD_DrawVerticalBG:
ARM GAS  C:\Users\juano\AppData\Local\Temp\ccicpn4E.s 			page 4


  87              	.LFB1:
  84:Generated_Source\PSoC4/LCD_BarGraph.c **** 
  85:Generated_Source\PSoC4/LCD_BarGraph.c **** 
  86:Generated_Source\PSoC4/LCD_BarGraph.c **** #if (LCD_CUSTOM_CHAR_SET == LCD_HORIZONTAL_BG)
  87:Generated_Source\PSoC4/LCD_BarGraph.c **** 
  88:Generated_Source\PSoC4/LCD_BarGraph.c ****     /*******************************************************************************
  89:Generated_Source\PSoC4/LCD_BarGraph.c ****     * Function Name: LCD_DrawHorizontalBG
  90:Generated_Source\PSoC4/LCD_BarGraph.c ****     ********************************************************************************
  91:Generated_Source\PSoC4/LCD_BarGraph.c ****     *
  92:Generated_Source\PSoC4/LCD_BarGraph.c ****     * Summary:
  93:Generated_Source\PSoC4/LCD_BarGraph.c ****     *  Draws the horizontal bargraph.
  94:Generated_Source\PSoC4/LCD_BarGraph.c ****     *
  95:Generated_Source\PSoC4/LCD_BarGraph.c ****     * Parameters:
  96:Generated_Source\PSoC4/LCD_BarGraph.c ****     *  row:            The row in which the bar graph starts.
  97:Generated_Source\PSoC4/LCD_BarGraph.c ****     *  column:         The column in which the bar graph starts.
  98:Generated_Source\PSoC4/LCD_BarGraph.c ****     *  maxCharacters:  The max length of the graph in whole characters.
  99:Generated_Source\PSoC4/LCD_BarGraph.c ****     *  value:          The current length or height of the graph in pixels.
 100:Generated_Source\PSoC4/LCD_BarGraph.c ****     *
 101:Generated_Source\PSoC4/LCD_BarGraph.c ****     * Return:
 102:Generated_Source\PSoC4/LCD_BarGraph.c ****     *  void.
 103:Generated_Source\PSoC4/LCD_BarGraph.c ****     *
 104:Generated_Source\PSoC4/LCD_BarGraph.c ****     *******************************************************************************/
 105:Generated_Source\PSoC4/LCD_BarGraph.c ****     void LCD_DrawHorizontalBG(uint8 row, uint8 column, uint8 maxCharacters, uint8 value) \
 106:Generated_Source\PSoC4/LCD_BarGraph.c ****                                                             
 107:Generated_Source\PSoC4/LCD_BarGraph.c ****     {
 108:Generated_Source\PSoC4/LCD_BarGraph.c ****         /* 8-bit Counter */
 109:Generated_Source\PSoC4/LCD_BarGraph.c ****         uint8 count8;
 110:Generated_Source\PSoC4/LCD_BarGraph.c ****         uint8 fullChars;
 111:Generated_Source\PSoC4/LCD_BarGraph.c ****         uint8 remainingPixels;
 112:Generated_Source\PSoC4/LCD_BarGraph.c **** 
 113:Generated_Source\PSoC4/LCD_BarGraph.c ****         /* Number of full characters to draw */
 114:Generated_Source\PSoC4/LCD_BarGraph.c ****         fullChars = value / LCD_CHARACTER_WIDTH;
 115:Generated_Source\PSoC4/LCD_BarGraph.c **** 
 116:Generated_Source\PSoC4/LCD_BarGraph.c ****         /* Number of remaining pixels to draw */
 117:Generated_Source\PSoC4/LCD_BarGraph.c ****         remainingPixels = value % LCD_CHARACTER_WIDTH;
 118:Generated_Source\PSoC4/LCD_BarGraph.c **** 
 119:Generated_Source\PSoC4/LCD_BarGraph.c ****         /* Ensure that the maximum character limit is followed. */
 120:Generated_Source\PSoC4/LCD_BarGraph.c ****         if(fullChars >= maxCharacters)
 121:Generated_Source\PSoC4/LCD_BarGraph.c ****         {
 122:Generated_Source\PSoC4/LCD_BarGraph.c ****             fullChars = maxCharacters;
 123:Generated_Source\PSoC4/LCD_BarGraph.c ****         }
 124:Generated_Source\PSoC4/LCD_BarGraph.c **** 
 125:Generated_Source\PSoC4/LCD_BarGraph.c ****         /* Put Cursor at start position */
 126:Generated_Source\PSoC4/LCD_BarGraph.c ****         LCD_Position(row, column);
 127:Generated_Source\PSoC4/LCD_BarGraph.c **** 
 128:Generated_Source\PSoC4/LCD_BarGraph.c ****         /* Write full characters */
 129:Generated_Source\PSoC4/LCD_BarGraph.c ****         for(count8 = 0u; count8 < fullChars; count8++)
 130:Generated_Source\PSoC4/LCD_BarGraph.c ****         {
 131:Generated_Source\PSoC4/LCD_BarGraph.c ****             LCD_WriteData(LCD_CUSTOM_5);
 132:Generated_Source\PSoC4/LCD_BarGraph.c ****         }
 133:Generated_Source\PSoC4/LCD_BarGraph.c **** 
 134:Generated_Source\PSoC4/LCD_BarGraph.c ****         if(fullChars < maxCharacters)
 135:Generated_Source\PSoC4/LCD_BarGraph.c ****         {
 136:Generated_Source\PSoC4/LCD_BarGraph.c ****             /* Write remaining pixels */
 137:Generated_Source\PSoC4/LCD_BarGraph.c ****             LCD_WriteData(remainingPixels);
 138:Generated_Source\PSoC4/LCD_BarGraph.c **** 
 139:Generated_Source\PSoC4/LCD_BarGraph.c ****             if(fullChars < (maxCharacters - 1u))
ARM GAS  C:\Users\juano\AppData\Local\Temp\ccicpn4E.s 			page 5


 140:Generated_Source\PSoC4/LCD_BarGraph.c ****             {
 141:Generated_Source\PSoC4/LCD_BarGraph.c ****                 /* Fill with whitespace to end of bar graph */
 142:Generated_Source\PSoC4/LCD_BarGraph.c ****                 for(count8 = 0u; count8 < (maxCharacters - fullChars - 1u); count8++)
 143:Generated_Source\PSoC4/LCD_BarGraph.c ****                 {
 144:Generated_Source\PSoC4/LCD_BarGraph.c ****                     LCD_WriteData(LCD_CUSTOM_0);
 145:Generated_Source\PSoC4/LCD_BarGraph.c ****                 }
 146:Generated_Source\PSoC4/LCD_BarGraph.c ****             }
 147:Generated_Source\PSoC4/LCD_BarGraph.c ****         }
 148:Generated_Source\PSoC4/LCD_BarGraph.c ****     }
 149:Generated_Source\PSoC4/LCD_BarGraph.c **** 
 150:Generated_Source\PSoC4/LCD_BarGraph.c **** #endif /* LCD_CUSTOM_CHAR_SET == LCD_HORIZONTAL_BG */
 151:Generated_Source\PSoC4/LCD_BarGraph.c **** 
 152:Generated_Source\PSoC4/LCD_BarGraph.c **** 
 153:Generated_Source\PSoC4/LCD_BarGraph.c **** #if (LCD_CUSTOM_CHAR_SET == LCD_VERTICAL_BG)
 154:Generated_Source\PSoC4/LCD_BarGraph.c **** 
 155:Generated_Source\PSoC4/LCD_BarGraph.c ****     /*******************************************************************************
 156:Generated_Source\PSoC4/LCD_BarGraph.c ****     *  Function Name: LCD_DrawVerticalBG
 157:Generated_Source\PSoC4/LCD_BarGraph.c ****     ********************************************************************************
 158:Generated_Source\PSoC4/LCD_BarGraph.c ****     *
 159:Generated_Source\PSoC4/LCD_BarGraph.c ****     * Summary:
 160:Generated_Source\PSoC4/LCD_BarGraph.c ****     *  Draws the vertical bargraph.
 161:Generated_Source\PSoC4/LCD_BarGraph.c ****     *
 162:Generated_Source\PSoC4/LCD_BarGraph.c ****     * Parameters:
 163:Generated_Source\PSoC4/LCD_BarGraph.c ****     *  row:            The row in which the bar graph starts.
 164:Generated_Source\PSoC4/LCD_BarGraph.c ****     *  column:         The column in which the bar graph starts.
 165:Generated_Source\PSoC4/LCD_BarGraph.c ****     *  maxCharacters:  The max height of the graph in whole characters.
 166:Generated_Source\PSoC4/LCD_BarGraph.c ****     *  value:          The current length or height of the graph in pixels.
 167:Generated_Source\PSoC4/LCD_BarGraph.c ****     *
 168:Generated_Source\PSoC4/LCD_BarGraph.c ****     * Return:
 169:Generated_Source\PSoC4/LCD_BarGraph.c ****     *  void.
 170:Generated_Source\PSoC4/LCD_BarGraph.c ****     *
 171:Generated_Source\PSoC4/LCD_BarGraph.c ****     *******************************************************************************/
 172:Generated_Source\PSoC4/LCD_BarGraph.c ****     void LCD_DrawVerticalBG(uint8 row, uint8 column, uint8 maxCharacters, uint8 value) \
 173:Generated_Source\PSoC4/LCD_BarGraph.c ****                                                             
 174:Generated_Source\PSoC4/LCD_BarGraph.c ****     {
  88              		.loc 1 174 0
  89              		.cfi_startproc
  90              		@ args = 0, pretend = 0, frame = 8
  91              		@ frame_needed = 0, uses_anonymous_args = 0
  92              	.LVL11:
  93 0000 F0B5     		push	{r4, r5, r6, r7, lr}
  94              		.cfi_def_cfa_offset 20
  95              		.cfi_offset 4, -20
  96              		.cfi_offset 5, -16
  97              		.cfi_offset 6, -12
  98              		.cfi_offset 7, -8
  99              		.cfi_offset 14, -4
 100 0002 4F46     		mov	r7, r9
 101 0004 80B4     		push	{r7}
 102              		.cfi_def_cfa_offset 24
 103              		.cfi_offset 9, -24
 104 0006 82B0     		sub	sp, sp, #8
 105              		.cfi_def_cfa_offset 32
 106 0008 0600     		movs	r6, r0
 107 000a 0191     		str	r1, [sp, #4]
 108 000c 1500     		movs	r5, r2
 109              	.LVL12:
ARM GAS  C:\Users\juano\AppData\Local\Temp\ccicpn4E.s 			page 6


 175:Generated_Source\PSoC4/LCD_BarGraph.c ****         /* 8-bit Counter */
 176:Generated_Source\PSoC4/LCD_BarGraph.c ****         uint8 count8 = 0u;
 177:Generated_Source\PSoC4/LCD_BarGraph.c ****         /* Current Row Tracker */
 178:Generated_Source\PSoC4/LCD_BarGraph.c ****         int8 currentRow;
 179:Generated_Source\PSoC4/LCD_BarGraph.c ****         uint8 fullChars;
 180:Generated_Source\PSoC4/LCD_BarGraph.c ****         uint8 remainingPixels;
 181:Generated_Source\PSoC4/LCD_BarGraph.c **** 
 182:Generated_Source\PSoC4/LCD_BarGraph.c ****         /* Number of full characters to draw */
 183:Generated_Source\PSoC4/LCD_BarGraph.c ****         fullChars = value / LCD_CHARACTER_HEIGHT;
 110              		.loc 1 183 0
 111 000e DF08     		lsrs	r7, r3, #3
 112              	.LVL13:
 184:Generated_Source\PSoC4/LCD_BarGraph.c **** 
 185:Generated_Source\PSoC4/LCD_BarGraph.c ****         /* Number of remaining pixels to draw */
 186:Generated_Source\PSoC4/LCD_BarGraph.c ****         remainingPixels = value % LCD_CHARACTER_HEIGHT;
 113              		.loc 1 186 0
 114 0010 0720     		movs	r0, #7
 115              	.LVL14:
 116 0012 1840     		ands	r0, r3
 117 0014 8146     		mov	r9, r0
 118              	.LVL15:
 187:Generated_Source\PSoC4/LCD_BarGraph.c **** 
 188:Generated_Source\PSoC4/LCD_BarGraph.c ****         /* Put Cursor at start position */
 189:Generated_Source\PSoC4/LCD_BarGraph.c ****         LCD_Position(row, column);
 119              		.loc 1 189 0
 120 0016 3000     		movs	r0, r6
 121 0018 FFF7FEFF 		bl	LCD_Position
 122              	.LVL16:
 190:Generated_Source\PSoC4/LCD_BarGraph.c **** 
 191:Generated_Source\PSoC4/LCD_BarGraph.c ****         /* Make sure the bar graph fits inside the space allotted */
 192:Generated_Source\PSoC4/LCD_BarGraph.c ****         if(fullChars >= maxCharacters)
 123              		.loc 1 192 0
 124 001c AF42     		cmp	r7, r5
 125 001e 00D3     		bcc	.L5
 193:Generated_Source\PSoC4/LCD_BarGraph.c ****         {
 194:Generated_Source\PSoC4/LCD_BarGraph.c ****             fullChars = maxCharacters;
 126              		.loc 1 194 0
 127 0020 2F00     		movs	r7, r5
 128              	.LVL17:
 129              	.L5:
 130 0022 0024     		movs	r4, #0
 131 0024 0DE0     		b	.L6
 132              	.LVL18:
 133              	.L8:
 195:Generated_Source\PSoC4/LCD_BarGraph.c ****         }
 196:Generated_Source\PSoC4/LCD_BarGraph.c **** 
 197:Generated_Source\PSoC4/LCD_BarGraph.c ****         /*  Write full characters */
 198:Generated_Source\PSoC4/LCD_BarGraph.c ****         while(count8 < fullChars)
 199:Generated_Source\PSoC4/LCD_BarGraph.c ****         {
 200:Generated_Source\PSoC4/LCD_BarGraph.c ****             LCD_WriteData(LCD_CUSTOM_7);
 134              		.loc 1 200 0
 135 0026 0720     		movs	r0, #7
 136 0028 FFF7FEFF 		bl	LCD_WriteData
 137              	.LVL19:
 201:Generated_Source\PSoC4/LCD_BarGraph.c **** 
 202:Generated_Source\PSoC4/LCD_BarGraph.c ****             count8++;
 138              		.loc 1 202 0
ARM GAS  C:\Users\juano\AppData\Local\Temp\ccicpn4E.s 			page 7


 139 002c 0134     		adds	r4, r4, #1
 140              	.LVL20:
 141 002e E4B2     		uxtb	r4, r4
 142              	.LVL21:
 203:Generated_Source\PSoC4/LCD_BarGraph.c **** 
 204:Generated_Source\PSoC4/LCD_BarGraph.c ****             /* Each pass through, move one row higher */
 205:Generated_Source\PSoC4/LCD_BarGraph.c ****             if((((int8) row) - ((int8) count8)) >= 0)
 143              		.loc 1 205 0
 144 0030 72B2     		sxtb	r2, r6
 145 0032 63B2     		sxtb	r3, r4
 146 0034 D21A     		subs	r2, r2, r3
 147 0036 06D4     		bmi	.L7
 206:Generated_Source\PSoC4/LCD_BarGraph.c ****             {
 207:Generated_Source\PSoC4/LCD_BarGraph.c ****                 LCD_Position(row - count8, column);
 148              		.loc 1 207 0
 149 0038 301B     		subs	r0, r6, r4
 150 003a C0B2     		uxtb	r0, r0
 151 003c 0199     		ldr	r1, [sp, #4]
 152 003e FFF7FEFF 		bl	LCD_Position
 153              	.LVL22:
 154              	.L6:
 198:Generated_Source\PSoC4/LCD_BarGraph.c ****         {
 155              		.loc 1 198 0
 156 0042 BC42     		cmp	r4, r7
 157 0044 EFD3     		bcc	.L8
 158              	.L7:
 208:Generated_Source\PSoC4/LCD_BarGraph.c ****             }
 209:Generated_Source\PSoC4/LCD_BarGraph.c ****             else
 210:Generated_Source\PSoC4/LCD_BarGraph.c ****             {
 211:Generated_Source\PSoC4/LCD_BarGraph.c ****                 break;
 212:Generated_Source\PSoC4/LCD_BarGraph.c ****             }
 213:Generated_Source\PSoC4/LCD_BarGraph.c ****         }
 214:Generated_Source\PSoC4/LCD_BarGraph.c **** 
 215:Generated_Source\PSoC4/LCD_BarGraph.c ****         if(((((int8) row) - ((int8) count8)) >= 0) && (fullChars < maxCharacters))
 159              		.loc 1 215 0
 160 0046 73B2     		sxtb	r3, r6
 161 0048 62B2     		sxtb	r2, r4
 162 004a 9B1A     		subs	r3, r3, r2
 163 004c 25D4     		bmi	.L4
 164              		.loc 1 215 0 is_stmt 0 discriminator 1
 165 004e BD42     		cmp	r5, r7
 166 0050 23D9     		bls	.L4
 216:Generated_Source\PSoC4/LCD_BarGraph.c ****         {
 217:Generated_Source\PSoC4/LCD_BarGraph.c ****             /* Write remaining pixels */
 218:Generated_Source\PSoC4/LCD_BarGraph.c ****             if(remainingPixels == 0u)
 167              		.loc 1 218 0 is_stmt 1
 168 0052 4B46     		mov	r3, r9
 169 0054 002B     		cmp	r3, #0
 170 0056 03D1     		bne	.L10
 219:Generated_Source\PSoC4/LCD_BarGraph.c ****             {
 220:Generated_Source\PSoC4/LCD_BarGraph.c ****                 LCD_WriteData((uint8) ' ');
 171              		.loc 1 220 0
 172 0058 2020     		movs	r0, #32
 173 005a FFF7FEFF 		bl	LCD_WriteData
 174              	.LVL23:
 175 005e 04E0     		b	.L11
 176              	.L10:
ARM GAS  C:\Users\juano\AppData\Local\Temp\ccicpn4E.s 			page 8


 221:Generated_Source\PSoC4/LCD_BarGraph.c ****             }
 222:Generated_Source\PSoC4/LCD_BarGraph.c ****             else
 223:Generated_Source\PSoC4/LCD_BarGraph.c ****             {
 224:Generated_Source\PSoC4/LCD_BarGraph.c ****                 LCD_WriteData(remainingPixels - 1u);
 177              		.loc 1 224 0
 178 0060 4B46     		mov	r3, r9
 179 0062 013B     		subs	r3, r3, #1
 180 0064 D8B2     		uxtb	r0, r3
 181 0066 FFF7FEFF 		bl	LCD_WriteData
 182              	.LVL24:
 183              	.L11:
 225:Generated_Source\PSoC4/LCD_BarGraph.c ****             }
 226:Generated_Source\PSoC4/LCD_BarGraph.c **** 
 227:Generated_Source\PSoC4/LCD_BarGraph.c ****             currentRow = ((int8) row) - ((int8) count8) - 1;
 184              		.loc 1 227 0
 185 006a 341B     		subs	r4, r6, r4
 186              	.LVL25:
 187 006c 013C     		subs	r4, r4, #1
 188 006e 64B2     		sxtb	r4, r4
 189              	.LVL26:
 228:Generated_Source\PSoC4/LCD_BarGraph.c **** 
 229:Generated_Source\PSoC4/LCD_BarGraph.c ****             if(currentRow >= 0)
 190              		.loc 1 229 0
 191 0070 002C     		cmp	r4, #0
 192 0072 0DDA     		bge	.L15
 193 0074 11E0     		b	.L4
 194              	.LVL27:
 195              	.L13:
 230:Generated_Source\PSoC4/LCD_BarGraph.c ****             {
 231:Generated_Source\PSoC4/LCD_BarGraph.c ****                 /* Move up one row and fill with whitespace till top of bar graph */
 232:Generated_Source\PSoC4/LCD_BarGraph.c ****                 for(count8 = 0u; count8 < (maxCharacters - fullChars - 1u); count8++)
 233:Generated_Source\PSoC4/LCD_BarGraph.c ****                 {
 234:Generated_Source\PSoC4/LCD_BarGraph.c ****                     LCD_Position((uint8)currentRow, column);
 196              		.loc 1 234 0 discriminator 3
 197 0076 E4B2     		uxtb	r4, r4
 198 0078 0199     		ldr	r1, [sp, #4]
 199 007a 2000     		movs	r0, r4
 200 007c FFF7FEFF 		bl	LCD_Position
 201              	.LVL28:
 235:Generated_Source\PSoC4/LCD_BarGraph.c ****                     LCD_WriteData((uint8) ' ');
 202              		.loc 1 235 0 discriminator 3
 203 0080 2020     		movs	r0, #32
 204 0082 FFF7FEFF 		bl	LCD_WriteData
 205              	.LVL29:
 236:Generated_Source\PSoC4/LCD_BarGraph.c ****                     currentRow --;
 206              		.loc 1 236 0 discriminator 3
 207 0086 013C     		subs	r4, r4, #1
 208              	.LVL30:
 209 0088 64B2     		sxtb	r4, r4
 210              	.LVL31:
 232:Generated_Source\PSoC4/LCD_BarGraph.c ****                 {
 211              		.loc 1 232 0 discriminator 3
 212 008a 0136     		adds	r6, r6, #1
 213              	.LVL32:
 214 008c F6B2     		uxtb	r6, r6
 215              	.LVL33:
 216 008e 00E0     		b	.L12
ARM GAS  C:\Users\juano\AppData\Local\Temp\ccicpn4E.s 			page 9


 217              	.LVL34:
 218              	.L15:
 219 0090 0026     		movs	r6, #0
 220              	.L12:
 221              	.LVL35:
 232:Generated_Source\PSoC4/LCD_BarGraph.c ****                 {
 222              		.loc 1 232 0 is_stmt 0 discriminator 1
 223 0092 EB1B     		subs	r3, r5, r7
 224 0094 013B     		subs	r3, r3, #1
 225 0096 9E42     		cmp	r6, r3
 226 0098 EDD3     		bcc	.L13
 227              	.LVL36:
 228              	.L4:
 237:Generated_Source\PSoC4/LCD_BarGraph.c ****                 }
 238:Generated_Source\PSoC4/LCD_BarGraph.c ****             }
 239:Generated_Source\PSoC4/LCD_BarGraph.c ****         }
 240:Generated_Source\PSoC4/LCD_BarGraph.c ****     }
 229              		.loc 1 240 0 is_stmt 1
 230 009a 02B0     		add	sp, sp, #8
 231              		@ sp needed
 232              	.LVL37:
 233              	.LVL38:
 234 009c 04BC     		pop	{r2}
 235 009e 9146     		mov	r9, r2
 236 00a0 F0BD     		pop	{r4, r5, r6, r7, pc}
 237              		.cfi_endproc
 238              	.LFE1:
 239              		.size	LCD_DrawVerticalBG, .-LCD_DrawVerticalBG
 240              		.global	LCD_customFonts
 241 00a2 C046     		.section	.rodata
 242              		.align	2
 243              		.type	LCD_customFonts, %object
 244              		.size	LCD_customFonts, 64
 245              	LCD_customFonts:
 246 0000 00       		.byte	0
 247 0001 00       		.byte	0
 248 0002 00       		.byte	0
 249 0003 00       		.byte	0
 250 0004 00       		.byte	0
 251 0005 00       		.byte	0
 252 0006 00       		.byte	0
 253 0007 1F       		.byte	31
 254 0008 00       		.byte	0
 255 0009 00       		.byte	0
 256 000a 00       		.byte	0
 257 000b 00       		.byte	0
 258 000c 00       		.byte	0
 259 000d 00       		.byte	0
 260 000e 1F       		.byte	31
 261 000f 1F       		.byte	31
 262 0010 00       		.byte	0
 263 0011 00       		.byte	0
 264 0012 00       		.byte	0
 265 0013 00       		.byte	0
 266 0014 00       		.byte	0
 267 0015 1F       		.byte	31
 268 0016 1F       		.byte	31
ARM GAS  C:\Users\juano\AppData\Local\Temp\ccicpn4E.s 			page 10


 269 0017 1F       		.byte	31
 270 0018 00       		.byte	0
 271 0019 00       		.byte	0
 272 001a 00       		.byte	0
 273 001b 00       		.byte	0
 274 001c 1F       		.byte	31
 275 001d 1F       		.byte	31
 276 001e 1F       		.byte	31
 277 001f 1F       		.byte	31
 278 0020 00       		.byte	0
 279 0021 00       		.byte	0
 280 0022 00       		.byte	0
 281 0023 1F       		.byte	31
 282 0024 1F       		.byte	31
 283 0025 1F       		.byte	31
 284 0026 1F       		.byte	31
 285 0027 1F       		.byte	31
 286 0028 00       		.byte	0
 287 0029 00       		.byte	0
 288 002a 1F       		.byte	31
 289 002b 1F       		.byte	31
 290 002c 1F       		.byte	31
 291 002d 1F       		.byte	31
 292 002e 1F       		.byte	31
 293 002f 1F       		.byte	31
 294 0030 00       		.byte	0
 295 0031 1F       		.byte	31
 296 0032 1F       		.byte	31
 297 0033 1F       		.byte	31
 298 0034 1F       		.byte	31
 299 0035 1F       		.byte	31
 300 0036 1F       		.byte	31
 301 0037 1F       		.byte	31
 302 0038 1F       		.byte	31
 303 0039 1F       		.byte	31
 304 003a 1F       		.byte	31
 305 003b 1F       		.byte	31
 306 003c 1F       		.byte	31
 307 003d 1F       		.byte	31
 308 003e 1F       		.byte	31
 309 003f 1F       		.byte	31
 310              		.text
 311              	.Letext0:
 312              		.file 2 "Generated_Source\\PSoC4\\cytypes.h"
 313              		.file 3 "Generated_Source\\PSoC4\\LCD.h"
 314              		.section	.debug_info,"",%progbits
 315              	.Ldebug_info0:
 316 0000 9C020000 		.4byte	0x29c
 317 0004 0400     		.2byte	0x4
 318 0006 00000000 		.4byte	.Ldebug_abbrev0
 319 000a 04       		.byte	0x4
 320 000b 01       		.uleb128 0x1
 321 000c 6B000000 		.4byte	.LASF30
 322 0010 0C       		.byte	0xc
 323 0011 3F000000 		.4byte	.LASF31
 324 0015 FF000000 		.4byte	.LASF32
 325 0019 00000000 		.4byte	.Ldebug_ranges0+0
ARM GAS  C:\Users\juano\AppData\Local\Temp\ccicpn4E.s 			page 11


 326 001d 00000000 		.4byte	0
 327 0021 00000000 		.4byte	.Ldebug_line0
 328 0025 02       		.uleb128 0x2
 329 0026 01       		.byte	0x1
 330 0027 06       		.byte	0x6
 331 0028 FD010000 		.4byte	.LASF0
 332 002c 02       		.uleb128 0x2
 333 002d 01       		.byte	0x1
 334 002e 08       		.byte	0x8
 335 002f DF010000 		.4byte	.LASF1
 336 0033 02       		.uleb128 0x2
 337 0034 02       		.byte	0x2
 338 0035 05       		.byte	0x5
 339 0036 2C000000 		.4byte	.LASF2
 340 003a 02       		.uleb128 0x2
 341 003b 02       		.byte	0x2
 342 003c 07       		.byte	0x7
 343 003d 3B020000 		.4byte	.LASF3
 344 0041 02       		.uleb128 0x2
 345 0042 04       		.byte	0x4
 346 0043 05       		.byte	0x5
 347 0044 AD010000 		.4byte	.LASF4
 348 0048 02       		.uleb128 0x2
 349 0049 04       		.byte	0x4
 350 004a 07       		.byte	0x7
 351 004b 63020000 		.4byte	.LASF5
 352 004f 02       		.uleb128 0x2
 353 0050 08       		.byte	0x8
 354 0051 05       		.byte	0x5
 355 0052 9A010000 		.4byte	.LASF6
 356 0056 02       		.uleb128 0x2
 357 0057 08       		.byte	0x8
 358 0058 07       		.byte	0x7
 359 0059 09020000 		.4byte	.LASF7
 360 005d 03       		.uleb128 0x3
 361 005e 04       		.byte	0x4
 362 005f 05       		.byte	0x5
 363 0060 696E7400 		.ascii	"int\000"
 364 0064 02       		.uleb128 0x2
 365 0065 04       		.byte	0x4
 366 0066 07       		.byte	0x7
 367 0067 20020000 		.4byte	.LASF8
 368 006b 04       		.uleb128 0x4
 369 006c F9000000 		.4byte	.LASF9
 370 0070 02       		.byte	0x2
 371 0071 FB01     		.2byte	0x1fb
 372 0073 2C000000 		.4byte	0x2c
 373 0077 04       		.uleb128 0x4
 374 0078 A8010000 		.4byte	.LASF10
 375 007c 02       		.byte	0x2
 376 007d FE01     		.2byte	0x1fe
 377 007f 25000000 		.4byte	0x25
 378 0083 02       		.uleb128 0x2
 379 0084 04       		.byte	0x4
 380 0085 04       		.byte	0x4
 381 0086 94010000 		.4byte	.LASF11
 382 008a 02       		.uleb128 0x2
ARM GAS  C:\Users\juano\AppData\Local\Temp\ccicpn4E.s 			page 12


 383 008b 08       		.byte	0x8
 384 008c 04       		.byte	0x4
 385 008d 75020000 		.4byte	.LASF12
 386 0091 02       		.uleb128 0x2
 387 0092 01       		.byte	0x1
 388 0093 08       		.byte	0x8
 389 0094 4E020000 		.4byte	.LASF13
 390 0098 05       		.uleb128 0x5
 391 0099 C1010000 		.4byte	.LASF14
 392 009d 01       		.byte	0x1
 393 009e 41       		.byte	0x41
 394 009f 00000000 		.4byte	.LFB0
 395 00a3 2C000000 		.4byte	.LFE0-.LFB0
 396 00a7 01       		.uleb128 0x1
 397 00a8 9C       		.byte	0x9c
 398 00a9 0B010000 		.4byte	0x10b
 399 00ad 06       		.uleb128 0x6
 400 00ae B6010000 		.4byte	.LASF16
 401 00b2 01       		.byte	0x1
 402 00b3 41       		.byte	0x41
 403 00b4 0B010000 		.4byte	0x10b
 404 00b8 00000000 		.4byte	.LLST0
 405 00bc 07       		.uleb128 0x7
 406 00bd 00000000 		.4byte	.LASF20
 407 00c1 01       		.byte	0x1
 408 00c2 43       		.byte	0x43
 409 00c3 6B000000 		.4byte	0x6b
 410 00c7 2C000000 		.4byte	.LLST1
 411 00cb 08       		.uleb128 0x8
 412 00cc 08000000 		.4byte	.LVL1
 413 00d0 73020000 		.4byte	0x273
 414 00d4 09       		.uleb128 0x9
 415 00d5 0E000000 		.4byte	.LVL2
 416 00d9 7E020000 		.4byte	0x27e
 417 00dd E8000000 		.4byte	0xe8
 418 00e1 0A       		.uleb128 0xa
 419 00e2 01       		.uleb128 0x1
 420 00e3 50       		.byte	0x50
 421 00e4 02       		.uleb128 0x2
 422 00e5 08       		.byte	0x8
 423 00e6 40       		.byte	0x40
 424 00e7 00       		.byte	0
 425 00e8 08       		.uleb128 0x8
 426 00e9 18000000 		.4byte	.LVL4
 427 00ed 89020000 		.4byte	0x289
 428 00f1 08       		.uleb128 0x8
 429 00f2 24000000 		.4byte	.LVL7
 430 00f6 73020000 		.4byte	0x273
 431 00fa 0B       		.uleb128 0xb
 432 00fb 2A000000 		.4byte	.LVL8
 433 00ff 7E020000 		.4byte	0x27e
 434 0103 0A       		.uleb128 0xa
 435 0104 01       		.uleb128 0x1
 436 0105 50       		.byte	0x50
 437 0106 02       		.uleb128 0x2
 438 0107 09       		.byte	0x9
 439 0108 80       		.byte	0x80
ARM GAS  C:\Users\juano\AppData\Local\Temp\ccicpn4E.s 			page 13


 440 0109 00       		.byte	0
 441 010a 00       		.byte	0
 442 010b 0C       		.uleb128 0xc
 443 010c 04       		.byte	0x4
 444 010d 11010000 		.4byte	0x111
 445 0111 0D       		.uleb128 0xd
 446 0112 6B000000 		.4byte	0x6b
 447 0116 05       		.uleb128 0x5
 448 0117 9B020000 		.4byte	.LASF15
 449 011b 01       		.byte	0x1
 450 011c AC       		.byte	0xac
 451 011d 00000000 		.4byte	.LFB1
 452 0121 A2000000 		.4byte	.LFE1-.LFB1
 453 0125 01       		.uleb128 0x1
 454 0126 9C       		.byte	0x9c
 455 0127 46020000 		.4byte	0x246
 456 012b 0E       		.uleb128 0xe
 457 012c 726F7700 		.ascii	"row\000"
 458 0130 01       		.byte	0x1
 459 0131 AC       		.byte	0xac
 460 0132 6B000000 		.4byte	0x6b
 461 0136 56000000 		.4byte	.LLST2
 462 013a 06       		.uleb128 0x6
 463 013b 14000000 		.4byte	.LASF17
 464 013f 01       		.byte	0x1
 465 0140 AC       		.byte	0xac
 466 0141 6B000000 		.4byte	0x6b
 467 0145 77000000 		.4byte	.LLST3
 468 0149 06       		.uleb128 0x6
 469 014a 2D020000 		.4byte	.LASF18
 470 014e 01       		.byte	0x1
 471 014f AC       		.byte	0xac
 472 0150 6B000000 		.4byte	0x6b
 473 0154 98000000 		.4byte	.LLST4
 474 0158 06       		.uleb128 0x6
 475 0159 65000000 		.4byte	.LASF19
 476 015d 01       		.byte	0x1
 477 015e AC       		.byte	0xac
 478 015f 6B000000 		.4byte	0x6b
 479 0163 B9000000 		.4byte	.LLST5
 480 0167 07       		.uleb128 0x7
 481 0168 87020000 		.4byte	.LASF21
 482 016c 01       		.byte	0x1
 483 016d B0       		.byte	0xb0
 484 016e 6B000000 		.4byte	0x6b
 485 0172 DA000000 		.4byte	.LLST6
 486 0176 07       		.uleb128 0x7
 487 0177 7C020000 		.4byte	.LASF22
 488 017b 01       		.byte	0x1
 489 017c B2       		.byte	0xb2
 490 017d 77000000 		.4byte	0x77
 491 0181 25010000 		.4byte	.LLST7
 492 0185 07       		.uleb128 0x7
 493 0186 D5010000 		.4byte	.LASF23
 494 018a 01       		.byte	0x1
 495 018b B3       		.byte	0xb3
 496 018c 6B000000 		.4byte	0x6b
ARM GAS  C:\Users\juano\AppData\Local\Temp\ccicpn4E.s 			page 14


 497 0190 50010000 		.4byte	.LLST8
 498 0194 07       		.uleb128 0x7
 499 0195 ED010000 		.4byte	.LASF24
 500 0199 01       		.byte	0x1
 501 019a B4       		.byte	0xb4
 502 019b 6B000000 		.4byte	0x6b
 503 019f 6E010000 		.4byte	.LLST9
 504 01a3 09       		.uleb128 0x9
 505 01a4 1C000000 		.4byte	.LVL16
 506 01a8 94020000 		.4byte	0x294
 507 01ac BF010000 		.4byte	0x1bf
 508 01b0 0A       		.uleb128 0xa
 509 01b1 01       		.uleb128 0x1
 510 01b2 50       		.byte	0x50
 511 01b3 02       		.uleb128 0x2
 512 01b4 76       		.byte	0x76
 513 01b5 00       		.sleb128 0
 514 01b6 0A       		.uleb128 0xa
 515 01b7 01       		.uleb128 0x1
 516 01b8 51       		.byte	0x51
 517 01b9 04       		.uleb128 0x4
 518 01ba 91       		.byte	0x91
 519 01bb 64       		.sleb128 -28
 520 01bc 94       		.byte	0x94
 521 01bd 01       		.byte	0x1
 522 01be 00       		.byte	0
 523 01bf 09       		.uleb128 0x9
 524 01c0 2C000000 		.4byte	.LVL19
 525 01c4 89020000 		.4byte	0x289
 526 01c8 D2010000 		.4byte	0x1d2
 527 01cc 0A       		.uleb128 0xa
 528 01cd 01       		.uleb128 0x1
 529 01ce 50       		.byte	0x50
 530 01cf 01       		.uleb128 0x1
 531 01d0 37       		.byte	0x37
 532 01d1 00       		.byte	0
 533 01d2 09       		.uleb128 0x9
 534 01d3 42000000 		.4byte	.LVL22
 535 01d7 94020000 		.4byte	0x294
 536 01db F1010000 		.4byte	0x1f1
 537 01df 0A       		.uleb128 0xa
 538 01e0 01       		.uleb128 0x1
 539 01e1 50       		.byte	0x50
 540 01e2 05       		.uleb128 0x5
 541 01e3 76       		.byte	0x76
 542 01e4 00       		.sleb128 0
 543 01e5 74       		.byte	0x74
 544 01e6 00       		.sleb128 0
 545 01e7 1C       		.byte	0x1c
 546 01e8 0A       		.uleb128 0xa
 547 01e9 01       		.uleb128 0x1
 548 01ea 51       		.byte	0x51
 549 01eb 04       		.uleb128 0x4
 550 01ec 91       		.byte	0x91
 551 01ed 64       		.sleb128 -28
 552 01ee 94       		.byte	0x94
 553 01ef 01       		.byte	0x1
ARM GAS  C:\Users\juano\AppData\Local\Temp\ccicpn4E.s 			page 15


 554 01f0 00       		.byte	0
 555 01f1 09       		.uleb128 0x9
 556 01f2 5E000000 		.4byte	.LVL23
 557 01f6 89020000 		.4byte	0x289
 558 01fa 05020000 		.4byte	0x205
 559 01fe 0A       		.uleb128 0xa
 560 01ff 01       		.uleb128 0x1
 561 0200 50       		.byte	0x50
 562 0201 02       		.uleb128 0x2
 563 0202 08       		.byte	0x8
 564 0203 20       		.byte	0x20
 565 0204 00       		.byte	0
 566 0205 09       		.uleb128 0x9
 567 0206 6A000000 		.4byte	.LVL24
 568 020a 89020000 		.4byte	0x289
 569 020e 19020000 		.4byte	0x219
 570 0212 0A       		.uleb128 0xa
 571 0213 01       		.uleb128 0x1
 572 0214 50       		.byte	0x50
 573 0215 02       		.uleb128 0x2
 574 0216 79       		.byte	0x79
 575 0217 7F       		.sleb128 -1
 576 0218 00       		.byte	0
 577 0219 09       		.uleb128 0x9
 578 021a 80000000 		.4byte	.LVL28
 579 021e 94020000 		.4byte	0x294
 580 0222 35020000 		.4byte	0x235
 581 0226 0A       		.uleb128 0xa
 582 0227 01       		.uleb128 0x1
 583 0228 50       		.byte	0x50
 584 0229 02       		.uleb128 0x2
 585 022a 74       		.byte	0x74
 586 022b 00       		.sleb128 0
 587 022c 0A       		.uleb128 0xa
 588 022d 01       		.uleb128 0x1
 589 022e 51       		.byte	0x51
 590 022f 04       		.uleb128 0x4
 591 0230 91       		.byte	0x91
 592 0231 64       		.sleb128 -28
 593 0232 94       		.byte	0x94
 594 0233 01       		.byte	0x1
 595 0234 00       		.byte	0
 596 0235 0B       		.uleb128 0xb
 597 0236 86000000 		.4byte	.LVL29
 598 023a 89020000 		.4byte	0x289
 599 023e 0A       		.uleb128 0xa
 600 023f 01       		.uleb128 0x1
 601 0240 50       		.byte	0x50
 602 0241 02       		.uleb128 0x2
 603 0242 08       		.byte	0x8
 604 0243 20       		.byte	0x20
 605 0244 00       		.byte	0
 606 0245 00       		.byte	0
 607 0246 0F       		.uleb128 0xf
 608 0247 11010000 		.4byte	0x111
 609 024b 56020000 		.4byte	0x256
 610 024f 10       		.uleb128 0x10
ARM GAS  C:\Users\juano\AppData\Local\Temp\ccicpn4E.s 			page 16


 611 0250 56020000 		.4byte	0x256
 612 0254 3F       		.byte	0x3f
 613 0255 00       		.byte	0
 614 0256 02       		.uleb128 0x2
 615 0257 04       		.byte	0x4
 616 0258 07       		.byte	0x7
 617 0259 36000000 		.4byte	.LASF25
 618 025d 11       		.uleb128 0x11
 619 025e 53020000 		.4byte	.LASF33
 620 0262 01       		.byte	0x1
 621 0263 15       		.byte	0x15
 622 0264 6E020000 		.4byte	0x26e
 623 0268 05       		.uleb128 0x5
 624 0269 03       		.byte	0x3
 625 026a 00000000 		.4byte	LCD_customFonts
 626 026e 0D       		.uleb128 0xd
 627 026f 46020000 		.4byte	0x246
 628 0273 12       		.uleb128 0x12
 629 0274 08000000 		.4byte	.LASF26
 630 0278 08000000 		.4byte	.LASF26
 631 027c 03       		.byte	0x3
 632 027d 3F       		.byte	0x3f
 633 027e 12       		.uleb128 0x12
 634 027f 1B000000 		.4byte	.LASF27
 635 0283 1B000000 		.4byte	.LASF27
 636 0287 03       		.byte	0x3
 637 0288 3A       		.byte	0x3a
 638 0289 12       		.uleb128 0x12
 639 028a AE020000 		.4byte	.LASF28
 640 028e AE020000 		.4byte	.LASF28
 641 0292 03       		.byte	0x3
 642 0293 3B       		.byte	0x3b
 643 0294 12       		.uleb128 0x12
 644 0295 8E020000 		.4byte	.LASF29
 645 0299 8E020000 		.4byte	.LASF29
 646 029d 03       		.byte	0x3
 647 029e 3D       		.byte	0x3d
 648 029f 00       		.byte	0
 649              		.section	.debug_abbrev,"",%progbits
 650              	.Ldebug_abbrev0:
 651 0000 01       		.uleb128 0x1
 652 0001 11       		.uleb128 0x11
 653 0002 01       		.byte	0x1
 654 0003 25       		.uleb128 0x25
 655 0004 0E       		.uleb128 0xe
 656 0005 13       		.uleb128 0x13
 657 0006 0B       		.uleb128 0xb
 658 0007 03       		.uleb128 0x3
 659 0008 0E       		.uleb128 0xe
 660 0009 1B       		.uleb128 0x1b
 661 000a 0E       		.uleb128 0xe
 662 000b 55       		.uleb128 0x55
 663 000c 17       		.uleb128 0x17
 664 000d 11       		.uleb128 0x11
 665 000e 01       		.uleb128 0x1
 666 000f 10       		.uleb128 0x10
 667 0010 17       		.uleb128 0x17
ARM GAS  C:\Users\juano\AppData\Local\Temp\ccicpn4E.s 			page 17


 668 0011 00       		.byte	0
 669 0012 00       		.byte	0
 670 0013 02       		.uleb128 0x2
 671 0014 24       		.uleb128 0x24
 672 0015 00       		.byte	0
 673 0016 0B       		.uleb128 0xb
 674 0017 0B       		.uleb128 0xb
 675 0018 3E       		.uleb128 0x3e
 676 0019 0B       		.uleb128 0xb
 677 001a 03       		.uleb128 0x3
 678 001b 0E       		.uleb128 0xe
 679 001c 00       		.byte	0
 680 001d 00       		.byte	0
 681 001e 03       		.uleb128 0x3
 682 001f 24       		.uleb128 0x24
 683 0020 00       		.byte	0
 684 0021 0B       		.uleb128 0xb
 685 0022 0B       		.uleb128 0xb
 686 0023 3E       		.uleb128 0x3e
 687 0024 0B       		.uleb128 0xb
 688 0025 03       		.uleb128 0x3
 689 0026 08       		.uleb128 0x8
 690 0027 00       		.byte	0
 691 0028 00       		.byte	0
 692 0029 04       		.uleb128 0x4
 693 002a 16       		.uleb128 0x16
 694 002b 00       		.byte	0
 695 002c 03       		.uleb128 0x3
 696 002d 0E       		.uleb128 0xe
 697 002e 3A       		.uleb128 0x3a
 698 002f 0B       		.uleb128 0xb
 699 0030 3B       		.uleb128 0x3b
 700 0031 05       		.uleb128 0x5
 701 0032 49       		.uleb128 0x49
 702 0033 13       		.uleb128 0x13
 703 0034 00       		.byte	0
 704 0035 00       		.byte	0
 705 0036 05       		.uleb128 0x5
 706 0037 2E       		.uleb128 0x2e
 707 0038 01       		.byte	0x1
 708 0039 3F       		.uleb128 0x3f
 709 003a 19       		.uleb128 0x19
 710 003b 03       		.uleb128 0x3
 711 003c 0E       		.uleb128 0xe
 712 003d 3A       		.uleb128 0x3a
 713 003e 0B       		.uleb128 0xb
 714 003f 3B       		.uleb128 0x3b
 715 0040 0B       		.uleb128 0xb
 716 0041 27       		.uleb128 0x27
 717 0042 19       		.uleb128 0x19
 718 0043 11       		.uleb128 0x11
 719 0044 01       		.uleb128 0x1
 720 0045 12       		.uleb128 0x12
 721 0046 06       		.uleb128 0x6
 722 0047 40       		.uleb128 0x40
 723 0048 18       		.uleb128 0x18
 724 0049 9742     		.uleb128 0x2117
ARM GAS  C:\Users\juano\AppData\Local\Temp\ccicpn4E.s 			page 18


 725 004b 19       		.uleb128 0x19
 726 004c 01       		.uleb128 0x1
 727 004d 13       		.uleb128 0x13
 728 004e 00       		.byte	0
 729 004f 00       		.byte	0
 730 0050 06       		.uleb128 0x6
 731 0051 05       		.uleb128 0x5
 732 0052 00       		.byte	0
 733 0053 03       		.uleb128 0x3
 734 0054 0E       		.uleb128 0xe
 735 0055 3A       		.uleb128 0x3a
 736 0056 0B       		.uleb128 0xb
 737 0057 3B       		.uleb128 0x3b
 738 0058 0B       		.uleb128 0xb
 739 0059 49       		.uleb128 0x49
 740 005a 13       		.uleb128 0x13
 741 005b 02       		.uleb128 0x2
 742 005c 17       		.uleb128 0x17
 743 005d 00       		.byte	0
 744 005e 00       		.byte	0
 745 005f 07       		.uleb128 0x7
 746 0060 34       		.uleb128 0x34
 747 0061 00       		.byte	0
 748 0062 03       		.uleb128 0x3
 749 0063 0E       		.uleb128 0xe
 750 0064 3A       		.uleb128 0x3a
 751 0065 0B       		.uleb128 0xb
 752 0066 3B       		.uleb128 0x3b
 753 0067 0B       		.uleb128 0xb
 754 0068 49       		.uleb128 0x49
 755 0069 13       		.uleb128 0x13
 756 006a 02       		.uleb128 0x2
 757 006b 17       		.uleb128 0x17
 758 006c 00       		.byte	0
 759 006d 00       		.byte	0
 760 006e 08       		.uleb128 0x8
 761 006f 898201   		.uleb128 0x4109
 762 0072 00       		.byte	0
 763 0073 11       		.uleb128 0x11
 764 0074 01       		.uleb128 0x1
 765 0075 31       		.uleb128 0x31
 766 0076 13       		.uleb128 0x13
 767 0077 00       		.byte	0
 768 0078 00       		.byte	0
 769 0079 09       		.uleb128 0x9
 770 007a 898201   		.uleb128 0x4109
 771 007d 01       		.byte	0x1
 772 007e 11       		.uleb128 0x11
 773 007f 01       		.uleb128 0x1
 774 0080 31       		.uleb128 0x31
 775 0081 13       		.uleb128 0x13
 776 0082 01       		.uleb128 0x1
 777 0083 13       		.uleb128 0x13
 778 0084 00       		.byte	0
 779 0085 00       		.byte	0
 780 0086 0A       		.uleb128 0xa
 781 0087 8A8201   		.uleb128 0x410a
ARM GAS  C:\Users\juano\AppData\Local\Temp\ccicpn4E.s 			page 19


 782 008a 00       		.byte	0
 783 008b 02       		.uleb128 0x2
 784 008c 18       		.uleb128 0x18
 785 008d 9142     		.uleb128 0x2111
 786 008f 18       		.uleb128 0x18
 787 0090 00       		.byte	0
 788 0091 00       		.byte	0
 789 0092 0B       		.uleb128 0xb
 790 0093 898201   		.uleb128 0x4109
 791 0096 01       		.byte	0x1
 792 0097 11       		.uleb128 0x11
 793 0098 01       		.uleb128 0x1
 794 0099 31       		.uleb128 0x31
 795 009a 13       		.uleb128 0x13
 796 009b 00       		.byte	0
 797 009c 00       		.byte	0
 798 009d 0C       		.uleb128 0xc
 799 009e 0F       		.uleb128 0xf
 800 009f 00       		.byte	0
 801 00a0 0B       		.uleb128 0xb
 802 00a1 0B       		.uleb128 0xb
 803 00a2 49       		.uleb128 0x49
 804 00a3 13       		.uleb128 0x13
 805 00a4 00       		.byte	0
 806 00a5 00       		.byte	0
 807 00a6 0D       		.uleb128 0xd
 808 00a7 26       		.uleb128 0x26
 809 00a8 00       		.byte	0
 810 00a9 49       		.uleb128 0x49
 811 00aa 13       		.uleb128 0x13
 812 00ab 00       		.byte	0
 813 00ac 00       		.byte	0
 814 00ad 0E       		.uleb128 0xe
 815 00ae 05       		.uleb128 0x5
 816 00af 00       		.byte	0
 817 00b0 03       		.uleb128 0x3
 818 00b1 08       		.uleb128 0x8
 819 00b2 3A       		.uleb128 0x3a
 820 00b3 0B       		.uleb128 0xb
 821 00b4 3B       		.uleb128 0x3b
 822 00b5 0B       		.uleb128 0xb
 823 00b6 49       		.uleb128 0x49
 824 00b7 13       		.uleb128 0x13
 825 00b8 02       		.uleb128 0x2
 826 00b9 17       		.uleb128 0x17
 827 00ba 00       		.byte	0
 828 00bb 00       		.byte	0
 829 00bc 0F       		.uleb128 0xf
 830 00bd 01       		.uleb128 0x1
 831 00be 01       		.byte	0x1
 832 00bf 49       		.uleb128 0x49
 833 00c0 13       		.uleb128 0x13
 834 00c1 01       		.uleb128 0x1
 835 00c2 13       		.uleb128 0x13
 836 00c3 00       		.byte	0
 837 00c4 00       		.byte	0
 838 00c5 10       		.uleb128 0x10
ARM GAS  C:\Users\juano\AppData\Local\Temp\ccicpn4E.s 			page 20


 839 00c6 21       		.uleb128 0x21
 840 00c7 00       		.byte	0
 841 00c8 49       		.uleb128 0x49
 842 00c9 13       		.uleb128 0x13
 843 00ca 2F       		.uleb128 0x2f
 844 00cb 0B       		.uleb128 0xb
 845 00cc 00       		.byte	0
 846 00cd 00       		.byte	0
 847 00ce 11       		.uleb128 0x11
 848 00cf 34       		.uleb128 0x34
 849 00d0 00       		.byte	0
 850 00d1 03       		.uleb128 0x3
 851 00d2 0E       		.uleb128 0xe
 852 00d3 3A       		.uleb128 0x3a
 853 00d4 0B       		.uleb128 0xb
 854 00d5 3B       		.uleb128 0x3b
 855 00d6 0B       		.uleb128 0xb
 856 00d7 49       		.uleb128 0x49
 857 00d8 13       		.uleb128 0x13
 858 00d9 3F       		.uleb128 0x3f
 859 00da 19       		.uleb128 0x19
 860 00db 02       		.uleb128 0x2
 861 00dc 18       		.uleb128 0x18
 862 00dd 00       		.byte	0
 863 00de 00       		.byte	0
 864 00df 12       		.uleb128 0x12
 865 00e0 2E       		.uleb128 0x2e
 866 00e1 00       		.byte	0
 867 00e2 3F       		.uleb128 0x3f
 868 00e3 19       		.uleb128 0x19
 869 00e4 3C       		.uleb128 0x3c
 870 00e5 19       		.uleb128 0x19
 871 00e6 6E       		.uleb128 0x6e
 872 00e7 0E       		.uleb128 0xe
 873 00e8 03       		.uleb128 0x3
 874 00e9 0E       		.uleb128 0xe
 875 00ea 3A       		.uleb128 0x3a
 876 00eb 0B       		.uleb128 0xb
 877 00ec 3B       		.uleb128 0x3b
 878 00ed 0B       		.uleb128 0xb
 879 00ee 00       		.byte	0
 880 00ef 00       		.byte	0
 881 00f0 00       		.byte	0
 882              		.section	.debug_loc,"",%progbits
 883              	.Ldebug_loc0:
 884              	.LLST0:
 885 0000 00000000 		.4byte	.LVL0
 886 0004 07000000 		.4byte	.LVL1-1
 887 0008 0100     		.2byte	0x1
 888 000a 50       		.byte	0x50
 889 000b 07000000 		.4byte	.LVL1-1
 890 000f 2A000000 		.4byte	.LVL10
 891 0013 0100     		.2byte	0x1
 892 0015 55       		.byte	0x55
 893 0016 2A000000 		.4byte	.LVL10
 894 001a 2C000000 		.4byte	.LFE0
 895 001e 0400     		.2byte	0x4
ARM GAS  C:\Users\juano\AppData\Local\Temp\ccicpn4E.s 			page 21


 896 0020 F3       		.byte	0xf3
 897 0021 01       		.uleb128 0x1
 898 0022 50       		.byte	0x50
 899 0023 9F       		.byte	0x9f
 900 0024 00000000 		.4byte	0
 901 0028 00000000 		.4byte	0
 902              	.LLST1:
 903 002c 0E000000 		.4byte	.LVL2
 904 0030 12000000 		.4byte	.LVL3
 905 0034 0200     		.2byte	0x2
 906 0036 30       		.byte	0x30
 907 0037 9F       		.byte	0x9f
 908 0038 12000000 		.4byte	.LVL3
 909 003c 1A000000 		.4byte	.LVL5
 910 0040 0100     		.2byte	0x1
 911 0042 54       		.byte	0x54
 912 0043 1C000000 		.4byte	.LVL6
 913 0047 2A000000 		.4byte	.LVL9
 914 004b 0100     		.2byte	0x1
 915 004d 54       		.byte	0x54
 916 004e 00000000 		.4byte	0
 917 0052 00000000 		.4byte	0
 918              	.LLST2:
 919 0056 00000000 		.4byte	.LVL11
 920 005a 12000000 		.4byte	.LVL14
 921 005e 0100     		.2byte	0x1
 922 0060 50       		.byte	0x50
 923 0061 12000000 		.4byte	.LVL14
 924 0065 A2000000 		.4byte	.LFE1
 925 0069 0400     		.2byte	0x4
 926 006b F3       		.byte	0xf3
 927 006c 01       		.uleb128 0x1
 928 006d 50       		.byte	0x50
 929 006e 9F       		.byte	0x9f
 930 006f 00000000 		.4byte	0
 931 0073 00000000 		.4byte	0
 932              	.LLST3:
 933 0077 00000000 		.4byte	.LVL11
 934 007b 1B000000 		.4byte	.LVL16-1
 935 007f 0100     		.2byte	0x1
 936 0081 51       		.byte	0x51
 937 0082 1B000000 		.4byte	.LVL16-1
 938 0086 A2000000 		.4byte	.LFE1
 939 008a 0400     		.2byte	0x4
 940 008c F3       		.byte	0xf3
 941 008d 01       		.uleb128 0x1
 942 008e 51       		.byte	0x51
 943 008f 9F       		.byte	0x9f
 944 0090 00000000 		.4byte	0
 945 0094 00000000 		.4byte	0
 946              	.LLST4:
 947 0098 00000000 		.4byte	.LVL11
 948 009c 1B000000 		.4byte	.LVL16-1
 949 00a0 0100     		.2byte	0x1
 950 00a2 52       		.byte	0x52
 951 00a3 1B000000 		.4byte	.LVL16-1
 952 00a7 A2000000 		.4byte	.LFE1
ARM GAS  C:\Users\juano\AppData\Local\Temp\ccicpn4E.s 			page 22


 953 00ab 0400     		.2byte	0x4
 954 00ad F3       		.byte	0xf3
 955 00ae 01       		.uleb128 0x1
 956 00af 52       		.byte	0x52
 957 00b0 9F       		.byte	0x9f
 958 00b1 00000000 		.4byte	0
 959 00b5 00000000 		.4byte	0
 960              	.LLST5:
 961 00b9 00000000 		.4byte	.LVL11
 962 00bd 1B000000 		.4byte	.LVL16-1
 963 00c1 0100     		.2byte	0x1
 964 00c3 53       		.byte	0x53
 965 00c4 1B000000 		.4byte	.LVL16-1
 966 00c8 A2000000 		.4byte	.LFE1
 967 00cc 0400     		.2byte	0x4
 968 00ce F3       		.byte	0xf3
 969 00cf 01       		.uleb128 0x1
 970 00d0 53       		.byte	0x53
 971 00d1 9F       		.byte	0x9f
 972 00d2 00000000 		.4byte	0
 973 00d6 00000000 		.4byte	0
 974              	.LLST6:
 975 00da 0E000000 		.4byte	.LVL12
 976 00de 26000000 		.4byte	.LVL18
 977 00e2 0200     		.2byte	0x2
 978 00e4 30       		.byte	0x30
 979 00e5 9F       		.byte	0x9f
 980 00e6 26000000 		.4byte	.LVL18
 981 00ea 2E000000 		.4byte	.LVL20
 982 00ee 0100     		.2byte	0x1
 983 00f0 54       		.byte	0x54
 984 00f1 30000000 		.4byte	.LVL21
 985 00f5 6C000000 		.4byte	.LVL25
 986 00f9 0100     		.2byte	0x1
 987 00fb 54       		.byte	0x54
 988 00fc 76000000 		.4byte	.LVL27
 989 0100 8C000000 		.4byte	.LVL32
 990 0104 0100     		.2byte	0x1
 991 0106 56       		.byte	0x56
 992 0107 8E000000 		.4byte	.LVL33
 993 010b 90000000 		.4byte	.LVL34
 994 010f 0100     		.2byte	0x1
 995 0111 56       		.byte	0x56
 996 0112 92000000 		.4byte	.LVL35
 997 0116 9A000000 		.4byte	.LVL36
 998 011a 0100     		.2byte	0x1
 999 011c 56       		.byte	0x56
 1000 011d 00000000 		.4byte	0
 1001 0121 00000000 		.4byte	0
 1002              	.LLST7:
 1003 0125 70000000 		.4byte	.LVL26
 1004 0129 88000000 		.4byte	.LVL30
 1005 012d 0100     		.2byte	0x1
 1006 012f 54       		.byte	0x54
 1007 0130 88000000 		.4byte	.LVL30
 1008 0134 8A000000 		.4byte	.LVL31
 1009 0138 0300     		.2byte	0x3
ARM GAS  C:\Users\juano\AppData\Local\Temp\ccicpn4E.s 			page 23


 1010 013a 74       		.byte	0x74
 1011 013b 01       		.sleb128 1
 1012 013c 9F       		.byte	0x9f
 1013 013d 8A000000 		.4byte	.LVL31
 1014 0141 9A000000 		.4byte	.LVL36
 1015 0145 0100     		.2byte	0x1
 1016 0147 54       		.byte	0x54
 1017 0148 00000000 		.4byte	0
 1018 014c 00000000 		.4byte	0
 1019              	.LLST8:
 1020 0150 10000000 		.4byte	.LVL13
 1021 0154 22000000 		.4byte	.LVL17
 1022 0158 0100     		.2byte	0x1
 1023 015a 57       		.byte	0x57
 1024 015b 26000000 		.4byte	.LVL18
 1025 015f 9C000000 		.4byte	.LVL37
 1026 0163 0100     		.2byte	0x1
 1027 0165 57       		.byte	0x57
 1028 0166 00000000 		.4byte	0
 1029 016a 00000000 		.4byte	0
 1030              	.LLST9:
 1031 016e 16000000 		.4byte	.LVL15
 1032 0172 9C000000 		.4byte	.LVL38
 1033 0176 0100     		.2byte	0x1
 1034 0178 59       		.byte	0x59
 1035 0179 00000000 		.4byte	0
 1036 017d 00000000 		.4byte	0
 1037              		.section	.debug_aranges,"",%progbits
 1038 0000 24000000 		.4byte	0x24
 1039 0004 0200     		.2byte	0x2
 1040 0006 00000000 		.4byte	.Ldebug_info0
 1041 000a 04       		.byte	0x4
 1042 000b 00       		.byte	0
 1043 000c 0000     		.2byte	0
 1044 000e 0000     		.2byte	0
 1045 0010 00000000 		.4byte	.LFB0
 1046 0014 2C000000 		.4byte	.LFE0-.LFB0
 1047 0018 00000000 		.4byte	.LFB1
 1048 001c A2000000 		.4byte	.LFE1-.LFB1
 1049 0020 00000000 		.4byte	0
 1050 0024 00000000 		.4byte	0
 1051              		.section	.debug_ranges,"",%progbits
 1052              	.Ldebug_ranges0:
 1053 0000 00000000 		.4byte	.LFB0
 1054 0004 2C000000 		.4byte	.LFE0
 1055 0008 00000000 		.4byte	.LFB1
 1056 000c A2000000 		.4byte	.LFE1
 1057 0010 00000000 		.4byte	0
 1058 0014 00000000 		.4byte	0
 1059              		.section	.debug_line,"",%progbits
 1060              	.Ldebug_line0:
 1061 0000 C8000000 		.section	.debug_str,"MS",%progbits,1
 1061      02005200 
 1061      00000201 
 1061      FB0E0D00 
 1061      01010101 
 1062              	.LASF20:
ARM GAS  C:\Users\juano\AppData\Local\Temp\ccicpn4E.s 			page 24


 1063 0000 696E6465 		.ascii	"indexU8\000"
 1063      78553800 
 1064              	.LASF26:
 1065 0008 4C43445F 		.ascii	"LCD_IsReady\000"
 1065      49735265 
 1065      61647900 
 1066              	.LASF17:
 1067 0014 636F6C75 		.ascii	"column\000"
 1067      6D6E00
 1068              	.LASF27:
 1069 001b 4C43445F 		.ascii	"LCD_WriteControl\000"
 1069      57726974 
 1069      65436F6E 
 1069      74726F6C 
 1069      00
 1070              	.LASF2:
 1071 002c 73686F72 		.ascii	"short int\000"
 1071      7420696E 
 1071      7400
 1072              	.LASF25:
 1073 0036 73697A65 		.ascii	"sizetype\000"
 1073      74797065 
 1073      00
 1074              	.LASF31:
 1075 003f 47656E65 		.ascii	"Generated_Source\\PSoC4\\LCD_BarGraph.c\000"
 1075      72617465 
 1075      645F536F 
 1075      75726365 
 1075      5C50536F 
 1076              	.LASF19:
 1077 0065 76616C75 		.ascii	"value\000"
 1077      6500
 1078              	.LASF30:
 1079 006b 474E5520 		.ascii	"GNU C11 5.4.1 20160609 (release) [ARM/embedded-5-br"
 1079      43313120 
 1079      352E342E 
 1079      31203230 
 1079      31363036 
 1080 009e 616E6368 		.ascii	"anch revision 237715] -mcpu=cortex-m0 -mthumb -g -O"
 1080      20726576 
 1080      6973696F 
 1080      6E203233 
 1080      37373135 
 1081 00d1 67202D66 		.ascii	"g -ffunction-sections -ffat-lto-objects\000"
 1081      66756E63 
 1081      74696F6E 
 1081      2D736563 
 1081      74696F6E 
 1082              	.LASF9:
 1083 00f9 75696E74 		.ascii	"uint8\000"
 1083      3800
 1084              	.LASF32:
 1085 00ff 433A5C55 		.ascii	"C:\\Users\\juano\\Documents\\JuanPabloOviedoPerdomo"
 1085      73657273 
 1085      5C6A7561 
 1085      6E6F5C44 
 1085      6F63756D 
ARM GAS  C:\Users\juano\AppData\Local\Temp\ccicpn4E.s 			page 25


 1086 012e 5C756E69 		.ascii	"\\universidad\\posgrados\\MCIC\\segundoSemestre\\Ap"
 1086      76657273 
 1086      69646164 
 1086      5C706F73 
 1086      67726164 
 1087 015c 6C696361 		.ascii	"licacionesWeb\\ProyectoFinal\\Actuadores\\actuadore"
 1087      63696F6E 
 1087      65735765 
 1087      625C5072 
 1087      6F796563 
 1088 018c 732E6379 		.ascii	"s.cydsn\000"
 1088      64736E00 
 1089              	.LASF11:
 1090 0194 666C6F61 		.ascii	"float\000"
 1090      7400
 1091              	.LASF6:
 1092 019a 6C6F6E67 		.ascii	"long long int\000"
 1092      206C6F6E 
 1092      6720696E 
 1092      7400
 1093              	.LASF10:
 1094 01a8 696E7438 		.ascii	"int8\000"
 1094      00
 1095              	.LASF4:
 1096 01ad 6C6F6E67 		.ascii	"long int\000"
 1096      20696E74 
 1096      00
 1097              	.LASF16:
 1098 01b6 63757374 		.ascii	"customData\000"
 1098      6F6D4461 
 1098      746100
 1099              	.LASF14:
 1100 01c1 4C43445F 		.ascii	"LCD_LoadCustomFonts\000"
 1100      4C6F6164 
 1100      43757374 
 1100      6F6D466F 
 1100      6E747300 
 1101              	.LASF23:
 1102 01d5 66756C6C 		.ascii	"fullChars\000"
 1102      43686172 
 1102      7300
 1103              	.LASF1:
 1104 01df 756E7369 		.ascii	"unsigned char\000"
 1104      676E6564 
 1104      20636861 
 1104      7200
 1105              	.LASF24:
 1106 01ed 72656D61 		.ascii	"remainingPixels\000"
 1106      696E696E 
 1106      67506978 
 1106      656C7300 
 1107              	.LASF0:
 1108 01fd 7369676E 		.ascii	"signed char\000"
 1108      65642063 
 1108      68617200 
 1109              	.LASF7:
 1110 0209 6C6F6E67 		.ascii	"long long unsigned int\000"
ARM GAS  C:\Users\juano\AppData\Local\Temp\ccicpn4E.s 			page 26


 1110      206C6F6E 
 1110      6720756E 
 1110      7369676E 
 1110      65642069 
 1111              	.LASF8:
 1112 0220 756E7369 		.ascii	"unsigned int\000"
 1112      676E6564 
 1112      20696E74 
 1112      00
 1113              	.LASF18:
 1114 022d 6D617843 		.ascii	"maxCharacters\000"
 1114      68617261 
 1114      63746572 
 1114      7300
 1115              	.LASF3:
 1116 023b 73686F72 		.ascii	"short unsigned int\000"
 1116      7420756E 
 1116      7369676E 
 1116      65642069 
 1116      6E7400
 1117              	.LASF13:
 1118 024e 63686172 		.ascii	"char\000"
 1118      00
 1119              	.LASF33:
 1120 0253 4C43445F 		.ascii	"LCD_customFonts\000"
 1120      63757374 
 1120      6F6D466F 
 1120      6E747300 
 1121              	.LASF5:
 1122 0263 6C6F6E67 		.ascii	"long unsigned int\000"
 1122      20756E73 
 1122      69676E65 
 1122      6420696E 
 1122      7400
 1123              	.LASF12:
 1124 0275 646F7562 		.ascii	"double\000"
 1124      6C6500
 1125              	.LASF22:
 1126 027c 63757272 		.ascii	"currentRow\000"
 1126      656E7452 
 1126      6F7700
 1127              	.LASF21:
 1128 0287 636F756E 		.ascii	"count8\000"
 1128      743800
 1129              	.LASF29:
 1130 028e 4C43445F 		.ascii	"LCD_Position\000"
 1130      506F7369 
 1130      74696F6E 
 1130      00
 1131              	.LASF15:
 1132 029b 4C43445F 		.ascii	"LCD_DrawVerticalBG\000"
 1132      44726177 
 1132      56657274 
 1132      6963616C 
 1132      424700
 1133              	.LASF28:
 1134 02ae 4C43445F 		.ascii	"LCD_WriteData\000"
ARM GAS  C:\Users\juano\AppData\Local\Temp\ccicpn4E.s 			page 27


 1134      57726974 
 1134      65446174 
 1134      6100
 1135              		.ident	"GCC: (GNU Tools for ARM Embedded Processors) 5.4.1 20160609 (release) [ARM/embedded-5-bran
