:2000000001090140040A0140010B014001150140011B0140024401400145014003460140AD
:20002000034701400248014001490140014C0140024D0140B502B802BE01D804DF011D02F6
:20004000EC10EC107C01DE01940145089401D001A508B401EC082510C820B510A508B50862
:20006000EC0800000000800000004000800000808000000000000000000303000000000046
:2000800001001401250018010000000000000000000000000000000000000000000000000C
:00000001FF
